Place,Name,CyrillicName,Country,BirthYear,Sex,Event,Equipment,Division,WeightClassKg,BodyweightKg,Best3SquatKg,Best3BenchKg,Best3DeadliftKg,TotalKg
1,Irina Ivanova,Ирина Иванова,,1996,F,SBD,Single-ply,Open,47,46.86,135,87.5,127.5,350
2,Anastasiya Polivanova,Анастасия Поливанова,,1993,F,SBD,Single-ply,Open,47,45.36,107.5,67.5,132.5,307.5
3,Oisha Aleksandrova,Оиша Александрова,,1999,F,SBD,Single-ply,Open,47,43.96,110,72.5,105,287.5
4,Yuliya Luchutenkova,Юлия Лучутенкова,,1992,F,SBD,Single-ply,Open,47,45.74,112.5,57.5,110,280
5,Viktoriya Polyakova,Виктория Полякова,,1999,F,SBD,Single-ply,Open,47,42.6,102.5,50,100,252.5
1,Olga Bychkova,Ольга Бычкова,,1966,F,SBD,Single-ply,Open,52,50.84,140,77.5,155,372.5
2,Evgeniya Galushina,Евгения Галушина,,1988,F,SBD,Single-ply,Open,52,51.24,127.5,72.5,130,330
3,Anna Leonenko,Анна Леоненко,,1992,F,SBD,Single-ply,Open,52,50.9,135,50,140,325
4,Viktoriya Kononenko,Виктория Кононенко,,1996,F,SBD,Single-ply,Open,52,51.5,120,75,130,325
5,Snezhana Vasilenko,Снежана Василенко,,2001,F,SBD,Single-ply,Open,52,51.74,140,55,130,325
6,Ekaterina Nikolaeva,Екатерина Николаева,,1989,F,SBD,Single-ply,Open,52,52,117.5,77.5,130,325
7,Yuliya Yakovleva,Юлия Яковлева,,2000,F,SBD,Single-ply,Open,52,49.98,122.5,60,130,312.5
8,Anna Belova,Анна Белова,,1992,F,SBD,Single-ply,Open,52,50.76,132.5,65,110,307.5
9,Marina Evseeva,Марина Евсеева,,1982,F,SBD,Single-ply,Open,52,51.06,110,62.5,120,292.5
10,Olesya Pereverzeva,Олеся Переверзева,,1990,F,SBD,Single-ply,Open,52,51.54,100,37.5,92.5,230
DQ,Elizaveta Poslavskaya,Елизавета Пославская,,1999,F,SBD,Single-ply,Open,52,51.56,125,62.5,,
DQ,Valeriya Ilicheva,Валерия Ильичева,,2000,F,SBD,Single-ply,Open,52,51.2,127.5,-67.5,,
DQ,Arina Shcherbakova,Арина Щербакова,,1999,F,SBD,Single-ply,Open,52,51,-122.5,,,
DQ,Anna Loginova,Анна Логинова,,1988,F,SBD,Single-ply,Open,52,51.34,-105,,,
1,Kseniya Mokhova,Ксения Мохова,,1986,F,SBD,Single-ply,Open,57,56.36,170,85,190,445
2,Ekaterina Burenko,Екатерина Буренко,,1992,F,SBD,Single-ply,Open,57,53.74,172.5,80,150,402.5
3,Natalya Kruchinina,Наталья Кручинина,,1992,F,SBD,Single-ply,Open,57,56.8,155,85,137.5,377.5
4,Natalya Rybkina,Наталья Рыбкина,,1983,F,SBD,Single-ply,Open,57,56.56,140,85,142.5,367.5
5,Viktoriya Zimina,Виктория Зимина,,1994,F,SBD,Single-ply,Open,57,54.38,147.5,77.5,140,365
6,Anastasiya Bogatenkova,Анастасия Богатенкова,,1998,F,SBD,Single-ply,Open,57,56.54,140,77.5,145,362.5
7,Kseniya Lebedeva,Ксения Лебедева,,1982,F,SBD,Single-ply,Open,57,54.24,130,95,135,360
8,Tatyana Vishnevskaya,Татьяна Вишневская,,1987,F,SBD,Single-ply,Open,57,56.54,135,90,130,355
9,Kristina Burkovskaya,Кристина Бурковская,,1998,F,SBD,Single-ply,Open,57,55.7,140,85,127.5,352.5
10,Anastasiya Terenteva,Анастасия Терентьева,,1993,F,SBD,Single-ply,Open,57,56.36,145,82.5,125,352.5
11,Anastasiya Drobysheva,Анастасия Дробышева,,1994,F,SBD,Single-ply,Open,57,52.7,115,72.5,112.5,300
12,Galina Dzham,Галина Джам,,1993,F,SBD,Single-ply,Open,57,56.32,120,52.5,110,282.5
13,Anastasiya Gubanova,Анастасия Губанова,,1993,F,SBD,Single-ply,Open,57,55.64,110,60,100,270
14,Valentina Kryukova,Валентина Крюкова,,1995,F,SBD,Single-ply,Open,57,56.2,90,75,105,270
15,Ekaterina Chebotaeva,Екатерина Чеботаева,,1989,F,SBD,Single-ply,Open,57,55.32,90,30,90,210
DQ,Viktoriya Posokhova,Виктория Посохова,,1990,F,SBD,Single-ply,Open,57,55.86,137.5,-67.5,,
DQ,Elena Sidorova,Елена Сидорова,,1989,F,SBD,Single-ply,Open,57,56.1,130,-80,,
DQ,Natalya Ustinova,Наталья Устинова,,1996,F,SBD,Single-ply,Open,57,56.52,-130,,,
NS,Aleksandra Makovleva,Александра Маковлева,,1986,F,SBD,Single-ply,Open,57,57,,,,
1,Nataliya Posnikova,Наталия Посникова,,1987,F,SBD,Single-ply,Open,63,62.99,190,112.5,192.5,495
2,Lusine Khachaturyan,Лусинэ Хачатурян,,1996,F,SBD,Single-ply,Open,63,60.66,175,95,175,445
3,Valeriya Penevskaya,Валерия Пеньевская,,1997,F,SBD,Single-ply,Open,63,60.68,185,85,162.5,432.5
4,Elizaveta Barkova,Елизавета Баркова,,1980,F,SBD,Single-ply,Open,63,60.24,145,110,160,415
5,Lada Bessonova,Лада Бессонова,,2001,F,SBD,Single-ply,Open,63,61.36,155,100,145,400
6,Irina Vysotskaya,Ирина Высоцкая,Ukraine,1993,F,SBD,Single-ply,Open,63,62.12,157.5,92.5,150,400
7,Olga Rozhkova,Ольга Рожкова,,1974,F,SBD,Single-ply,Open,63,60.6,125,123,150,398
8,Elena Valieva,Елена Валиева,,1978,F,SBD,Single-ply,Open,63,62.36,160,90,142.5,392.5
9,Alevtina Ivanova,Алевтина Иванова,,1971,F,SBD,Single-ply,Open,63,62.46,135,120,137.5,392.5
10,Aleksandra Osina,Александра Осина,,1986,F,SBD,Single-ply,Open,63,61.26,145,117.5,125,387.5
11,Natalya Zemtsovskaya,Наталья Земцовская,,1993,F,SBD,Single-ply,Open,63,62.18,145,102.5,140,387.5
12,Natalya Masych,Наталья Масыч,,1986,F,SBD,Single-ply,Open,63,61.82,150,75,160,385
13,Anastasiya Davidenko,Анастасия Давиденко,,1996,F,SBD,Single-ply,Open,63,62.86,150,80,155,385
14,Mariya Shestakova,Мария Шестакова,,1991,F,SBD,Single-ply,Open,63,62.02,145,85,145,375
15,Natalya Goleva,Наталья Гольева,,1985,F,SBD,Single-ply,Open,63,60.18,140,95,135,370
16,Darya Miloradova,Дарья Милорадова,,1994,F,SBD,Single-ply,Open,63,62.16,157.5,82.5,130,370
17,Yuliya Lomatskaya,Юлия Ломацкая,,1979,F,SBD,Single-ply,Open,63,61.54,155,62.5,150,367.5
18,Kristina Romanova,Кристина Романова,,1998,F,SBD,Single-ply,Open,63,63,155,67.5,140,362.5
19,Anastasiya Kiseleva,Анастасия Киселева,,1993,F,SBD,Single-ply,Open,63,60.32,132.5,65,125,322.5
20,Olga Shcherbak,Ольга Щербак,,1994,F,SBD,Single-ply,Open,63,61.64,115,80,125,320
21,Evgeniya Andrienko,Евгения Андриенко,,1997,F,SBD,Single-ply,Open,63,62.16,137.5,67.5,115,320
22,Rimma Marina,Римма Марьина,,1999,F,SBD,Single-ply,Open,63,62.14,105,50,112.5,267.5
DQ,Elvira Ivanova,Эльвира Иванова,,1984,F,SBD,Single-ply,Open,63,61.98,150,-85,,
1,Darya Smirnova,Дарья Смирнова,,1991,F,SBD,Single-ply,Open,72,70.35,195,115,172.5,482.5
2,Natalya Guzenina,Наталья Гузенина,,1989,F,SBD,Single-ply,Open,72,70.4,180,102.5,195,477.5
3,Elizaveta Moskaeva,Елизавета Москаева,,1996,F,SBD,Single-ply,Open,72,71.7,190,102.5,180,472.5
4,Margarita Zhogina,Маргарита Жогина,,1997,F,SBD,Single-ply,Open,72,70.4,200,90,175,465
5,Angelina Goncharova,Ангелина Гончарова,,1983,F,SBD,Single-ply,Open,72,70.4,170,100,175,445
6,Elena Mochalova,Елена Мочалова,,1988,F,SBD,Single-ply,Open,72,71,172.5,95,170,437.5
7,Marina Biletnikova,Марина Билетникова,,1981,F,SBD,Single-ply,Open,72,69.5,180,85,155,420
8,Tatyana Svitkova,Татьяна Свиткова,,1984,F,SBD,Single-ply,Open,72,70.7,160,97.5,160,417.5
9,Alisa Trandina,Алиса Трандина,Ukraine,2000,F,SBD,Single-ply,Open,72,65.5,155,100,160,415
10,Oksana Vinogradova,Оксана Виноградова,,1982,F,SBD,Single-ply,Open,72,69.7,182.5,70,160,412.5
11,Anna Bastina,Анна Бастина,,1989,F,SBD,Single-ply,Open,72,70.35,165,85,155,405
12,Irina Lobanova,Ирина Лобанова,,1990,F,SBD,Single-ply,Open,72,69.7,162.5,70,155,387.5
13,Svetlana Erokhina,Светлана Ерохина,,1973,F,SBD,Single-ply,Open,72,69,132.5,82.5,160,375
14,Olga Fedotenko,Ольга Федотенко,,1981,F,SBD,Single-ply,Open,72,67.8,155,65,147.5,367.5
15,Elizaveta Shestonova,Елизавета Шестонова,,1999,F,SBD,Single-ply,Open,72,70.3,150,75,142.5,367.5
16,Liliya Dyachkovskaya,Лилия Дьячковская,,2001,F,SBD,Single-ply,Open,72,68.45,65,35,80,180
DQ,Kseniya Gunina,Ксения Гунина,,1986,F,SBD,Single-ply,Open,72,70.8,165,-122.5,,
1,Marina Krapivina,Марина Крапивина,,1989,F,SBD,Single-ply,Open,84,78.7,215,150,202.5,567.5
2,Oksana Vislova,Оксана Вислова,,1995,F,SBD,Single-ply,Open,84,82.6,220,117.5,180,517.5
3,Nadezhda Kuznetsova,Надежда Кузнецова,,1979,F,SBD,Single-ply,Open,84,83,180,90,185,455
4,Ekaterina Tereshkina,Екатерина Терешкина,,1996,F,SBD,Single-ply,Open,84,82.8,165,112.5,175,452.5
5,Anna Zykova,Анна Зыкова,,1994,F,SBD,Single-ply,Open,84,80.2,175,97.5,155,427.5
6,Yuliya Alekseeva,Юлия Алексеева,,1993,F,SBD,Single-ply,Open,84,76,147.5,92.5,152.5,392.5
1,Boris Komissarov,Борис Комиссаров,,1998,M,SBD,Single-ply,Open,59,57.35,220,145,210,575
2,Dmitriy Gonchar,Дмитрий Гончар,,1994,M,SBD,Single-ply,Open,59,59,195,160.5,195,550.5
3,Aleksandr Tokarchuk,Александр Токарчук,,2000,M,SBD,Single-ply,Open,59,58.95,150,95,155,400
4,Sevastyan Vitushkin,Севастьян Витушкин,,2000,M,SBD,Single-ply,Open,59,56.5,150,70,145,365
1,Rustam Aliev,Рустам Алиев,,1988,M,SBD,Single-ply,Open,66,65.45,225,185,200,610
2,Anton Dauka,Антон Даука,,1990,M,SBD,Single-ply,Open,66,65.5,230,160,220,610
3,Sergey Volodarskiy,Сергей Володарский,,1989,M,SBD,Single-ply,Open,66,64.95,220,152.5,220,592.5
4,Artyom Dobrenkov,Артём Добреньков,,1996,M,SBD,Single-ply,Open,66,66,207.5,142.5,180,530
5,Ilya Arsenev,Илья Арсеньев,,1978,M,SBD,Single-ply,Open,66,65.65,205,120,195,520
6,Vladimir Churin,Владимир Чурин,,1990,M,SBD,Single-ply,Open,66,65.05,180,150,185,515
7,Ilya Alenin,Илья Аленин,,1996,M,SBD,Single-ply,Open,66,65,180,135,180,495
8,Andrey Andreev,Андрей Андреев,,1994,M,SBD,Single-ply,Open,66,63.55,170,122.5,190,482.5
NS,Mikhail Voskresenskiy,Михаил Воскресенский,,1983,M,SBD,Single-ply,Open,66,,,,,
NS,Nikolay Kovalyov,Николай Ковалёв,,2001,M,SBD,Single-ply,Open,66,,,,,
1,Pavel Belevantsev,Павел Белеванцев,,1983,M,SBD,Single-ply,Open,74,73.58,305,215,260,780
2,Maksim Kapotov,Максим Капотов,,1996,M,SBD,Single-ply,Open,74,72.02,280,190,245,715
3,Nikolay Zhmurov,Николай Жмуров,,1985,M,SBD,Single-ply,Open,74,73.94,270,190,247.5,707.5
4,Vitaliy Melekhin,Виталий Мелехин,,1997,M,SBD,Single-ply,Open,74,73.94,306,145,255,706
5,Aleksandr Koshkin,Александр Кошкин,,1983,M,SBD,Single-ply,Open,74,73.46,267.5,172.5,250,690
6,Maksim Nikitin,Максим Никитин,,1996,M,SBD,Single-ply,Open,74,73.36,265,165,255,685
7,Aleksey Khankhaldov,Алексей Ханхалдов,,1987,M,SBD,Single-ply,Open,74,73.46,275,172.5,230,677.5
8,Dmitriy Efimov,Дмитрий Ефимов,,1989,M,SBD,Single-ply,Open,74,73.6,240,165,245,650
9,Aleksey Alekseev,Алексей Алексеев,,1989,M,SBD,Single-ply,Open,74,69.6,235,175,232.5,642.5
10,Oleg Zelyonyy,Олег Зелёный,,1984,M,SBD,Single-ply,Open,74,71.34,230,170,230,630
11,Lev Ezhov,Лев Ежов,,1989,M,SBD,Single-ply,Open,74,72.76,225,170,232.5,627.5
12,Andrey Terekhov,Андрей Терехов,,1979,M,SBD,Single-ply,Open,74,73.52,235,135,225,595
13,Dmitriy Rudenko,Дмитрий Руденко,,1999,M,SBD,Single-ply,Open,74,71.02,250,125,200,575
14,Ruslan Akhmedov,Руслан Ахмедов,,1996,M,SBD,Single-ply,Open,74,73.4,225,150,200,575
15,Yuriy Balakhonov,Юрий Балахонов,,1996,M,SBD,Single-ply,Open,74,70.8,220,120,220,560
16,Aleksey Saprykin,Алексей Сапрыкин,,1996,M,SBD,Single-ply,Open,74,73.38,195,155,205,555
17,Pavel Gorbylev,Павел Горбылев,,1983,M,SBD,Single-ply,Open,74,72.88,202.5,120,207.5,530
18,Sergey Krumlyakov,Сергей Крумляков,,1994,M,SBD,Single-ply,Open,74,72.46,210,80,202.5,492.5
DQ,Sergey Paramonov,Сергей Парамонов,,1986,M,SBD,Single-ply,Open,74,72.04,270,-170,,
DQ,Anton Starikov,Антон Стариков,,1997,M,SBD,Single-ply,Open,74,72.22,200,-130,,
DQ,Artyom Zabelin,Артём Забелин,,1990,M,SBD,Single-ply,Open,74,73.62,275,-170,,
DQ,Konstantin Valeev,Константин Валеев,,1988,M,SBD,Single-ply,Open,74,72.76,-145,,,
1,Sergey Pristinskiy,Сергей Пристинский,,1992,M,SBD,Single-ply,Open,83,81,280,212.5,295.5,788
2,Aleksandr Perezhogin,Александр Пережогин,,1978,M,SBD,Single-ply,Open,83,81.4,300,202.5,265,767.5
3,Andrey Marugin,Андрей Маругин,,1988,M,SBD,Single-ply,Open,83,82.3,285,172.5,297.5,755
4,Aleksandr Kokornov,Александр Кокорнов,,1964,M,SBD,Single-ply,Open,83,82.5,285,185,280,750
5,Pavel Zabaznov,Павел Забазнов,,1987,M,SBD,Single-ply,Open,83,82.1,280,220,247.5,747.5
6,Nikita Sludnikov,Никита Слудников,,1988,M,SBD,Single-ply,Open,83,82.1,262.5,210,275,747.5
7,Stepan Zhilin,Степан Жилин,,1990,M,SBD,Single-ply,Open,83,82.68,280,200,267.5,747.5
8,Artyom Polyanskiy,Артём Полянский,,1992,M,SBD,Single-ply,Open,83,82.8,280,200,250,730
9,Igor Shevtsov,Игорь Шевцов,,1983,M,SBD,Single-ply,Open,83,82.55,280,160,272.5,712.5
10,Maksim Svinarev,Максим Свинарев,,1994,M,SBD,Single-ply,Open,83,82.4,290,180,240,710
11,Viktor Frolov,Виктор Фролов,,1997,M,SBD,Single-ply,Open,83,82.2,265,180,260,705
12,Ivan Karangin,Иван Карангин,,1985,M,SBD,Single-ply,Open,83,80.16,270,185,245,700
13,Sergey Salikov,Сергей Саликов,,1983,M,SBD,Single-ply,Open,83,83,270,180,240,690
14,Vyacheslav Nikadimov,Вячеслав Никадимов,,1987,M,SBD,Single-ply,Open,83,82.37,230,180,275,685
15,Dmitriy Kushnir,Дмитрий Кушнир,,1989,M,SBD,Single-ply,Open,83,79.6,260,180,240,680
16,Evgeniy Yakovlev,Евгений Яковлев,,1977,M,SBD,Single-ply,Open,83,82.2,275,170,230,675
17,Aleksey Doronchenkov,Алексей Доронченков,,1991,M,SBD,Single-ply,Open,83,82.7,240,195,240,675
18,Roman Chestnykh,Роман Честных,,1981,M,SBD,Single-ply,Open,83,82.7,260,180,220,660
19,Kirill Boglayov,Кирилл Боглаёв,,1993,M,SBD,Single-ply,Open,83,82.35,250,185,220,655
20,Mikhail Sotnikov,Михаил Сотников,,1979,M,SBD,Single-ply,Open,83,80.1,235,145,235,615
21,Maksim Pashnin,Максим Пашнин,,1991,M,SBD,Single-ply,Open,83,81.6,210,160,230,600
22,Nikolay Abramkin,Николай Абрамкин,,1989,M,SBD,Single-ply,Open,83,82.5,215,155,230,600
23,Aleksandr Demchenko,Александр Демченко,,1988,M,SBD,Single-ply,Open,83,81,220,132.5,245,597.5
24,Nikita Plyushchunov,Никита Плющунов,,1994,M,SBD,Single-ply,Open,83,81.4,217.5,155,210,582.5
25,Dmitriy Borkov,Дмитрий Борков,,1997,M,SBD,Single-ply,Open,83,83,220,125,230,575
26,Vasiliy Balyulin,Василий Балюлин,,1991,M,SBD,Single-ply,Open,83,80.8,210,122.5,220,552.5
27,Ilya Alymov,Илья Алымов,,1997,M,SBD,Single-ply,Open,83,79.2,190,165,195,550
28,Maksim Zaretskiy,Максим Зарецкий,,1997,M,SBD,Single-ply,Open,83,81.7,205,162.5,180,547.5
29,Nikolay Sineshchenkov,Николай Синещенков,,1998,M,SBD,Single-ply,Open,83,78.9,170,155,185,510
30,Edgar Keyan,Эдгар Кеян,,1995,M,SBD,Single-ply,Open,83,81.06,170,117.5,172.5,460
DQ,Ilya Simakov,Илья Симаков,,1983,M,SBD,Single-ply,Open,83,82.28,-280,,,
DQ,Vladimir Shornikov,Владимир Шорников,,1977,M,SBD,Single-ply,Open,83,82.7,-275,,,
DQ,Stanislav Bykov,Станислав Быков,,1989,M,SBD,Single-ply,Open,83,82.7,-260,,,
DQ,Maksim Golubinov,Максим Голубинов,,1984,M,SBD,Single-ply,Open,83,81.3,-245,,,
DQ,Ilya Frolov,Илья Фролов,,1987,M,SBD,Single-ply,Open,83,77.5,-200,,,
DQ,Dmitriy Kochura,Дмитрий Кочура,,1992,M,SBD,Single-ply,Open,83,82.2,,,,
1,Aleksandr Belobrov,Александр Белобров,,1991,M,SBD,Single-ply,Open,93,92.5,332.5,210,327.5,870
2,Roman Drochnev,Роман Дрочнев,,1987,M,SBD,Single-ply,Open,93,92.75,320,255,290,865
3,Vitaliy Marin,Виталий Марьин,,1988,M,SBD,Single-ply,Open,93,91.8,320,237.5,300,857.5
4,Artem Chudinov,Артем Чудинов,,1990,M,SBD,Single-ply,Open,93,92.8,317.5,217.5,275,810
5,Aleksey Drachuk,Алексей Драчук,,1986,M,SBD,Single-ply,Open,93,91.4,300,250,257.5,807.5
6,Dmitriy Menshchikov,Дмитрий Меньщиков,,1991,M,SBD,Single-ply,Open,93,92.15,315,205,280,800
7,Konstantin Sapunkov,Константин Сапунков,,1981,M,SBD,Single-ply,Open,93,93,295,240,262.5,797.5
8,Denis Korshunov,Денис Коршунов,,1982,M,SBD,Single-ply,Open,93,91.6,285,245,260,790
9,Vyacheslav Nartaylakov,Вячеслав Нартайлаков,,1992,M,SBD,Single-ply,Open,93,88,315,205,267.5,787.5
10,Sergey Chumichev,Сергей Чумичев,,1986,M,SBD,Single-ply,Open,93,89.05,300,217.5,270,787.5
11,Stanislav Gavrish,Станислав Гавриш,,1993,M,SBD,Single-ply,Open,93,91.5,285,220,282.5,787.5
12,Aleksandr Matskevich,Александр Мацкевич,,1988,M,SBD,Single-ply,Open,93,91.75,300,205,282.5,787.5
13,Ruslan Kukushkin,Руслан Кукушкин,,1980,M,SBD,Single-ply,Open,93,92.5,302.5,200,285,787.5
14,Dmitriy Verbitskiy,Дмитрий Вербицкий,,1985,M,SBD,Single-ply,Open,93,92.5,290,200,297.5,787.5
15,Oleg Titov,Олег Титов,,1994,M,SBD,Single-ply,Open,93,93,295,220,272.5,787.5
16,Renat Abdusalamov,Ренат Абдусаламов,,1995,M,SBD,Single-ply,Open,93,92.4,310,192.5,265,767.5
17,Ivan Yatsyuk,Иван Яцюк,,1991,M,SBD,Single-ply,Open,93,92.54,260,230,270,760
18,Mikhail Yatsevich,Михаил Яцевич,,1995,M,SBD,Single-ply,Open,93,90.4,265,210,280,755
19,Ilya Knyazhev,Илья Княжев,,1987,M,SBD,Single-ply,Open,93,92.3,300,182.5,265,747.5
20,Mikhail Deryugin,Михаил Дерюгин,,1998,M,SBD,Single-ply,Open,93,89,295,200,250,745
21,Sergey Mitrofanov,Сергей Митрофанов,,1988,M,SBD,Single-ply,Open,93,92,260,210,275,745
22,Vladimir Bukachyov,Владимир Букачёв,,1967,M,SBD,Single-ply,Open,93,92.4,275,205,265,745
23,Daniil Kasatkin,Даниил Касаткин,,1990,M,SBD,Single-ply,Open,93,92.9,292.5,200,250,742.5
24,Dmitriy Dolmatov,Дмитрий Долматов,,1988,M,SBD,Single-ply,Open,93,90.3,260,200,275,735
25,Aleksandr Klochikhin,Александр Клочихин,,1977,M,SBD,Single-ply,Open,93,89.75,260,230,240,730
26,Aleksey Makarenko,Алексей Макаренко,,1985,M,SBD,Single-ply,Open,93,91.8,285,185,260,730
27,Yaroslav Dikun,Ярослав Дикун,,1995,M,SBD,Single-ply,Open,93,92.1,287.5,192.5,250,730
28,Aleksandr Polozov,Александр Полозов,,1987,M,SBD,Single-ply,Open,93,91,285,190,240,715
29,Tarik Rayan,Тарик Райан,,1991,M,SBD,Single-ply,Open,93,93,275,167.5,265,707.5
30,Vladimir Tikhonov,Владимир Тихонов,,1969,M,SBD,Single-ply,Open,93,92.7,252.5,195,250,697.5
31,Artyom Ulanov,Артём Уланов,,1996,M,SBD,Single-ply,Open,93,91.4,260,150,255,665
32,Nikolay Slavskiy,Николай Славский,,1985,M,SBD,Single-ply,Open,93,92.18,237.5,160,245,642.5
33,Andrey Kharitov,Андрей Харитов,,1995,M,SBD,Single-ply,Open,93,91.9,230,147.5,260,637.5
34,Sergey Blokhin,Сергей Блохин,,2000,M,SBD,Single-ply,Open,93,91.8,250,160,220,630
35,Ivan Seryogin,Иван Серёгин,,1993,M,SBD,Single-ply,Open,93,91.86,220,180,230,630
36,Vladislav Boytsov,Владислав Бойцов,,1987,M,SBD,Single-ply,Open,93,91.68,222.5,150,227.5,600
37,Viktor Pavlik,Виктор Павлик,,1997,M,SBD,Single-ply,Open,93,88.2,200,160,230,590
38,Svyatoslav Mozarin,Святослав Мозарин,,1999,M,SBD,Single-ply,Open,93,92.42,225,130,215,570
39,Anatoliy Rylov,Анатолий Рылов,,1986,M,SBD,Single-ply,Open,93,91.74,200,150,205,555
DQ,Ivan Lityaykin,Иван Литяйкин,,1987,M,SBD,Single-ply,Open,93,88.8,210,135,,
DQ,Aleksandr Melnikov,Александр Мельников,,1988,M,SBD,Single-ply,Open,93,90.72,222.5,-135,,
DQ,Roman Kazakov,Роман Казаков,,1989,M,SBD,Single-ply,Open,93,92.15,270,-200,,
DQ,Vladimir Bakshaliev,Владимир Бакшалиев,,1983,M,SBD,Single-ply,Open,93,91.7,-300,,,
DQ,Anatoliy Belov,Анатолий Белов,,1988,M,SBD,Single-ply,Open,93,89,-290,,,
DQ,Evgeniy Sinyakov,Евгений Синяков,,1988,M,SBD,Single-ply,Open,93,91,270,,,
DQ,Aleksandr Kapitanov,Александр Капитанов,,1996,M,SBD,Single-ply,Open,93,91.3,-270,,,
DQ,Sergey Mololkin,Сергей Мололкин,,1996,M,SBD,Single-ply,Open,93,92.4,-265,,,
DQ,Aleksey Korolev,Алексей Королев,,1991,M,SBD,Single-ply,Open,93,89.5,-250,,,
DQ,Ruslan Rodionov,Руслан Родионов,,1981,M,SBD,Single-ply,Open,93,83.4,-240,,,
DQ,Sergey Zotov,Сергей Зотов,,1987,M,SBD,Single-ply,Open,93,85,-237.5,,,
DQ,Vladimir Kolotvin,Владимир Колотвин,,1987,M,SBD,Single-ply,Open,93,93,,,,
DQ,Maksim Veter,Максим Ветер,,1987,M,SBD,Single-ply,Open,105,93.5,,,,
NS,Evgeniy Filatov,Евгений Филатов,,1986,M,SBD,Single-ply,Open,93,,,,,
NS,Sergey Yakushevich,Сергей Якушевич,,1992,M,SBD,Single-ply,Open,93,,,,,
1,Aleksey Shestakov,Алексей Шестаков,,1984,M,SBD,Single-ply,Open,105,101.6,392.5,265,290,947.5
2,Dmitriy Nikultsev,Дмитрий Никульцев,,1989,M,SBD,Single-ply,Open,105,104.5,315,290.5,315,920.5
3,Konstantin Karlov,Константин Карлов,,1980,M,SBD,Single-ply,Open,105,99.7,380,230,310,920
4,Sergey Kryuk,Сергей Крюк,,1990,M,SBD,Single-ply,Open,105,104.3,330,230,330,890
5,Vyacheslav Tolmasov,Вячеслав Толмасов,,1987,M,SBD,Single-ply,Open,105,103.7,310,230,310,850
6,Viktor Popov,Виктор Попов,,1987,M,SBD,Single-ply,Open,105,104.08,315,215,312.5,842.5
7,Dmitriy Borodin,Дмитрий Бородин,,1983,M,SBD,Single-ply,Open,105,104.1,310,200,330,840
8,Igor Valikovskiy,Игорь Валиковский,,1993,M,SBD,Single-ply,Open,105,101.26,315,190,325,830
9,Valeriy Karlov,Валерий Карлов,,1979,M,SBD,Single-ply,Open,105,103.9,315,245,270,830
10,Rinat Adilkhanov,Ринат Адилханов,,1984,M,SBD,Single-ply,Open,105,103.16,310,240,275,825
11,Ilya Karmishin,Илья Кармишин,,1984,M,SBD,Single-ply,Open,105,104.2,305,220,300,825
12,Mikhail Stekolnikov,Михаил Стекольников,,1987,M,SBD,Single-ply,Open,105,102.9,327.5,225,270,822.5
13,Vasiliy Polenin,Василий Поленин,,1997,M,SBD,Single-ply,Open,105,101,295,210,310,815
14,Igor Paramonov,Игорь Парамонов,,1983,M,SBD,Single-ply,Open,105,102.2,320,190,305,815
15,Eduard Gallyamov,Эдуард Галлямов,,1991,M,SBD,Single-ply,Open,105,102.56,295,217.5,302.5,815
16,Dmitriy Ivanov,Дмитрий Иванов,,1993,M,SBD,Single-ply,Open,105,102.9,302.5,240,272.5,815
17,Andrey Mironov,Андрей Миронов,,1991,M,SBD,Single-ply,Open,105,103.4,280,270,265,815
18,Pavel Rezunov,Павел Резунов,,1992,M,SBD,Single-ply,Open,105,103.6,300,255,260,815
19,Aleksey Ilin,Алексей Ильин,,1984,M,SBD,Single-ply,Open,105,103.64,317.5,222.5,275,815
20,Vladimir Sovershenov,Владимир Совершенов,,1986,M,SBD,Single-ply,Open,105,103.8,310,190,315,815
21,Yuriy Mukhin,Юрий Мухин,,1995,M,SBD,Single-ply,Open,105,103.96,280,227.5,307.5,815
22,Mikhail Sorokin,Михаил Сорокин,,1986,M,SBD,Single-ply,Open,105,102.7,287.5,247.5,267.5,802.5
23,Pavel Bakharev,Павел Бахарев,,1991,M,SBD,Single-ply,Open,105,102.6,315,195,280,790
24,Aleksandr Evseev,Александр Евсеев,,1983,M,SBD,Single-ply,Open,105,103.96,300,215,275,790
25,Dmitriy Epishev,Дмитрий Епишев,,1996,M,SBD,Single-ply,Open,105,103.92,270,215,300,785
26,Mikhail Matynyan,Михаил Матынян,,1990,M,SBD,Single-ply,Open,105,104.4,280,225,280,785
27,Vladimir Volkov,Владимир Волков,,1994,M,SBD,Single-ply,Open,105,104.9,295,207.5,272.5,775
28,Roman Denisov,Роман Денисов,,1988,M,SBD,Single-ply,Open,105,98.64,275,217.5,280,772.5
29,Maksim Korolev,Максим Королев,,1988,M,SBD,Single-ply,Open,105,103.54,290,250,225,765
30,Vladislav Akimov,Владислав Акимов,,1996,M,SBD,Single-ply,Open,105,104.44,282.5,207.5,272.5,762.5
31,Andrey Ozerov,Андрей Озеров,,1995,M,SBD,Single-ply,Open,105,96.9,265,235,255,755
32,Artem Barsagaev,Артем Барсагаев,,1994,M,SBD,Single-ply,Open,105,98.96,285,205,265,755
33,Andrey Baklazhanskiy,Андрей Баклажанский,,1984,M,SBD,Single-ply,Open,105,100.9,290,190,275,755
34,Vilgem Nakhatakyan,Вильгем Нахатакян,,1992,M,SBD,Single-ply,Open,105,99.24,255,195,300,750
35,Vladislav Lyskov,Владислав Лысков,,1995,M,SBD,Single-ply,Open,105,98.44,270,190,280,740
36,Aleksandr Kuskov,Александр Кусков,,1990,M,SBD,Single-ply,Open,105,103.34,260,200,270,730
37,Konstantin Logvinov,Константин Логвинов,,1997,M,SBD,Single-ply,Open,105,94.4,270,180,265,715
38,Vladimir Selin,Владимир Селин,,1977,M,SBD,Single-ply,Open,105,103.8,260,190,245,695
39,Nikita Matko,Никита Матько,,1984,M,SBD,Single-ply,Open,105,96.82,250,195,235,680
40,Andrey Sirotyuk,Андрей Сиротюк,,1976,M,SBD,Single-ply,Open,105,99.52,242.5,185,245,672.5
41,Artem Kotsenko,Артем Коценко,,1979,M,SBD,Single-ply,Open,105,101.78,230,200,240,670
42,Andrey Boyko,Андрей Бойко,,1997,M,SBD,Single-ply,Open,105,98.2,245,160,255,660
43,Aleksandr Timokhin,Александр Тимохин,,1985,M,SBD,Single-ply,Open,105,102.32,230,200,230,660
44,Nikolay Chayuk,Николай Чаюк,,1990,M,SBD,Single-ply,Open,105,103.96,232.5,182.5,245,660
45,Maksim Ostryy,Максим Острый,,1985,M,SBD,Single-ply,Open,105,104.08,235,190,232.5,657.5
46,Aleksey Davydov,Алексей Давыдов,,1996,M,SBD,Single-ply,Open,105,102.16,215,202.5,227.5,645
47,Aleksey Koryagin,Алексей Корягин,,1981,M,SBD,Single-ply,Open,105,105,210,172.5,220,602.5
48,Pavel Shevchenko,Павел Шевченко,,1999,M,SBD,Single-ply,Open,105,103.54,225,127.5,220,572.5
49,Viktor Suvernev,Виктор Сувернев,,1977,M,SBD,Single-ply,Open,105,103.68,205,160,207.5,572.5
DQ,Vadim Shchelochkov,Вадим Щелочков,,1995,M,SBD,Single-ply,Open,105,104.12,315,215,-285,
DQ,Dmitriy Makarov,Дмитрий Макаров,,1984,M,SBD,Single-ply,Open,105,101.2,330,-185,,
DQ,Denis Dyomkin,Денис Дёмкин,,1987,M,SBD,Single-ply,Open,105,99.56,290,195,,
DQ,Nikita Makeev,Никита Макеев,,1998,M,SBD,Single-ply,Open,105,99.8,285,205,,
DQ,Igor Kalashnikov,Игорь Калашников,,1977,M,SBD,Single-ply,Open,105,104.52,-315,,,
DQ,Dmitriy Zhukov,Дмитрий Жуков,,1993,M,SBD,Single-ply,Open,105,102.9,-300,,,
DQ,Artyom Shemyatenkov,Артём Шемятенков,,1998,M,SBD,Single-ply,Open,105,96.32,-290,,,
DQ,Aleksandr Seryugin,Александр Серюгин,,1987,M,SBD,Single-ply,Open,105,102.58,-280,,,
DQ,Aleksandr Sukhanov,Александр Суханов,,1990,M,SBD,Single-ply,Open,105,104.24,-280,,,
DQ,Aleksandr Filin,Александр Филин,,1980,M,SBD,Single-ply,Open,105,103.48,-240,,,
NS,German Golovin,Герман Головин,,1996,M,SBD,Single-ply,Open,105,,,,,
NS,Sergey Vydumkin,Сергей Выдумкин,,1991,M,SBD,Single-ply,Open,105,,,,,
1,Evgeniy Anikanov,Евгений Аниканов,,1988,M,SBD,Single-ply,Open,120,115.2,360,267.5,310,937.5
2,Andrey Zuev,Андрей Зуев,,1995,M,SBD,Single-ply,Open,120,113.58,330,255,335,920
3,Aleksey Egorov,Алексей Егоров,,1989,M,SBD,Single-ply,Open,120,119.7,370,250,300,920
4,Maksim Sorokin,Максим Сорокин,,1982,M,SBD,Single-ply,Open,120,112.76,360,252.5,287.5,900
5,Grigor Margaryan,Григор Маргарян,,1994,M,SBD,Single-ply,Open,120,118.22,320,260,300,880
6,Maksim Aseev,Максим Асеев,,1988,M,SBD,Single-ply,Open,120,117.27,320,240,285,845
7,Sergey Solovev,Сергей Соловьев,,1979,M,SBD,Single-ply,Open,120,118.6,320,255,270,845
8,Aleksandr Tishchenko,Александр Тищенко,,1982,M,SBD,Single-ply,Open,120,110.34,310,225,300,835
9,Abdul Abdusalimov,Абдул Абдусалимов,,1986,M,SBD,Single-ply,Open,120,114.36,315,225,295,835
10,Aleksandr Esaulov,Александр Эсаулов,,1982,M,SBD,Single-ply,Open,120,117.9,310,215,310,835
11,Dmitriy Kottsov,Дмитрий Котцов,,1979,M,SBD,Single-ply,Open,120,118.62,330,217.5,287.5,835
12,Sergey Khochenkov,Сергей Хоченков,,1976,M,SBD,Single-ply,Open,120,114.46,302.5,227.5,280,810
13,Kirill Chernyaev,Кирилл Черняев,,1998,M,SBD,Single-ply,Open,120,117.96,310,205,265,780
14,Artyom Evteryov,Артём Евтерёв,,1987,M,SBD,Single-ply,Open,120,115.28,310,225,240,775
15,Andrey Supakov,Андрей Супаков,,1990,M,SBD,Single-ply,Open,120,108.6,300,175,265,740
16,Aleksey Podgorbunskiy,Алексей Подгорбунский,,1992,M,SBD,Single-ply,Open,120,114.5,250,190,280,720
17,Pavel Merkulov,Павел Меркулов,,1989,M,SBD,Single-ply,Open,120,108.84,270,175,270,715
18,Aleksey Golikov,Алексей Голиков,,1997,M,SBD,Single-ply,Open,120,114.94,245,185,257.5,687.5
19,Sergey Tikhonov,Сергей Тихонов,,1993,M,SBD,Single-ply,Open,120,118.24,235,167.5,270,672.5
20,Vadim Sukhanov,Вадим Суханов,,1973,M,SBD,Single-ply,Open,120,116.8,270,150,250,670
21,Anton Kaplin,Антон Каплин,,1988,M,SBD,Single-ply,Open,120,111.58,205,200,210,615
DQ,Vladislav Nesterov,Владислав Нестеров,,1995,M,SBD,Single-ply,Open,120,112.62,300,200,-280,
DQ,Aleksandr Voskresenskiy,Александр Воскресенский,,1980,M,SBD,Single-ply,Open,120,114.86,315,255,-265,
DQ,Sergey Shapugin,Сергей Шапугин,,1989,M,SBD,Single-ply,Open,120,113.1,275,255,-240,
DQ,Ivan Yanushkevich,Иван Янушкевич,,1986,M,SBD,Single-ply,Open,120,116,-320,,,
DQ,Artyom Kharin,Артём Харин,,1988,M,SBD,Single-ply,Open,120,110.04,-290,,,
DQ,Aleksandr Tsarev,Александр Царев,,1985,M,SBD,Single-ply,Open,120,107.42,-270,,,
1,Maksim Prokhorov,Максим Прохоров,,1989,M,SBD,Single-ply,Open,120+,143.5,450,280,355,1085
2,Aleksandr Pirogov #2,Александр Пирогов,,1984,M,SBD,Single-ply,Open,120+,146,360,230,340,930
3,Yuriy Musikhin,Юрий Мусихин,,1984,M,SBD,Single-ply,Open,120+,124.8,335,242.5,342.5,920
4,Vadim Idikov,Вадим Идиков,,1985,M,SBD,Single-ply,Open,120+,126.2,365,252.5,302.5,920
5,Andrey Ushakov,Андрей Ушаков,,1980,M,SBD,Single-ply,Open,120+,137,300,260,340,900
6,Sergey Andreenkov,Сергей Андреенков,,1983,M,SBD,Single-ply,Open,120+,145,350,265,270,885
7,Igor Ivanov,Ігор Іванов,,1989,M,SBD,Single-ply,Open,120+,127.5,310,215,335,860
8,Aleksandr Popov,Александр Попов,,1990,M,SBD,Single-ply,Open,120+,144.5,340,270,250,860
9,Igor Lyapkov,Игорь Ляпков,,1984,M,SBD,Single-ply,Open,120+,123.7,300,260,285,845
10,Andrey Shmigelskiy,Андрей Шмигельский,,1989,M,SBD,Single-ply,Open,120+,130,320,245,270,835
11,Pavel Matskul,Павел Мацкул,,1990,M,SBD,Single-ply,Open,120+,129,320,210,285,815
12,Anton Yakimenko,Антон Якименко,,1984,M,SBD,Single-ply,Open,120+,125,300,237.5,275,812.5
13,Nikolay Voronkov,Николай Воронков,,1985,M,SBD,Single-ply,Open,120+,151,350,190,270,810
14,Pavel Shcheglov,Павел Щеглов,,1978,M,SBD,Single-ply,Open,120+,129.8,300,250,250,800
15,Vadim Filippov,Вадим Филиппов,,1974,M,SBD,Single-ply,Open,120+,146.3,300,242.5,257.5,800
16,Andrey Sharygin,Андрей Шарыгин,,1989,M,SBD,Single-ply,Open,120+,124,310,215,260,785
17,Vladimir Luchkov,Владимир Лучков,,1994,M,SBD,Single-ply,Open,120+,134.6,275,220,240,735
DQ,Nikolay Bykov,Николай Быков,,1976,M,SBD,Single-ply,Open,120+,138.5,385,-290,,
DQ,Andrey Aksenov,Андрей Аксенов,,1992,M,SBD,Single-ply,Open,120+,147.2,370,-280,,
1,Olga Volynskaya,Ольга Волынская,,1999,F,SBD,Raw,Open,47,44.6,85,60,112.5,257.5
2,Ekaterina Zheleznyakova,Екатерина Железнякова,,1990,F,SBD,Raw,Open,47,46.68,75,55,105,235
3,Alina Veselova,Алина Веселова,,2002,F,SBD,Raw,Open,47,47,60,50,67.5,177.5
1,Marina Gayduchenok,Марина Гайдученок,,1984,F,SBD,Raw,Open,52,51.78,110,72.5,162.5,345
2,Anzhelika Sudakova,Анжелика Судакова,,1995,F,SBD,Raw,Open,52,51.74,105,80,140,325
3,Yuliya Kalinicheva,Юлия Калиничева,,1998,F,SBD,Raw,Open,52,51.74,87.5,50,100,237.5
4,Irina Khlopunova,Ирина Хлопунова,,1994,F,SBD,Raw,Open,52,50.86,87.5,45,87.5,220
5,Anna Shatilova,Анна Шатилова,,2001,F,SBD,Raw,Open,52,51.46,75,42.5,90,207.5
6,Natalya Ivleva,Наталья Ивлева,,1980,F,SBD,Raw,Open,52,50.28,65,47.5,75,187.5
DQ,Larisa Merkulova,Лариса Меркулова,,1991,F,SBD,Raw,Open,57,52.8,,,,
1,Alina Sarycheva,Алина Сарычева,,1999,F,SBD,Raw,Open,57,53.96,115,107.5,140,362.5
2,Vera Ovtina,Вера Овтина,,1994,F,SBD,Raw,Open,57,56.92,120,70,125,315
3,Anna Andrievskaya,Анна Андриевская,,1992,F,SBD,Raw,Open,57,56.64,107.5,67.5,125,300
4,Elena Bardina,Елена Бардина,,1968,F,SBD,Raw,Open,57,56.54,95,50,115,260
1,Evgeniya Goncharova,Евгения Гончарова,,1981,F,SBD,Raw,Open,72,71.1,162.5,110,215,487.5
2,Olga Gracheva,Ольга Грачева,,1978,F,SBD,Raw,Open,72,68.5,92.5,72.5,120,285
3,Natalya Marchenkova,Наталья Марченкова,,2000,F,SBD,Raw,Open,72,71.1,82.5,47.5,87.5,217.5
DQ,Elena Ilina,Елена Ильина,,1977,F,SBD,Raw,Open,72,71.14,-90,,,
1,Valeriya Penevskaya,Валерия Пеньевская,,1997,F,SBD,Raw,Open,63,60.72,142.5,82.5,145,370
2,Irina Sarvilova,Ирина Сарвилова,,1991,F,SBD,Raw,Open,63,62.56,135,55,135,325
3,Anastasiya Nikitina,Анастасия Никитина,,1978,F,SBD,Raw,Open,63,62.52,110,80,132.5,322.5
4,Inna Kumskova,Инна Кумскова,,1990,F,SBD,Raw,Open,63,59.3,120,75,125,320
5,Irina Naukovich,Ирина Наукович,,1981,F,SBD,Raw,Open,63,61.8,100,57.5,115,272.5
6,Irina Krutyakova,Ирина Крутякова,,1982,F,SBD,Raw,Open,63,61.54,107.5,45,107.5,260
7,Natalya Viktorova,Наталья Викторова,,1985,F,SBD,Raw,Open,63,61.36,70,40,90,200
1,Anastasiya Minaeva,Анастасия Минаева,,1998,F,SBD,Raw,Open,84,82.66,157.5,92.5,150,400
2,Olga Krylova,Ольга Крылова,,1994,F,SBD,Raw,Open,84,83.02,165,70,165,400
3,Vera Gubanova,Вера Губанова,,1961,F,SBD,Raw,Open,84,82.38,107.5,72.5,130,310
4,Mariya Pavlova,Мария Павлова,,1999,F,SBD,Raw,Open,84,82.76,90,65,105,260
5,Yuliya Molokanova,Юлия Молоканова,,1992,F,SBD,Raw,Open,84,80.32,75,47.5,75,197.5
1,Alyona Savina,Алёна Савина,,1983,F,SBD,Raw,Open,84+,94.94,200,122.5,170,492.5
2,Daria Efimtseva,Дарья Ефимцева,,2000,F,SBD,Raw,Open,84+,116.78,195,105,172.5,472.5
3,Guzel Galeeva,Гузель Галеева,,1994,F,SBD,Raw,Open,84+,96.4,112.5,62.5,135,310
1,Ilshat Makhmurov,Ильшат Махмуров,,1985,M,SBD,Raw,Open,59,58.78,175,132.5,240,547.5
2,Denis Pavlov,Денис Павлов,,1998,M,SBD,Raw,Open,59,57.52,135,107.5,180,422.5
3,Gennadiy Savchuk,Геннадий Савчук,,,M,SBD,Raw,Open,59,54,110,77.5,125,312.5
1,Artur Gafiyatullin,Артур Гафиятуллин,,1989,M,SBD,Raw,Open,66,65.32,205,165,225,595
2,Aleksey Tarasenko,Алексей Тарасенко,Ukraine,1994,M,SBD,Raw,Open,66,64.18,205,130,235,570
3,Sergey Volodarskiy,Сергей Володарский,,1989,M,SBD,Raw,Open,66,64.32,175,122.5,220,517.5
4,Aleksey Mashkov,Алексей Машков,,1982,M,SBD,Raw,Open,66,65.82,170,127.5,215,512.5
5,Nikolay Zhatikov,Николай Жатиков,,1990,M,SBD,Raw,Open,66,65.56,175,125,190,490
6,Vasiliy Dunin,Василий Дунин,,1984,M,SBD,Raw,Open,66,65.58,175,110,190,475
7,Mustafo Abduev,Мустафо Абдуев,Tajikistan,1985,M,SBD,Raw,Open,66,65.12,160,130,157.5,447.5
8,Aleksey Petrokaev,Алексей Петрокаев,,1991,M,SBD,Raw,Open,66,62.06,145,105,180,430
9,Egor Belyaev,Егор Беляев,,2000,M,SBD,Raw,Open,66,63.72,102.5,85,105,292.5
1,Nikolay Sokolov,Николай Соколов,,1979,M,SBD,Raw,Open,74,74,245,170,280,695
2,Konstantin Konstantinov,Константин Константинов,,1981,M,SBD,Raw,Open,74,73.92,212.5,150,267.5,630
3,Nikolay Zhukov,Николай Жуков,,1987,M,SBD,Raw,Open,74,74,197.5,137.5,230,565
4,Vladimir Vernichenko,Владимир Верниченко,Ukraine,1995,M,SBD,Raw,Open,74,74,185,137.5,225,547.5
5,Aleksandr Minaev,Александр Минаев,Ukraine,1993,M,SBD,Raw,Open,74,74,190,120,220,530
6,Igor Korolyov,Игорь Королёв,,1987,M,SBD,Raw,Open,74,68.54,165,115,190,470
7,Andrey Nazarov,Андрей Назаров,,1990,M,SBD,Raw,Open,74,73.46,150,112.5,170,432.5
8,Georgiy Sulakadze,Георгий Сулакадзе,,1984,M,SBD,Raw,Open,74,68.66,145,97.5,160,402.5
DQ,Vasiliy Tsyganovkin,Василий Цыгановкин,,2000,M,SBD,Raw,Open,74,72.74,-132.5,,,
1,Evgeniy Ryabchikov,Евгений Рябчиков,,1993,M,SBD,Raw,Open,83,82.84,260,145,310,715
2,Evgeniy Gaybura,Евгений Гайбура,,1995,M,SBD,Raw,Open,83,83,257.5,170,245,672.5
3,Vitaliy Sosnin,Виталий Соснин,,1993,M,SBD,Raw,Open,83,82.3,255,152.5,262.5,670
4,Sergey Lebushkin,Сергей Лебушкин,,1990,M,SBD,Raw,Open,83,81.8,225,165,275,665
5,Andrey Matveev,Андрей Матвеев,,1992,M,SBD,Raw,Open,83,82.38,232.5,150,275,657.5
6,Konstantin Goryunov,Константин Горюнов,,1985,M,SBD,Raw,Open,83,82.92,222.5,180.5,220,623
7,Stepan Zhilin,Степан Жилин,,1992,M,SBD,Raw,Open,83,82.7,210,172.5,240,622.5
8,Anton Tkachev,Антон Ткачев,,1988,M,SBD,Raw,Open,83,81.5,210,160,220,590
9,Valeriy Makhalov,Валерий Махалов,,1990,M,SBD,Raw,Open,83,82.02,235,155,200,590
10,Dmitriy Trifanov,Дмитрий Трифанов,,1996,M,SBD,Raw,Open,83,81.38,205,162.5,220,587.5
11,Dmitriy Chudnikov,Дмитрий Чудников,,1983,M,SBD,Raw,Open,83,81.58,220,150,212.5,582.5
12,Aleksandr Zherzdev,Александр Жерздев,,1982,M,SBD,Raw,Open,83,81.7,215,145,215,575
13,Collins Nvachuku,Коллинс Нвачуку,Nigeria,1991,M,SBD,Raw,Open,83,80.58,200,110,240,550
14,Yuriy Bespalov,Юрий Беспалов,,1986,M,SBD,Raw,Open,83,79.3,180,140,225,545
15,Anatoliy Stepanov,Анатолий Степанов,,1986,M,SBD,Raw,Open,83,77.68,180,115,210,505
16,Igor Fursa,Игорь Фурса,,1998,M,SBD,Raw,Open,83,77,185,117.5,195,497.5
17,Dmitriy Pankov,Дмитрий Панков,,1988,M,SBD,Raw,Open,83,80.56,140,95,155,390
18,Aleksey Sizov,Алексей Сизов,,1986,M,SBD,Raw,Open,83,81.54,130,90,170,390
NS,Aleksandr Sechenov,Александр Сеченов,,2000,M,SBD,Raw,Open,83,,,,,
1,Aleksandr Belobrov,Александр Белобров,,1991,M,SBD,Raw,Open,93,92.42,285,182.5,295,762.5
2,Aleksandr Shpak,Александр Шпак,,1980,M,SBD,Raw,Open,93,90.32,270,190,285,745
3,Oleg Sumenkov,Олег Суменков,,1992,M,SBD,Raw,Open,93,90.36,272.5,202.5,270,745
4,Nikita Abramov,Никита Абрамов,,1991,M,SBD,Raw,Open,93,88.56,290,170,262.5,722.5
5,Aleksandr Pavlov,Александр Павлов,,1982,M,SBD,Raw,Open,93,90.5,240,180,285,705
6,Roman Semyonov,Роман Семёнов,,1979,M,SBD,Raw,Open,93,91.5,240,190,255,685
7,Evgeniy Zimkin,Евгений Зимкин,,1990,M,SBD,Raw,Open,93,92.1,245,162.5,275,682.5
8,Nikolay Tsybernyy,Николай Цыберный,,1987,M,SBD,Raw,Open,93,91.94,240,180,260,680
9,Ivan Oreshkin,Иван Орешкин,,1993,M,SBD,Raw,Open,93,92.12,230,190,260,680
10,Fabrice Bodyi Jr,Фабрис Бодьи Джуниор,Ivory Coast,1992,M,SBD,Raw,Open,93,89.94,230,175,260,665
11,Artem Mamitov,Артем Мамитов,,1996,M,SBD,Raw,Open,93,90.72,200,160,240,600
12,Dmitriy Mishenin,Дмитрий Мишенин,,1986,M,SBD,Raw,Open,93,93,200,160,235,595
13,Evgeniy Muravyov,Евгений Муравьёв,,1975,M,SBD,Raw,Open,93,85.5,200,150,235,585
14,Maksim Sekhin,Максим Сехин,,1991,M,SBD,Raw,Open,93,88.22,215,140,230,585
15,Anton Ermolov,Антон Ермолов,,1995,M,SBD,Raw,Open,93,88.52,190,120,230,540
16,Gleb Fedosov,Глеб Федосов,,1997,M,SBD,Raw,Open,93,88.56,170,142.5,210,522.5
17,Sergey Drokin,Сергей Дрокин,,1966,M,SBD,Raw,Open,93,85.12,180,100,230,510
18,Dmitriy Antonov,Дмитрий Антонов,,1993,M,SBD,Raw,Open,93,90.9,190,125,195,510
19,Vasiliy Kharzin,Василий Харзин,,1994,M,SBD,Raw,Open,93,92.62,140,140,200,480
DQ,Aleksey Korchagin,Алексей Корчагин,,1978,M,SBD,Raw,Open,93,90.18,275,195,-180,
DQ,Ilya Lisitskiy,Илья Лисицкий,,1993,M,SBD,Raw,Open,105,97,,,,
1,Aleksandr Baskarev,Александр Баскарев,,1981,M,SBD,Raw,Open,105,104.16,295,197.5,305,797.5
2,Andrey Shchennikov,Андрей Щенников,,1974,M,SBD,Raw,Open,105,103.6,285,235,275,795
3,Ruslan Kvaratskheliya,Руслан Кварацхелия,,1982,M,SBD,Raw,Open,105,100.3,285,222.5,280,787.5
4,Dmitriy Finikov,Дмитрий Фиников,,1991,M,SBD,Raw,Open,105,103,310,180,295,785
5,Pyotr Ershov,Пётр Ершов,,1983,M,SBD,Raw,Open,105,104.7,280,190,300,770
6,Denis Rode,Денис Родэ,,1986,M,SBD,Raw,Open,105,100.5,265,195,285,745
7,Igor Makarov,Игорь Макаров,,1993,M,SBD,Raw,Open,105,104.2,265,195,265,725
8,Boris Apanasevich,Борис Апанасевич,,1982,M,SBD,Raw,Open,105,101.9,245,197.5,235,677.5
9,Aleksey Borodin,Алексей Бородин,,1986,M,SBD,Raw,Open,105,97.56,240,170,260,670
10,Aleksey Mamkin,Алексей Мамкин,,1987,M,SBD,Raw,Open,105,101.3,235,160,275,670
11,Aleksey Morkva,Алексей Морква,,1991,M,SBD,Raw,Open,105,95.2,220,180,232.5,632.5
12,Aleksandr Polikarpov,Александр Поликарпов,,1994,M,SBD,Raw,Open,105,95.2,230,110,270,610
13,Ivan Golyand,Иван Голянд,,1986,M,SBD,Raw,Open,105,94.2,210,140,255,605
14,Vladimir Plonin,Владимир Плонин,,1984,M,SBD,Raw,Open,105,104,190,152.5,215,557.5
15,Martin Zupka,Мартин Зупка,,1976,M,SBD,Raw,Open,105,101.7,205,145,205,555
16,Ilya Sviridov,Илья Свиридов,,1997,M,SBD,Raw,Open,105,100.3,170,125,205,500
DQ,Nikita Kukushkin,Никита Кукушкин,,1992,M,SBD,Raw,Open,105,101.5,230,-160,,
NS,Stanislav Bykov,Станислав Быков,,1985,M,SBD,Raw,Open,105,,,,,
1,Aleksandr Lipatov,Александр Липатов,,1976,M,SBD,Raw,Open,120,120,350,217.5,320,887.5
2,Daniil Ermolaev,Даниил Ермолаев,,1997,M,SBD,Raw,Open,120,117.42,340,205,322.5,867.5
3,Nikita Semyonov,Никита Семёнов,,1993,M,SBD,Raw,Open,120,119.98,300,210,325,835
4,Dmitriy Chizhov,Дмитрий Чижов,,1979,M,SBD,Raw,Open,120,117.26,282.5,202.5,312.5,797.5
5,Ivan Yanushkevich,Иван Янушкевич,,1986,M,SBD,Raw,Open,120,116.6,260,210,300,770
6,Aleksandr Shavergin,Александр Шавергин,,1989,M,SBD,Raw,Open,120,106.18,270,200,277.5,747.5
7,Aleksandr Fateev,Александр Фатеев,,1983,M,SBD,Raw,Open,120,113.52,250,185,280,715
8,Aleksey Tilsh,Алексей Тильш,,1998,M,SBD,Raw,Open,120,106.96,265,160,270,695
9,Denis Okutin,Денис Окутин,,1985,M,SBD,Raw,Open,120,111.04,245,160,260,665
10,Ilya Litomin,Илья Литомин,,1996,M,SBD,Raw,Open,120,120,212.5,170,265,647.5
11,Roman Razboev,Роман Разбоев,,1992,M,SBD,Raw,Open,120,113.94,260,190,160,610
12,Taras Bragin,Тарас Брагин,,1989,M,SBD,Raw,Open,120,108.7,200,157.5,215,572.5
DQ,Sergey Shishkin,Сергей Шишкин,,1972,M,SBD,Raw,Open,120,117.46,-275,,,
NS,Sergey Mineev,Сергей Минеев,,1989,M,SBD,Raw,Open,120,,,,,
1,Akim Shirobokov,Аким Широбоков,,1975,M,SBD,Raw,Open,120+,128.26,320,190,280,790
2,Igor Ivchenkov,Игорь Ивченков,,1987,M,SBD,Raw,Open,120+,133.56,295,215,270,780
3,Aleksandr Puzakov,Александр Пузаков,,1987,M,SBD,Raw,Open,120+,131.98,260,210,295,765
4,Anatoliy Chesnokov,Анатолий Чесноков,,1982,M,SBD,Raw,Open,120+,133.82,195,165,272.5,632.5
5,Kirill Stenichkin,Кирилл Стеничкин,,1991,M,SBD,Raw,Open,120+,128.52,180,162.5,200,542.5
