Name,WeightClassKg,Division,Sex,Age,BodyweightKg,Best3SquatKg,Best3BenchKg,Best3DeadliftKg,TotalKg,Event,Equipment,Place
Greg Murray,52,Open,M,,,140.61,68.04,151.95,360.61,SBD,Single-ply,1
Paul Gennaro,52,Open,M,,,113.4,79.38,158.76,351.53,SBD,Single-ply,2
D. Plitt,52,Open,M,,,142.88,52.16,122.47,317.52,SBD,Single-ply,3
B. McLean,52,Open,M,,,97.52,63.5,138.35,299.37,SBD,Single-ply,4
E. McCorriston,52,Open,M,,,83.91,77.11,127.01,288.03,SBD,Single-ply,5
Nina Lepisto,52,Open,F,,,99.79,47.63,124.74,272.16,SBD,Single-ply,6
K. Allison,52,Open,F,,,99.79,52.16,102.06,254.01,SBD,Single-ply,7
C. Wilson,52,Open,F,,,77.11,43.09,113.4,233.6,SBD,Single-ply,8
T. Weaver,52,Open,F,,,70.31,27.22,86.18,183.71,SBD,Single-ply,9
Norbert Paterniti,56,Open,M,,,190.51,113.4,197.31,501.22,SBD,Single-ply,1
P. Bowski,56,Open,M,,,176.9,92.99,188.24,458.13,SBD,Single-ply,2
M. Boston,56,Open,M,,,124.74,90.72,181.44,396.89,SBD,Single-ply,3
D. Remaley,56,Open,M,,,122.47,86.18,156.49,365.14,SBD,Single-ply,4
W. Oster,56,Open,M,,,129.27,86.18,136.08,351.53,SBD,Single-ply,5
R. Laughman,56,Open,F,,,79.38,47.63,92.99,219.99,SBD,Single-ply,6
D. Henry,56,Open,F,,,72.57,45.36,92.99,210.92,SBD,Single-ply,7
Paul Griffith,60,Open,M,35,,190.51,111.13,174.63,476.27,SBD,Single-ply,1
P. Portillo,60,Open,M,,,158.76,102.06,172.37,433.18,SBD,Single-ply,2
J. Laney,60,Open,M,,,129.27,92.99,158.76,381.02,SBD,Single-ply,3
R. Erdeljac,60,Open,M,,,113.4,74.84,140.61,328.85,SBD,Single-ply,4
R. Anorejcik,60,Open,M,,,92.99,68.04,124.74,285.76,SBD,Single-ply,5
T. Bryan,60,Open,M,,,,,,,SBD,Single-ply,DQ
Jim Travis,67.5,Open,M,,,188.24,117.93,208.65,514.83,SBD,Single-ply,1
D. Reed,67.5,Open,M,,,188.24,113.4,204.12,505.76,SBD,Single-ply,2
Z. Zorbaugh,67.5,Open,M,,,188.24,113.4,201.85,503.49,SBD,Single-ply,3
J. Allison,67.5,Open,M,,,138.35,127.01,195.04,460.4,SBD,Single-ply,5
M. Taylor,67.5,Open,M,,,163.29,127.01,197.31,487.61,SBD,Single-ply,4
John Welch III,67.5,Open,M,,,147.42,97.52,174.63,419.57,SBD,Single-ply,6
John Welch #1,75,Open,M,,,263.08,167.83,276.69,707.6,SBD,Single-ply,1
John Geesey,75,Open,M,,,235.87,136.08,265.35,637.3,SBD,Single-ply,2
Dale Wolf,75,Open,M,,,249.48,127.01,258.55,635.03,SBD,Single-ply,3
D. Laidacker,75,Open,M,,,215.46,131.54,251.74,598.74,SBD,Single-ply,4
D. Waters,75,Open,M,,,249.48,136.08,206.38,591.94,SBD,Single-ply,5
E. Embler,75,Open,M,,,185.97,108.86,210.92,505.76,SBD,Single-ply,6
S. Toy,75,Open,M,,,176.9,122.47,188.24,487.61,SBD,Single-ply,7
Bugs Bayer,75,Open,M,,,181.44,99.79,204.12,485.34,SBD,Single-ply,8
J. Wright,75,Open,M,,,154.22,158.76,172.37,485.34,SBD,Single-ply,9
R. Lane,75,Open,M,,,167.83,99.79,185.97,453.59,SBD,Single-ply,10
D. Havice,75,Open,M,,,147.42,102.06,197.31,446.79,SBD,Single-ply,11
C. Walker,75,Open,M,,,,,,,SBD,Single-ply,DQ
Russell Dell,82.5,Open,M,,,265.35,149.69,272.16,687.19,SBD,Single-ply,1
Miles Baird,82.5,Open,M,,,249.48,149.69,276.69,675.85,SBD,Single-ply,2
V. Anderson,82.5,Open,M,,,260.82,163.29,249.48,673.59,SBD,Single-ply,3
Dick Bankert,82.5,Open,M,,,240.4,147.42,281.23,669.05,SBD,Single-ply,4
J. Wilson,82.5,Open,M,,,272.16,147.42,249.48,669.05,SBD,Single-ply,5
T. Miller,82.5,Open,M,,,247.21,172.37,249.48,669.05,SBD,Single-ply,6
Joe Orengia,82.5,Open,M,,,242.67,133.81,263.08,639.57,SBD,Single-ply,7
B. Boring,82.5,Open,M,,,226.8,115.67,217.72,560.19,SBD,Single-ply,8
T. Kinard,82.5,Open,M,,,190.51,127.01,217.72,535.24,SBD,Single-ply,9
D. Dell,82.5,Open,M,,,172.37,113.4,192.78,478.54,SBD,Single-ply,10
Tom Buljat,82.5,Open,M,,,254.01,147.42,,,SBD,Single-ply,DQ
M. Rakovan,82.5,Open,M,,,190.51,,,,SBD,Single-ply,DQ
Tony Pharr,90,Open,M,,,283.5,195.04,290.3,768.84,SBD,Single-ply,1
Steve Barry,90,Open,M,,,272.16,161.03,297.1,730.28,SBD,Single-ply,2
Bruce Graser,90,Open,M,,,278.96,147.42,299.37,725.75,SBD,Single-ply,3
Robert Coffey,90,Open,M,,,256.28,174.63,272.16,703.07,SBD,Single-ply,4
Joe Valchine,90,Open,M,,,247.21,136.08,251.74,635.03,SBD,Single-ply,5
John D'Arrigo,90,Open,M,,,265.35,138.35,226.8,630.49,SBD,Single-ply,6
J. Verne,90,Open,M,,,213.19,176.9,235.87,625.96,SBD,Single-ply,7
J. Cali,90,Open,M,,,226.8,142.88,249.48,619.15,SBD,Single-ply,8
A. Vogt,90,Open,M,,,219.99,151.95,240.4,612.35,SBD,Single-ply,9
J. Pastorious,90,Open,M,,,238.14,136.08,226.8,601.01,SBD,Single-ply,10
Charles LaMantia,90,Open,M,,,176.9,108.86,226.8,512.56,SBD,Single-ply,11
T. Wojcicki,90,Open,M,,,192.78,,,,SBD,Single-ply,DQ
Ed Walker,100,Open,M,,,276.69,174.63,322.05,773.38,SBD,Single-ply,1
B. Spiridonoff,100,Open,M,,,294.84,183.71,294.84,773.38,SBD,Single-ply,2
M. Smith,100,Open,M,,,308.44,158.76,272.16,739.36,SBD,Single-ply,3
J. Moraski,100,Open,M,,,263.08,163.29,283.5,709.87,SBD,Single-ply,4
Bob Lippy,100,Open,M,,,263.08,158.76,265.35,687.19,SBD,Single-ply,5
M. Rosentrator,100,Open,M,,,235.87,176.9,272.16,684.93,SBD,Single-ply,6
C. Evans,100,Open,M,,,249.48,151.95,278.96,680.39,SBD,Single-ply,7
C. Zylinski,100,Open,M,,,249.48,158.76,258.55,666.78,SBD,Single-ply,8
M. Voit,100,Open,M,,,231.33,170.1,256.28,657.71,SBD,Single-ply,9
T. Walke,100,Open,M,,,208.65,136.08,231.33,576.06,SBD,Single-ply,10
S. Hoke,100,Open,M,,,147.42,,,,SBD,Single-ply,DQ
T. Kinard,100,Open,M,,,,,,,SBD,Single-ply,DQ
Victor Poletajev,110,Open,M,,,294.84,233.6,299.37,827.81,SBD,Single-ply,1
Kevin Caulfield,110,Open,M,,,335.66,208.65,278.96,823.27,SBD,Single-ply,2
J. Rosenstern,110,Open,M,,,299.37,174.63,297.1,771.11,SBD,Single-ply,3
B. Huey,110,Open,M,,,285.76,192.78,238.14,716.68,SBD,Single-ply,4
K. Hunter,110,Open,M,,,249.48,149.69,258.55,657.71,SBD,Single-ply,5
S. Svetlovics,110,Open,M,,,276.69,133.81,238.14,648.64,SBD,Single-ply,6
M. Riordan,110,Open,M,,,181.44,145.15,181.44,508.02,SBD,Single-ply,7
Robert Rood,110,Open,M,,,197.31,124.74,181.44,503.49,SBD,Single-ply,8
Robert Miller,125,Open,M,,,317.52,176.9,308.44,802.86,SBD,Single-ply,1
John Gentile,125,Open,M,,,308.44,195.04,294.84,798.32,SBD,Single-ply,2
L. Fraser,125,Open,M,,,290.3,190.51,285.76,766.57,SBD,Single-ply,3
B. Ladick,125,Open,M,,,269.89,204.12,263.08,737.09,SBD,Single-ply,4
R. Graham,125,Open,M,,,272.16,158.76,249.48,680.39,SBD,Single-ply,5
C. Hanis,125,Open,M,,,238.14,181.44,247.21,666.78,SBD,Single-ply,6
R. Tarr,125,Open,M,,,240.4,140.61,254.01,635.03,SBD,Single-ply,7
C. Hanik,125,Open,M,,,170.1,136.08,249.48,555.65,SBD,Single-ply,8
Tim Bentley,125,Open,M,,,319.78,217.72,,,SBD,Single-ply,DQ
C. Hunter,125,Open,M,,,,,,,SBD,Single-ply,DQ
Bruce Repicky,125+,Open,M,,125.19,267.62,151.95,269.89,689.46,SBD,Single-ply,1
L. Henry,125+,Open,M,,,272.16,145.15,238.14,655.44,SBD,Single-ply,2
C. McDannel,125+,Open,M,,,229.06,129.27,229.06,587.4,SBD,Single-ply,3
