Name,WeightClassKg,Division,Sex,Team,Best3SquatKg,Best3BenchKg,Best3DeadliftKg,TotalKg,Event,Equipment,Place
D. Giegerich,67.5,Division 1,M,Des Moines,197.5,110,220,527.5,SBD,Single-ply,1
J. Moore,75,Division 1,M,Denver,227.5,135,240,602.5,SBD,Single-ply,1
John Jarvis,75,Division 1,M,Dallas,207.5,142.5,227.5,577.5,SBD,Single-ply,2
M. House,75,Division 1,M,Dallas,220,137.5,212.5,570,SBD,Single-ply,3
K. Le,75,Division 1,M,Des Moines,205,140,222.5,567.5,SBD,Single-ply,4
J. Sharp,75,Division 1,M,Columbus,185,90,205,480,SBD,Single-ply,5
Mike Pribble,82.5,Division 1,M,Des Moines,240,160,247.5,647.5,SBD,Single-ply,1
T. Estrada,82.5,Division 1,M,Denver,207.5,165,227.5,600,SBD,Single-ply,2
B. Olson,90,Division 1,M,Denver,280,192.5,252.5,725,SBD,Single-ply,1
Joe Dentice,90,Division 1,M,Columbus,267.5,175,277.5,720,SBD,Single-ply,2
Bob Boyles,90,Division 1,M,Des Moines,272.5,172.5,250,695,SBD,Single-ply,3
J. Sommer,90,Division 1,M,Columbus,240,155,245,640,SBD,Single-ply,4
Jim Sabonis,100,Division 1,M,Dallas,307.5,192.5,327.5,827.5,SBD,Single-ply,1
R. Hussey,100,Division 1,M,Des Moines,302.5,182.5,287.5,772.5,SBD,Single-ply,2
Nick Burich,100,Division 1,M,Denver,272.5,172.5,257.5,702.5,SBD,Single-ply,3
Van Duren,100,Division 1,M,Des Moines,265,145,250,660,SBD,Single-ply,4
D. Worley,100,Division 1,M,Denver,250,120,210,580,SBD,Single-ply,5
G. Williams,110,Division 1,M,Denver,245,192.5,290,727.5,SBD,Single-ply,1
K. Alexander,110,Division 1,M,Columbus,277.5,182.5,255,715,SBD,Single-ply,2
G. Safreed,125,Division 1,M,Columbus,210,125,235,570,SBD,Single-ply,1
BJ Rozzi,125+,Division 1,M,Columbus,195,152.5,242.5,590,SBD,Single-ply,1
B. Cho,60,Division 2,M,Denver,187.5,97.5,160,445,SBD,Single-ply,1
J. Rice,60,Division 2,M,Des Moines,155,110,167.5,432.5,SBD,Single-ply,2
D. Giegerich,67.5,Division 2,M,Des Moines,197.5,110,220,527.5,SBD,Single-ply,1
Phil Gomez,75,Division 2,M,Dallas,232.5,155,240,627.5,SBD,Single-ply,1
D. Darr,75,Division 2,M,Dallas,232.5,165,227.5,625,SBD,Single-ply,2
J. Moore,75,Division 2,M,Denver,227.5,135,240,602.5,SBD,Single-ply,3
John Jarvis,75,Division 2,M,Dallas,207.5,142.5,227.5,577.5,SBD,Single-ply,4
K. Le,75,Division 2,M,Des Moines,205,140,222.5,567.5,SBD,Single-ply,5
L. Doughty,82.5,Division 2,M,Columbus,240,142.5,247.5,630,SBD,Single-ply,1
T. Estrada,82.5,Division 2,M,Denver,207.5,165,227.5,600,SBD,Single-ply,2
A. Maleta,82.5,Division 2,M,Denver,217.5,145,215,577.5,SBD,Single-ply,3
Vince Anello,90,Division 2,M,Columbus,275,170,297.5,742.5,SBD,Single-ply,1
B. Olson,90,Division 2,M,Denver,280,192.5,252.5,725,SBD,Single-ply,2
Joe Dentice,90,Division 2,M,Columbus,267.5,175,277.5,720,SBD,Single-ply,3
Bob Boyles,90,Division 2,M,Des Moines,272.5,172.5,250,695,SBD,Single-ply,4
R. Payne,90,Division 2,M,Columbus,227.5,162.5,247.5,637.5,SBD,Single-ply,5
B. Bales,90,Division 2,M,Des Moines,245,145,220,610,SBD,Single-ply,6
A. Henderson,90,Division 2,M,Columbus,227.5,132.5,240,600,SBD,Single-ply,7
G. Wagoner,90,Division 2,M,Denver,200,145,232.5,577.5,SBD,Single-ply,8
Robert Keller #1,100,Division 2,M,Denver,290,172.5,257.5,720,SBD,Single-ply,1
S. Lane,100,Division 2,M,Dallas,272.5,190,250,712.5,SBD,Single-ply,2
Bruce Stiles,100,Division 2,M,Columbus,250,170,245,665,SBD,Single-ply,3
Van Duren,100,Division 2,M,Des Moines,265,145,250,660,SBD,Single-ply,4
R. Petri,100,Division 2,M,Dallas,202.5,172.5,242.5,617.5,SBD,Single-ply,5
D. Westhoven,100,Division 2,M,Columbus,235,137.5,245,617.5,SBD,Single-ply,6
Solomon Mageo,110,Division 2,M,Des Moines,320,192.5,275,787.5,SBD,Single-ply,1
G. Small,125,Division 2,M,Columbus,237.5,172.5,205,615,SBD,Single-ply,1
J. Atoe,125+,Division 2,M,Des Moines,327.5,230,290,847.5,SBD,Single-ply,1
BJ Rozzi,125+,Division 2,M,Columbus,195,152.5,242.5,590,SBD,Single-ply,2
T. Hughes,52,Division 3,M,Columbus,130,80,135,345,SBD,Single-ply,1
W. Walker,52,Division 3,M,Dallas,120,82.5,125,327.5,SBD,Single-ply,2
R. Hoff,56,Division 3,M,Denver,170,110,195,475,SBD,Single-ply,1
B. Adams,56,Division 3,M,Dallas,162.5,117.5,192.5,472.5,SBD,Single-ply,2
D. Moore,56,Division 3,M,Denver,160,125,185,470,SBD,Single-ply,3
T. Vickers,56,Division 3,M,Columbus,152.5,105,180,437.5,SBD,Single-ply,4
A. Chua,56,Division 3,M,Des Moines,155,77.5,167.5,400,SBD,Single-ply,5
C. Burton,56,Division 3,M,Dallas,137.5,95,147.5,380,SBD,Single-ply,6
L. Auchuleta,56,Division 3,M,Des Moines,102.5,70,102.5,275,SBD,Single-ply,7
Dave Edmondson,60,Division 3,M,Denver,212.5,122.5,200,535,SBD,Single-ply,1
D. Nguyen,60,Division 3,M,Des Moines,195,127.5,207.5,530,SBD,Single-ply,2
D. Sisney,60,Division 3,M,Denver,190,122.5,210,522.5,SBD,Single-ply,3
N. Romero,60,Division 3,M,Des Moines,175,117.5,182.5,475,SBD,Single-ply,4
C. Hild,60,Division 3,M,Des Moines,175,125,160,460,SBD,Single-ply,5
Adam Auerbach,60,Division 3,M,Denver,165,102.5,187.5,455,SBD,Single-ply,6
B. Cho,60,Division 3,M,Dallas,187.5,97.5,160,445,SBD,Single-ply,7
A. Herbert,60,Division 3,M,Dallas,165,107.5,167.5,440,SBD,Single-ply,8
T. Stueck,60,Division 3,M,Des Moines,147.5,117.5,175,440,SBD,Single-ply,9
J. Rice,60,Division 3,M,Des Moines,155,110,167.5,432.5,SBD,Single-ply,10
R. Megonigle,60,Division 3,M,Des Moines,150,110,167.5,427.5,SBD,Single-ply,11
M. Jones,60,Division 3,M,Denver,152.5,90,175,417.5,SBD,Single-ply,12
H. Falcon,60,Division 3,M,Dallas,142.5,87.5,175,405,SBD,Single-ply,13
A. Nauman,60,Division 3,M,Denver,135,95,167.5,397.5,SBD,Single-ply,14
B. Miller #11,60,Division 3,M,Columbus,112.5,72.5,132.5,317.5,SBD,Single-ply,15
J. Pumphrey,67.5,Division 3,M,Dallas,222.5,125,210,557.5,SBD,Single-ply,1
L. Miller,67.5,Division 3,M,Columbus,215,150,190,555,SBD,Single-ply,2
John Cao,67.5,Division 3,M,Denver,205,112.5,227.5,545,SBD,Single-ply,3
W. Foster,67.5,Division 3,M,Dallas,192.5,140,210,542.5,SBD,Single-ply,4
C. Ball,67.5,Division 3,M,Des Moines,192.5,137.5,210,540,SBD,Single-ply,5
Todd Hayataka,67.5,Division 3,M,Dallas,182.5,160,192.5,535,SBD,Single-ply,6
M. Lester,67.5,Division 3,M,Dallas,205,125,205,535,SBD,Single-ply,7
D. Giegerich,67.5,Division 3,M,Des Moines,197.5,110,220,527.5,SBD,Single-ply,8
L. Costello,67.5,Division 3,M,Dallas,205,127.5,190,522.5,SBD,Single-ply,9
G. Rosch,67.5,Division 3,M,Des Moines,207.5,102.5,205,515,SBD,Single-ply,10
J. Green,67.5,Division 3,M,Des Moines,207.5,102.5,202.5,512.5,SBD,Single-ply,11
T. Marshall,67.5,Division 3,M,Columbus,182.5,137.5,192.5,512.5,SBD,Single-ply,12
D. Johnson,67.5,Division 3,M,Denver,180,122.5,200,502.5,SBD,Single-ply,13
O. James,67.5,Division 3,M,Dallas,200,92.5,207.5,500,SBD,Single-ply,14
S. Hill,67.5,Division 3,M,Denver,170,110,180,460,SBD,Single-ply,15
S. Fleming,67.5,Division 3,M,Des Moines,112.5,130,167.5,410,SBD,Single-ply,16
T. Jurden,75,Division 3,M,Dallas,265,157.5,260,682.5,SBD,Single-ply,1
J. Weisburg,75,Division 3,M,Des Moines,242.5,137.5,255,635,SBD,Single-ply,2
M. Collins,75,Division 3,M,Columbus,237.5,150,247.5,635,SBD,Single-ply,3
A. McCallon,75,Division 3,M,Denver,260,135,235,630,SBD,Single-ply,4
Phil Gomez,75,Division 3,M,Dallas,232.5,155,240,627.5,SBD,Single-ply,5
M. Strictland,75,Division 3,M,Columbus,227.5,142.5,257.5,627.5,SBD,Single-ply,6
Terry Perkins,75,Division 3,M,Columbus,237.5,145,227.5,610,SBD,Single-ply,7
J. Moore,75,Division 3,M,Denver,227.5,135,240,602.5,SBD,Single-ply,8
Gary Kaiser,75,Division 3,M,Dallas,227.5,140,227.5,595,SBD,Single-ply,9
John Jarvis,75,Division 3,M,Dallas,207.5,142.5,227.5,577.5,SBD,Single-ply,10
K. Le,75,Division 3,M,Des Moines,205,140,222.5,567.5,SBD,Single-ply,11
Scott Noren,75,Division 3,M,Des Moines,192.5,145,200,537.5,SBD,Single-ply,12
M. Deskis,75,Division 3,M,Dallas,212.5,122.5,200,535,SBD,Single-ply,13
B. Donnolly,75,Division 3,M,Des Moines,200,125,195,520,SBD,Single-ply,14
N. Nix,75,Division 3,M,Dallas,195,115,197.5,507.5,SBD,Single-ply,15
J. Minich,75,Division 3,M,Des Moines,180,122.5,197.5,500,SBD,Single-ply,16
J. Sharp,75,Division 3,M,Columbus,185,90,205,480,SBD,Single-ply,17
S. Hill,75,Division 3,M,Denver,170,110,180,460,SBD,Single-ply,18
Kenneth Rollins,82.5,Division 3,M,Dallas,272.5,147.5,255,675,SBD,Single-ply,1
L. Doughty,82.5,Division 3,M,Columbus,240,142.5,247.5,630,SBD,Single-ply,2
D. Bannister,82.5,Division 3,M,Des Moines,230,137.5,227.5,595,SBD,Single-ply,3
A. Maleta,82.5,Division 3,M,Denver,217.5,145,215,577.5,SBD,Single-ply,4
R. Benge,82.5,Division 3,M,Des Moines,182.5,110,215,507.5,SBD,Single-ply,5
D. Patterson,82.5,Division 3,M,Columbus,202.5,110,195,507.5,SBD,Single-ply,6
S. Bertamini,82.5,Division 3,M,Dallas,170,160,100,430,SBD,Single-ply,7
B. Olson,90,Division 3,M,Denver,280,192.5,252.5,725,SBD,Single-ply,1
Joe Dentice,90,Division 3,M,Columbus,267.5,175,277.5,720,SBD,Single-ply,2
Bob Boyles,90,Division 3,M,Des Moines,272.5,172.5,250,695,SBD,Single-ply,3
A. Williams,90,Division 3,M,Columbus,267.5,170,245,682.5,SBD,Single-ply,4
D. Crawford,90,Division 3,M,Dallas,260,160,240,660,SBD,Single-ply,5
R. Chavez,90,Division 3,M,Denver,272.5,135,230,637.5,SBD,Single-ply,6
R. Payne,90,Division 3,M,Columbus,227.5,162.5,247.5,637.5,SBD,Single-ply,7
J. Blanton,90,Division 3,M,Dallas,227.5,160,247.5,635,SBD,Single-ply,8
D. Mogusar,90,Division 3,M,Des Moines,215,142.5,247.5,605,SBD,Single-ply,9
M. Emery,90,Division 3,M,Denver,227.5,145,227.5,600,SBD,Single-ply,11
A. Henderson,90,Division 3,M,Columbus,227.5,135,240,602.5,SBD,Single-ply,10
B. McGee,90,Division 3,M,Dallas,217.5,152.5,222.5,592.5,SBD,Single-ply,12
M. Olson,90,Division 3,M,Dallas,205,127.5,235,567.5,SBD,Single-ply,13
D. Look,90,Division 3,M,Denver,205,120,215,540,SBD,Single-ply,14
J. Dahlstrand,90,Division 3,M,Dallas,177.5,142.5,215,535,SBD,Single-ply,15
B. Miller #12,90,Division 3,M,Columbus,182.5,120,210,512.5,SBD,Single-ply,16
P. Torres,90,Division 3,M,Dallas,182.5,127.5,200,510,SBD,Single-ply,17
M. Collier,90,Division 3,M,Dallas,195,115,192.5,502.5,SBD,Single-ply,18
M. Decoux,90,Division 3,M,Columbus,170,80,205,455,SBD,Single-ply,19
Zeke Brown,100,Division 3,M,Dallas,292.5,177.5,302.5,772.5,SBD,Single-ply,1
Andre Schumieglow,100,Division 3,M,Dallas,295,160,295,750,SBD,Single-ply,2
J. Marshall,100,Division 3,M,Columbus,257.5,182.5,295,735,SBD,Single-ply,3
Robert Keller #1,100,Division 3,M,Denver,290,172.5,257.5,720,SBD,Single-ply,4
Wayne Hammes,100,Division 3,M,Des Moines,297.5,162.5,260,720,SBD,Single-ply,5
S. Lane,100,Division 3,M,Dallas,272.5,190,250,712.5,SBD,Single-ply,6
R. Bunch,100,Division 3,M,Denver,272.5,172.5,257.5,702.5,SBD,Single-ply,7
S. Scott,100,Division 3,M,Denver,275,175,247.5,697.5,SBD,Single-ply,8
R. Jones,100,Division 3,M,Des Moines,237.5,170,282.5,690,SBD,Single-ply,9
F. Ashby,100,Division 3,M,Dallas,272.5,170,245,687.5,SBD,Single-ply,10
B. Truesdale,100,Division 3,M,Des Moines,255,145,282.5,682.5,SBD,Single-ply,11
K. Crew,100,Division 3,M,Columbus,250,167.5,250,667.5,SBD,Single-ply,12
J. Ross,100,Division 3,M,Dallas,232.5,162.5,255,650,SBD,Single-ply,13
Larry Reed #1,100,Division 3,M,Dallas,245,127.5,272.5,645,SBD,Single-ply,14
C. Laws,100,Division 3,M,Des Moines,242.5,142.5,257.5,642.5,SBD,Single-ply,15
F. DeShields,100,Division 3,M,Denver,227.5,150,260,637.5,SBD,Single-ply,16
Jay Buben,100,Division 3,M,Dallas,240,135,245,620,SBD,Single-ply,17
Norman McLaney,100,Division 3,M,Dallas,257.5,132.5,217.5,607.5,SBD,Single-ply,18
J. Competti,100,Division 3,M,Columbus,227.5,137.5,242.5,607.5,SBD,Single-ply,19
R. Hamill,100,Division 3,M,Des Moines,220,137.5,235,592.5,SBD,Single-ply,20
D. Worley,100,Division 3,M,Denver,250,120,210,580,SBD,Single-ply,21
J. Cames,100,Division 3,M,Columbus,200,140,220,560,SBD,Single-ply,22
Solomon Mageo,110,Division 3,M,Des Moines,320,192.5,275,787.5,SBD,Single-ply,1
S. Ross,110,Division 3,M,Dallas,317.5,175,290,782.5,SBD,Single-ply,2
J. Kalinowski,110,Division 3,M,Dallas,227.5,165,275,667.5,SBD,Single-ply,3
K. Phoenix,110,Division 3,M,Dallas,235,160,267.5,662.5,SBD,Single-ply,4
R. Pierce,110,Division 3,M,Des Moines,227.5,140,250,617.5,SBD,Single-ply,5
D. Wilbur,110,Division 3,M,Dallas,210,115,182.5,507.5,SBD,Single-ply,6
Van Ornum,110,Division 3,M,Dallas,162.5,122.5,195,480,SBD,Single-ply,7
Michael Riordan,125,Division 3,M,Des Moines,320,177.5,307.5,805,SBD,Single-ply,1
Steve Miller #1,125,Division 3,M,Columbus,317.5,195,277.5,790,SBD,Single-ply,2
R. Brown #7,125,Division 3,M,Denver,272.5,190,295,757.5,SBD,Single-ply,3
M. Pigg,125,Division 3,M,Denver,320,145,272.5,737.5,SBD,Single-ply,4
M. Hamond,125,Division 3,M,Dallas,285,160,260,705,SBD,Single-ply,5
B. Winters,125,Division 3,M,Denver,182.5,120,170,472.5,SBD,Single-ply,6
Dan McCain,125+,Division 3,M,Des Moines,362.5,220,310,892.5,SBD,Single-ply,1
Jeff Maddy,125+,Division 3,M,Denver,345,285,232.5,862.5,SBD,Single-ply,2
BJ Rozzi,125+,Division 3,M,Columbus,195,152.5,242.5,590,SBD,Single-ply,3
D. Lillie,125+,Division 3,M,Columbus,197.5,140,220,557.5,SBD,Single-ply,4
D. Featon Jr,125+,Division 3,M,Columbus,205,122.5,220,547.5,SBD,Single-ply,5
