Sex,Name,CyrillicName,Division,WeightClassKg,Equipment,Tested,Event,BirthDate,BodyweightKg,Squat1Kg,Squat2Kg,Squat3Kg,Squat4Kg,Best3SquatKg,Bench1Kg,Bench2Kg,Bench3Kg,Bench4Kg,Best3BenchKg,Deadlift1Kg,Deadlift2Kg,Deadlift3Kg,Deadlift4Kg,Best3DeadliftKg,TotalKg,Place
F,Elena Anikovskaya,Елена Аниковская,O,48,Raw,Yes,B,1986-12-26,48,,,,,,47.5,52.5,55,,55,,,,,,55,1
F,Natalya Klementeva,Наталья Клементьева,O,48,Raw,Yes,B,1980-10-17,47.4,,,,,,50,-52.5,-52.5,,50,,,,,,50,2
F,Lyudmila Mikhaleva,Людмила Михалева,O,52,Raw,Yes,B,1979-12-15,52,,,,,,47.5,50,-52.5,,50,,,,,,50,1
F,Natalya Royanova,Наталья Роянова,O,52,Raw,Yes,B,1979-09-17,51.7,,,,,,35,40,-45,,40,,,,,,40,2
F,Natalya Marieva,Наталья Мариева,M 40 - 44,52,Raw,Yes,B,1968-11-04,48.5,,,,,,52.5,55,-57.5,,55,,,,,,55,1
F,Alena Sotnikova,Алена Сотникова,J 20 - 23,56,Raw,Yes,B,1989-08-29,55.7,,,,,,50,60,-62.5,,60,,,,,,60,1
F,Yuliya Tarasova,Юлия Тарасова,O,56,Raw,Yes,B,1973-09-12,56,,,,,,72.5,75,-77.5,,75,,,,,,75,1
F,Aleksandra Sovkova,Александра Совкова,O,56,Raw,Yes,B,1988-11-25,54.9,,,,,,55,-60,60,,60,,,,,,60,2
F,Polina Biryukova,Полина Бирюкова,T 16-17,60,Raw,Yes,B,1996-08-29,58.8,,,,,,47.5,50,52.5,,52.5,,,,,,52.5,1
F,Larisa Smal,Лариса Смаль,O,60,Raw,Yes,B,1987-07-08,57.8,,,,,,57.5,62.5,-65,,62.5,,,,,,62.5,1
F,Anna Sepyagina,Анна Сепягина,O,60,Raw,Yes,B,1988-08-22,58.6,,,,,,52.5,-57.5,-57.5,,52.5,,,,,,52.5,2
F,Galina Kondrateva,Галина Кондратьева,M 60 - 64,60,Raw,Yes,B,1952-02-06,56.9,,,,,,42.5,45,47.5,,47.5,,,,,,47.5,1
F,Yuliya Pavlova,Юлия Павлова,T 13-15,67.5,Raw,Yes,B,1997-11-25,65.25,,,,,,30,35,-37.5,,35,,,,,,35,1
F,Natalya Zagrebina,Наталья Загребина,O,67.5,Raw,Yes,B,1977-10-29,60.35,,,,,,65,67.5,-70,,67.5,,,,,,67.5,1
F,Anna Nikolenko,Анна Николенко,M 40 - 44,67.5,Raw,Yes,B,1970-08-29,65.9,,,,,,60,65,-67.5,,65,,,,,,65,1
F,Marina Sinotova,Марина Синотова,O,75,Raw,Yes,B,1988-12-31,69.2,,,,,,55,57.5,60,,60,,,,,,60,2
F,Olga Starostina,Ольга Старостина,M 55 - 59,75,Raw,Yes,B,1955-07-24,69.9,,,,,,27.5,30,35,,35,,,,,,35,1
F,Lyudmila Chashkina,Людмила Чашкина,M 40 - 44,82.5,Raw,Yes,B,1968-10-19,79,,,,,,-42.5,42.5,-50,,42.5,,,,,,42.5,1
F,Valentina Kiskina,Валентина Кискина,M 55 - 59,90,Raw,Yes,B,1954-11-27,87.2,,,,,,40,45,-47.5,,45,,,,,,45,1
F,Yaroslava Polyanina,Ярослава Полянина,O,90+,Raw,Yes,B,1988-10-04,93.4,,,,,,57.5,60,-62.5,,60,,,,,,60,1
F,Lyudmila Frantsuzova,Людмила Французова,M 60 - 64,90+,Raw,Yes,B,1952-04-28,114.4,,,,,,45,50,-52.5,,50,,,,,,50,1
M,Roman Bokov,Роман Боков,T 16-17,52,Raw,Yes,B,1995-08-05,42.9,,,,,,52.5,-57.5,57.5,,57.5,,,,,,57.5,1
M,Abbos Bekov,Аббос Беков,T 18 - 19,52,Raw,Yes,B,1993-07-22,51.3,,,,,,-82.5,82.5,-85,,82.5,,,,,,82.5,1
M,Ivan Solomichev,Иван Соломичев,O,52,Raw,Yes,B,1999-05-06,43.8,,,,,,-42.5,42.5,-45,,42.5,,,,,,42.5,1
M,Maksim Surinov,Максим Суринов,T 13-15,56,Raw,Yes,B,1997-11-30,54.8,,,,,,45,52.5,62.5,,62.5,,,,,,62.5,1
M,Roman Britasov,Роман Бритасов,T 16-17,56,Raw,Yes,B,1995-02-25,56,,,,,,55,60,62.5,,62.5,,,,,,62.5,2
M,Andrey Malyshev,Андрей Малышев,O,56,Raw,Yes,B,1994-11-28,53.3,,,,,,102.5,107.5,-110,,107.5,,,,,,107.5,1
M,Evgeniy Gorshkov,Евгений Горшков,T 13-15,60,Raw,Yes,B,1999-03-01,58.5,,,,,,45,50,-52.5,,50,,,,,,50,1
M,Bogdan Lolin,Богдан Лолин,T 16-17,60,Raw,Yes,B,1995-12-25,59.2,,,,,,-100,105,-112.5,,105,,,,,,105,1
M,Aleksandr Atamas,Александр Атамась,T 16-17,60,Raw,Yes,B,1996-09-05,59.8,,,,,,72.5,77.5,80,,80,,,,,,80,2
M,Dmitriy Solomatov,Дмитрий Соломатов,T 16-17,60,Raw,Yes,B,1996-08-14,57.8,,,,,,60,67.5,72.5,,72.5,,,,,,72.5,3
M,Dias Dzhelilov,Диас Джелилов,T 18 - 19,60,Raw,Yes,B,1993-05-26,57.1,,,,,,105,112.5,118,,118,,,,,,117.5,1
M,Andrey Kuprikov,Андрей Куприков,O,60,Raw,Yes,B,1987-02-17,58.7,,,,,,110,112.5,-115,,112.5,,,,,,112.5,1
M,Aleksandr Volkov,Александр Волков,O,60,Raw,Yes,B,1988-05-11,57.6,,,,,,-110,110,-115,,110,,,,,,110,2
M,Aleksandr Madaev,Александр Мадаев,O,60,Raw,Yes,B,1984-10-25,58.55,,,,,,92.5,-95,-95,,92.5,,,,,,92.5,3
M,Suleyman Suleymanov,Сулейман Сулейманов,T 16-17,67.5,Raw,Yes,B,1996-01-21,64.1,,,,,,100,-107.5,-110,,100,,,,,,100,1
M,Dmitriy Zagrebin,Дмитрий Загребин,T 16-17,67.5,Raw,Yes,B,1996-07-28,67.5,,,,,,90,95,-100,,95,,,,,,95,2
M,Dmitriy Ivanov,Дмитрий Иванов,T 16-17,67.5,Raw,Yes,B,1995-04-18,66.3,,,,,,92.5,-97.5,-97.5,,92.5,,,,,,92.5,3
M,Dmitriy Kosarev,Дмитрий Косарев,T 16-17,67.5,Raw,Yes,B,1995-04-15,63.3,,,,,,87.5,-92.5,-92.5,,87.5,,,,,,87.5,4
M,Aleksandr Zhuravlev,Александр Журавлев,T 16-17,67.5,Raw,Yes,B,1996-09-12,63.5,,,,,,80,87.5,-92.5,,87.5,,,,,,87.5,5
M,Maksim Makarov,Максим Макаров,T 16-17,67.5,Raw,Yes,B,1996-03-18,66.5,,,,,,55,-60,-67.5,,55,,,,,,55,6
M,Egor Lobov,Егор Лобов,T 18 - 19,67.5,Raw,Yes,B,1993-10-07,67.3,,,,,,107.5,112.5,115,,115,,,,,,115,1
M,Oleg Rakovets,Олег Раковец,T 18 - 19,67.5,Raw,Yes,B,1993-03-08,65.1,,,,,,107.5,112.5,-117.5,,112.5,,,,,,112.5,2
M,Emil Safiullin,Эмиль Сафиуллин,T 18 - 19,67.5,Raw,Yes,B,1993-05-10,66.2,,,,,,-100,107.5,112.5,,112.5,,,,,,112.5,3
M,Evgeniy Ruzlev,Евгений Рузлев,T 18 - 19,67.5,Raw,Yes,B,1993-06-03,62.7,,,,,,80,87.5,-92.5,,87.5,,,,,,87.5,4
M,Sergey Ivanov,Сергей Иванов,T 18 - 19,67.5,Raw,Yes,B,1995-01-27,65.7,,,,,,-100,-102.5,-102.5,,,,,,,,,DQ
M,Stanislav Melkumyan,Станислав Мелкумян,J 20 - 23,67.5,Raw,Yes,B,1989-03-14,66.45,,,,,,-115,115,120,,120,,,,,,120,1
M,Andrey Dezhin,Андрей Дежин,J 20 - 23,67.5,Raw,Yes,B,1992-07-30,67.35,,,,,,117.5,-122.5,-122.5,,117.5,,,,,,117.5,2
M,Artur Sagadaev,Артур Сагадаев,J 20 - 23,67.5,Raw,Yes,B,1990-06-14,62.6,,,,,,-107.5,107.5,-115,,107.5,,,,,,107.5,3
M,Fedor Shumkin,Федор Шумкин,J 20 - 23,67.5,Raw,Yes,B,1991-11-25,64.35,,,,,,-80,87.5,-97.5,,87.5,,,,,,87.5,4
M,Sergey Burobin,Сергей Буробин,J 20 - 23,67.5,Raw,Yes,B,1989-10-30,63.8,,,,,,-120,-120,-120,,,,,,,,,DQ
M,Vladislav Ataev,Владислав Атаев,O,67.5,Raw,Yes,B,1980-08-14,65.65,,,,,,130,135,-137.5,,135,,,,,,135,2
M,Viktor Kvyatkovskiy,Виктор Квятковский,O,67.5,Raw,Yes,B,1971-04-16,67,,,,,,120,125,-127.5,,125,,,,,,125,3
M,Roman Tsunskiy,Роман Цунский,O,67.5,Raw,Yes,B,1993-10-29,64.55,,,,,,107.5,115,-125,,115,,,,,,115,4
M,Marat Aleev,Марат Алеев,O,67.5,Raw,Yes,B,1974-03-08,64.25,,,,,,100,107.5,-110,,107.5,,,,,,107.5,5
M,Vyacheslav Belik,Вячеслав Белик,O,67.5,Raw,Yes,B,1979-01-25,66.2,,,,,,100,107.5,-112.5,,107.5,,,,,,107.5,6
M,Pavel Kivachuk,Павел Кивачук,O,67.5,Raw,Yes,B,1988-03-15,66.2,,,,,,-100,100,107.5,,107.5,,,,,,107.5,7
M,Maksim Popov #9,Максим Попов,O,67.5,Raw,Yes,B,1988-05-24,66.2,,,,,,100,107.5,-115,,107.5,,,,,,107.5,8
M,Dmitriy Karchinskiy,Дмитрий Карчинский,O,67.5,Raw,Yes,B,1989-02-03,67.5,,,,,,-102.5,-102.5,-102.5,,,,,,,,,DQ
M,Miron Kim,Мирон Ким,M 70 - 74,67.5,Raw,Yes,B,1941-08-05,66.75,,,,,,90,-95,-95,,90,,,,,,90,1
M,Georgiy Dubrovin,Георгий Дубровин,T 13-15,75,Raw,Yes,B,1997-11-12,73.5,,,,,,110,117.5,122.5,,122.5,,,,,,122.5,1
M,Arseniy Fedorov,Арсений Федоров,T 13-15,75,Raw,Yes,B,1997-02-28,74,,,,,,107.5,-117.5,-117.5,,107.5,,,,,,107.5,2
M,Leonid Muravyov,Леонид Муравьёв,T 13-15,75,Raw,Yes,B,1998-08-05,71.15,,,,,,90,95,100,,100,,,,,,100,3
M,Arseniy Kruming,Арсений Круминг,T 16-17,75,Raw,Yes,B,1995-08-02,74.4,,,,,,-110,115,122.5,,122.5,,,,,,122.5,1
M,Vladislav Kanashevskiy,Владислав Канашевский,T 16-17,75,Raw,Yes,B,1995-09-02,73.3,,,,,,-105,110,-117.5,,110,,,,,,110,2
M,Ivan Shtoda,Иван Штода,T 16-17,75,Raw,Yes,B,1997-01-29,72.6,,,,,,85,90,95,,95,,,,,,95,3
M,Boburmirza Alizhonov,Бобурмирза Алижонов,T 16-17,75,Raw,Yes,B,1995-06-28,72.9,,,,,,-87.5,95,-105,,95,,,,,,95,4
M,Pavel Podkovyrov,Павел Подковыров,T 18 - 19,75,Raw,Yes,B,1994-07-14,70.55,,,,,,-95,-95,-95,,,,,,,,,DQ
M,Maksim Bogdanov,Максим Богданов,J 20 - 23,75,Raw,Yes,B,1992-10-12,73.35,,,,,,160,167.5,172.5,,172.5,,,,,,172.5,1
M,Zhavdet Seitov,Жавдет Сеитов,J 20 - 23,75,Raw,Yes,B,1989-05-18,72.05,,,,,,117.5,130,135,,135,,,,,,135,3
M,Semen Imanov,Семен Иманов,J 20 - 23,75,Raw,Yes,B,1989-09-20,75,,,,,,125,135,-140,,135,,,,,,135,4
M,Ilya Klimenko,Илья Клименко,J 20 - 23,75,Raw,Yes,B,1992-10-20,75,,,,,,-120,120,-135,,120,,,,,,120,5
M,Gennadiy Eskovich,Геннадий Эскович,J 20 - 23,75,Raw,Yes,B,1990-07-01,71.9,,,,,,110,117.5,-120,,117.5,,,,,,117.5,6
M,Sergey Gavrilchenko,Сергей Гаврильченко,J 20 - 23,75,Raw,Yes,B,1992-11-23,73.15,,,,,,110,117.5,-120,,117.5,,,,,,117.5,7
M,Aleksey Goncharenko,Алексей Гончаренко,J 20 - 23,75,Raw,Yes,B,1989-06-24,73.95,,,,,,110,117.5,-122.5,,117.5,,,,,,117.5,8
M,Sergey Denisov,Сергей Денисов,O,75,Raw,Yes,B,1988-10-25,75,,,,,,165,172.5,-177.5,,172.5,,,,,,172.5,1
M,Andrey Petrov,Андрей Петров,O,75,Raw,Yes,B,1979-10-14,73.5,,,,,,145,147.5,-150,,147.5,,,,,,147.5,3
M,Aleksandr Fetisov,Александр Фетисов,O,75,Raw,Yes,B,1987-04-30,72,,,,,,135,145,-150,,145,,,,,,145,6
M,Dmitriy Firsaev,Дмитрий Фирсаев,O,75,Raw,Yes,B,1983-11-26,74.6,,,,,,137.5,145,-150,,145,,,,,,145,7
M,Sergey Chumichyov,Сергей Чумичёв,O,75,Raw,Yes,B,1986-11-22,74.1,,,,,,130,135,-140,,135,,,,,,135,8
M,Maksim Tarba,Максим Тарба,O,75,Raw,Yes,B,1985-08-19,74.7,,,,,,117.5,135,,,135,,,,,,135,9
M,Dmitriy Kabanov,Дмитрий Кабанов,O,75,Raw,Yes,B,1989-05-31,74.9,,,,,,127.5,135,-140,,135,,,,,,135,10
M,Vitaliy Skripkin,Виталий Скрипкин,O,75,Raw,Yes,B,1988-11-06,70.2,,,,,,-125,-125,125,,125,,,,,,125,12
M,Aleksandr Mochalov,Александр Мочалов,O,75,Raw,Yes,B,1986-08-12,73.4,,,,,,120,125,-127.5,,125,,,,,,125,13
M,Yuriy Evdokimov,Юрий Евдокимов,O,75,Raw,Yes,B,1986-12-25,73.2,,,,,,117.5,122.5,-127.5,,122.5,,,,,,122.5,14
M,Aleksey Petrov,Алексей Петров,O,75,Raw,Yes,B,1983-04-28,71.2,,,,,,120,-135,-135,,120,,,,,,120,15
M,Mikhail Sokolov,Михаил Соколов,O,75,Raw,Yes,B,1984-04-07,72.4,,,,,,115,120,-125,,120,,,,,,120,16
M,David Balayan,Давид Балаян,O,75,Raw,Yes,B,1983-08-24,74.8,,,,,,112.5,117.5,120,,120,,,,,,120,17
M,Aleksey Breshin,Алексей Брешин,O,75,Raw,Yes,B,1984-08-10,74.9,,,,,,115,120,-122.5,,120,,,,,,120,18
M,Redkin,Редькин,O,75,Raw,Yes,B,1976-08-27,69.75,,,,,,107.5,117.5,-122.5,,117.5,,,,,,117.5,19
M,Vladimir Buzilov,Владимир Бузилов,O,75,Raw,Yes,B,1979-04-22,73,,,,,,-117.5,117.5,-122.5,,117.5,,,,,,117.5,20
M,Dmitriy Korpenko,Дмитрий Корпенко,O,75,Raw,Yes,B,1988-12-04,73.55,,,,,,105,117.5,,,117.5,,,,,,117.5,21
M,Nikita Kravchunov,Никита Кравчунов,O,75,Raw,Yes,B,1986-05-02,75,,,,,,105,115,117.5,,117.5,,,,,,117.5,22
M,Pavel Barkovskiy,Павел Барковский,O,75,Raw,Yes,B,1988-07-23,72,,,,,,-95,95,-105,,95,,,,,,95,23
M,Aleksandr Chadaev,Александр Чадаев,O,75,Raw,Yes,B,1989-11-18,75,,,,,,85,95,-105,,95,,,,,,95,24
M,Muboriz Khudoyberdiev,Мубориз Худойбердиев,O,75,Raw,Yes,B,1985-12-25,71.1,,,,,,-130,-130,-130,,,,,,,,,DQ
M,Vladimir Bakhshiyants,Владимир Бахшиянц,O,75,Raw,Yes,B,1987-04-25,71.7,,,,,,-105,-117.5,-117.5,,,,,,,,,DQ
M,Lev Drozdenko,Лев Дрозденко,O,75,Raw,Yes,B,1985-04-15,73.1,,,,,,-135,-135,,,,,,,,,,DQ
M,Dmitriy Belov,Дмитрий Белов,O,75,Raw,Yes,B,1974-10-01,73.7,,,,,,-135,-135,-135,,,,,,,,,DQ
M,Vyacheslav Moskvin,Вячеслав Москвин,O,75,Raw,Yes,B,1988-01-05,74,,,,,,-105,-105,-105,,,,,,,,,DQ
M,Sergey Zuykov,Сергей Зуйков,M 40 - 44,75,Raw,Yes,B,1970-03-10,74.5,,,,,,-150,150,155,,155,,,,,,155,1
M,Vladimir Kobets,Владимир Кобец,M 45 - 49,75,Raw,Yes,B,1966-07-26,72.95,,,,,,105,110,112.5,,112.5,,,,,,112.5,1
M,German Barabanov,Герман Барабанов,M 70 - 74,75,Raw,Yes,B,1940-01-28,73.4,,,,,,107.5,112.5,-117.5,,112.5,,,,,,112.5,1
M,Aleksandr Bukharin,Александр Бухарин,T 13-15,82.5,Raw,Yes,B,1999-02-22,81.5,,,,,,107.5,112.5,115,,115,,,,,,115,1
M,Dmitriy Karpenkov,Дмитрий Карпенков,T 16-17,82.5,Raw,Yes,B,1996-03-15,76.9,,,,,,95,100,102.5,,102.5,,,,,,102.5,1
M,Artem Meshakin,Артем Мешакин,T 16-17,82.5,Raw,Yes,B,1996-06-04,77,,,,,,95,100,-102.5,,100,,,,,,100,2
M,Mikhail Naymushin,Михаил Наймушин,T 16-17,82.5,Raw,Yes,B,1996-11-16,77.5,,,,,,70,75,80,,80,,,,,,80,3
M,Nikita Krasovskiy,Никита Красовский,T 18 - 19,82.5,Raw,Yes,B,1994-06-04,79.9,,,,,,127.5,135,-137.5,,135,,,,,,135,1
M,Kirill Sukharev,Кирилл Сухарев,T 18 - 19,82.5,Raw,Yes,B,1993-12-21,79.7,,,,,,115,125,-127.5,,125,,,,,,125,2
M,Pavel Kuchin,Павел Кучин,T 18 - 19,82.5,Raw,Yes,B,1994-07-11,78.1,,,,,,120,-127.5,-127.5,,120,,,,,,120,3
M,Denis Leshchenko,Денис Лещенко,T 18 - 19,82.5,Raw,Yes,B,1995-02-20,82.5,,,,,,120,-125,-125,,120,,,,,,120,4
M,Andrey Ayvazyan,Андрей Айвазян,T 18 - 19,82.5,Raw,Yes,B,1994-10-02,82.4,,,,,,-100,105,-112.5,,105,,,,,,105,6
M,Nikita Shevchuk,Никита Шевчук,T 18 - 19,82.5,Raw,Yes,B,1994-10-21,81,,,,,,87.5,102.5,-105,,102.5,,,,,,102.5,7
M,Evgeniy Khanykov,Евгений Ханыков,T 18 - 19,82.5,Raw,Yes,B,1993-05-28,79.5,,,,,,87.5,-95,-102.5,,87.5,,,,,,87.5,8
M,Aleksandr Boldinov,Александр Болдинов,J 20 - 23,82.5,Raw,Yes,B,1992-10-17,78.65,,,,,,140,-145,145,,145,,,,,,145,2
M,Sergey Reprintsev,Сергей Репринцев,J 20 - 23,82.5,Raw,Yes,B,1992-12-15,80.8,,,,,,135,145,-150,,145,,,,,,145,3
M,Dmitriy Sevostyanov,Дмитрий Севостьянов,J 20 - 23,82.5,Raw,Yes,B,1989-11-02,81.05,,,,,,127.5,137.5,-145,,137.5,,,,,,137.5,4
M,Evgeniy Korniychuk,Евгений Корнийчук,J 20 - 23,82.5,Raw,Yes,B,1989-11-05,75.8,,,,,,-125,127.5,130,,130,,,,,,130,6
M,Gleb Asadulin,Глеб Асадулин,J 20 - 23,82.5,Raw,Yes,B,1990-09-19,78.05,,,,,,120,-127.5,127.5,,127.5,,,,,,127.5,7
M,Dmitriy Dovzhenko,Дмитрий Довженко,J 20 - 23,82.5,Raw,Yes,B,1990-07-27,81.05,,,,,,120,127.5,-135,,127.5,,,,,,127.5,8
M,Artem Grabenko,Артем Грабенко,J 20 - 23,82.5,Raw,Yes,B,1989-05-22,81.3,,,,,,127.5,-130,,,127.5,,,,,,127.5,9
M,Ilya Shumkin,Илья Шумкин,J 20 - 23,82.5,Raw,Yes,B,1990-03-15,80.25,,,,,,120,125,-127.5,,125,,,,,,125,10
M,Georgiy Sharangiya,Георгий Шарангия,J 20 - 23,82.5,Raw,Yes,B,1992-08-31,82.45,,,,,,110,120,-127.5,,120,,,,,,120,11
M,Ruslan Larin,Руслан Ларин,J 20 - 23,82.5,Raw,Yes,B,1991-06-25,75.65,,,,,,117.5,-127.5,-127.5,,117.5,,,,,,117.5,12
M,Ivan Galichevskiy,Иван Галичевский,J 20 - 23,82.5,Raw,Yes,B,1989-11-21,76.3,,,,,,115,-127.5,-127.5,,115,,,,,,115,13
M,Daniil Evtushenko,Даниил Евтушенко,J 20 - 23,82.5,Raw,Yes,B,1989-09-19,80.1,,,,,,-110,-110,112.5,,112.5,,,,,,112.5,15
M,Aleksandr Smirnykh,Александр Смирных,J 20 - 23,82.5,Raw,Yes,B,1990-01-17,81.75,,,,,,-130,-145,-145,,,,,,,,,DQ
M,Aleksandr Brichkov,Александр Бричков,J 20 - 23,82.5,Raw,Yes,B,1990-07-30,81.8,,,,,,-145,-145,-145,,,,,,,,,DQ
M,Andrey Sapozhonkov,Андрей Сапожонков,O,82.5,Raw,Yes,B,1987-06-26,79.5,,,,,,180,185,-190,,185,,,,,,185,2
M,Konstantin Vasiliotti,Константин Василиотти,O,82.5,Raw,Yes,B,1978-11-18,78.8,,,,,,145,150,155,,155,,,,,,155,5
M,Aleksandr Rum,Александр Рум,O,82.5,Raw,Yes,B,1984-12-05,81.4,,,,,,140,150,155,,155,,,,,,155,6
M,Aleksandr Vorobev,Александр Воробьев,O,82.5,Raw,Yes,B,1967-02-18,81.9,,,,,,150,,,,150,,,,,,150,7
M,Vasiliy Maksimenkov,Василий Максименков,O,82.5,Raw,Yes,B,1982-12-14,82.1,,,,,,150,-160,-160,,150,,,,,,150,8
M,Evgeniy Gordeev,Евгений Гордеев,O,82.5,Raw,Yes,B,1988-12-27,80.1,,,,,,-137.5,145,-150,,145,,,,,,145,10
M,Artem Fetisov,Артем Фетисов,O,82.5,Raw,Yes,B,1983-04-05,80.2,,,,,,137.5,145,-150,,145,,,,,,145,11
M,Mikhail Rakul,Михаил Ракуль,O,82.5,Raw,Yes,B,1988-05-29,81.7,,,,,,135,145,-147.5,,145,,,,,,145,12
M,Viktor Bogdanov,Виктор Богданов,O,82.5,Raw,Yes,B,1985-09-06,81.8,,,,,,140,145,-150,,145,,,,,,,DD
M,Grigoriy Yudin,Григорий Юдин,O,82.5,Raw,Yes,B,1985-06-06,77.1,,,,,,140,-145,-145,,140,,,,,,140,14
M,Artem Samundzhyan,Артем Самунджян,O,82.5,Raw,Yes,B,1991-11-16,79.8,,,,,,130,140,-145,,140,,,,,,140,15
M,Maksim Beletskiy,Максим Белецкий,O,82.5,Raw,Yes,B,1976-12-06,80.7,,,,,,130,-140,140,,140,,,,,,140,16
M,Elshan Shirinov,Эльшан Ширинов,O,82.5,Raw,Yes,B,1976-04-10,81.3,,,,,,137.5,-145,-145,,137.5,,,,,,137.5,17
M,Sergey Orlov,Сергей Орлов,O,82.5,Raw,Yes,B,1978-06-10,82.5,,,,,,127.5,132.5,-137.5,,132.5,,,,,,132.5,18
M,Aleksandr Golovkin,Александр Головкин,O,82.5,Raw,Yes,B,1974-08-10,80,,,,,,125,127.5,130,,130,,,,,,130,19
M,Dmitriy Maltsev,Дмитрий Мальцев,O,82.5,Raw,Yes,B,1983-10-01,80.5,,,,,,130,-145,-145,,130,,,,,,130,20
M,Sergey Ilyukhin,Сергей Илюхин,O,82.5,Raw,Yes,B,1981-09-19,81.8,,,,,,130,-140,-140,,130,,,,,,130,21
M,Denis Saburov,Денис Сабуров,O,82.5,Raw,Yes,B,1985-08-11,80.85,,,,,,-115,120,127.5,,127.5,,,,,,127.5,22
M,Egor Opichenok,Егор Опиченок,O,82.5,Raw,Yes,B,1981-09-25,81.2,,,,,,117.5,-127.5,127.5,,127.5,,,,,,127.5,23
M,Denis Petrikov,Денис Петриков,O,82.5,Raw,Yes,B,1981-08-28,82.5,,,,,,115,127.5,,,127.5,,,,,,127.5,24
M,Aleksandr Kulish,Александр Кулиш,O,82.5,Raw,Yes,B,1990-08-31,80.6,,,,,,110,120,-127.5,,120,,,,,,120,25
M,Alexey Romanov,Алексей Романов,O,82.5,Raw,Yes,B,1986-02-05,81.05,,,,,,110,117.5,-127.5,,117.5,,,,,,117.5,26
M,Igor Sibushev,Игорь Сибушев,O,82.5,Raw,Yes,B,1979-05-28,79.9,,,,,,115,-127.5,-127.5,,115,,,,,,115,27
M,Mikhail Tarakanov,Михаил Тараканов,O,82.5,Raw,Yes,B,1989-07-03,76.1,,,,,,100,-112.5,112.5,,112.5,,,,,,112.5,28
M,Valeriy Kovalev,Валерий Ковалев,O,82.5,Raw,Yes,B,1981-02-04,80.4,,,,,,-100,100,107.5,,107.5,,,,,,107.5,29
M,Artyom Astashkin,Артём Асташкин,O,82.5,Raw,Yes,B,1988-09-12,81.2,,,,,,102.5,-112.5,-112.5,,102.5,,,,,,102.5,30
M,Dmitriy Sklyanin,Дмитрий Склянин,O,82.5,Raw,Yes,B,1984-11-26,81.7,,,,,,92.5,-102.5,-102.5,,92.5,,,,,,92.5,31
M,Andrey Muravev,Андрей Муравьев,O,82.5,Raw,Yes,B,1979-11-17,77.2,,,,,,70,-80,-85,,70,,,,,,70,32
M,Yuriy Zhitnev,Юрий Житнев,O,82.5,Raw,Yes,B,1988-02-27,76.9,,,,,,-100,-100,,,,,,,,,,DQ
M,Aleksey Alekseenko,Алексей Алексеенко,O,82.5,Raw,Yes,B,1977-06-07,78.5,,,,,,-130,-130,-130,,,,,,,,,DQ
M,Vladimir Shchegolkov,Владимир Щегольков,M 40 - 44,82.5,Raw,Yes,B,1973-01-22,81.7,,,,,,160,167.5,172.5,,172.5,,,,,,172.5,1
M,Ilya Timofeev,Илья Тимофеев,M 40 - 44,82.5,Raw,Yes,B,1970-01-05,81.1,,,,,,-140,140,-145,,140,,,,,,140,2
M,Sergey Ryazanov,Сергей Рязанов,M 40 - 44,82.5,Raw,Yes,B,1972-02-18,80.8,,,,,,112.5,120,-127.5,,120,,,,,,120,3
M,Roman Gorshkov,Роман Горшков,M 40 - 44,82.5,Raw,Yes,B,1970-04-29,81.15,,,,,,100,110,-115,,110,,,,,,110,4
M,Aleksandr Vorobev,Александр Воробьев,M 45 - 49,82.5,Raw,Yes,B,1967-02-18,81.9,,,,,,140,145,150,,150,,,,,,150,1
M,Yuriy Babarykin,Юрий Бабарыкин,M 50 - 54,82.5,Raw,Yes,B,1958-09-16,79.3,,,,,,90,95,-100,,95,,,,,,95,2
M,Igor Kovalev,Игорь Ковалев,M 55 - 59,82.5,Raw,Yes,B,1957-04-08,76.95,,,,,,135,142.5,-147.5,,142.5,,,,,,142.5,1
M,Vasiliy Mosin,Василий Мосин,M 55 - 59,82.5,Raw,Yes,B,1956-06-09,78.9,,,,,,135,-140,-140,,135,,,,,,135,2
M,Sergey Goncharov,Сергей Гончаров,M 60 - 64,82.5,Raw,Yes,B,1952-03-22,81.4,,,,,,115,120,-125,,120,,,,,,120,1
M,Boris Grachev,Борис Грачев,M 65 - 69,82.5,Raw,Yes,B,1945-08-01,80,,,,,,-102.5,102.5,-107.5,,102.5,,,,,,102.5,1
M,Zhurkin,Журкин,M 65 - 69,82.5,Raw,Yes,B,1945-02-13,80.95,,,,,,80,85,87.5,,87.5,,,,,,87.5,2
M,Evgeniy Petrov,Евгений Петров,T 16-17,90,Raw,Yes,B,1996-09-14,86.7,,,,,,100,105,107.5,,107.5,,,,,,107.5,1
M,Maksim Kolpakov,Максим Колпаков,T 16-17,90,Raw,Yes,B,1996-02-02,86.2,,,,,,-95,,-95,,,,,,,,,DQ
M,Artur Saitov,Артур Саитов,T 18 - 19,90,Raw,Yes,B,1994-06-19,88.2,,,,,,-145,145,152.5,,152.5,,,,,,152.5,1
M,Dmitriy Frank,Дмитрий Франк,T 18 - 19,90,Raw,Yes,B,1994-08-23,87.3,,,,,,-140,-140,-140,,,,,,,,,DQ
M,Sergey Kuznetsov,Сергей Кузнецов,J 20 - 23,90,Raw,Yes,B,1990-09-07,87.9,,,,,,165,-175,175,,175,,,,,,175,1
M,Aleksandr Komarov,Александр Комаров,J 20 - 23,90,Raw,Yes,B,1991-12-28,87.8,,,,,,152.5,157.5,162.5,,162.5,,,,,,162.5,2
M,Vadim Drozd,Вадим Дрозд,J 20 - 23,90,Raw,Yes,B,1991-03-17,88.85,,,,,,160,-170,-170,,160,,,,,,160,4
M,Emil Niazov,Эмиль Ниазов,J 20 - 23,90,Raw,Yes,B,1989-11-05,89.05,,,,,,140,147.5,152.5,,152.5,,,,,,152.5,5
M,Artemiy Kukoev,Артемий Кукоев,J 20 - 23,90,Raw,Yes,B,1991-03-15,89.4,,,,,,-152.5,-152.5,152.5,,152.5,,,,,,152.5,6
M,Vyacheslav Balakin,Вячеслав Балакин,J 20 - 23,90,Raw,Yes,B,1990-03-06,87.75,,,,,,-132.5,132.5,142.5,,142.5,,,,,,142.5,8
M,Aleksey Frolov,Алексей Фролов,J 20 - 23,90,Raw,Yes,B,1991-03-25,88.7,,,,,,132.5,137.5,-140,,137.5,,,,,,137.5,9
M,Sergey Mokhov,Сергей Мохов,J 20 - 23,90,Raw,Yes,B,1990-02-17,88.6,,,,,,132.5,-152.5,-152.5,,132.5,,,,,,132.5,10
M,Askhat Abuzyarov,Асхат Абузяров,J 20 - 23,90,Raw,Yes,B,1992-08-31,87.1,,,,,,122.5,127.5,-132.5,,127.5,,,,,,127.5,11
M,Egor Tsarenkov,Егор Царенков,J 20 - 23,90,Raw,Yes,B,1990-04-28,88.2,,,,,,125,-132.5,-132.5,,125,,,,,,125,12
M,Oleg Shutov,Олег Шутов,J 20 - 23,90,Raw,Yes,B,1990-05-13,86.5,,,,,,110,115,-120,,115,,,,,,115,13
M,Evgeniy Balashov,Евгений Балашов,J 20 - 23,90,Raw,Yes,B,1990-03-22,86,,,,,,-132.5,-132.5,-132.5,,,,,,,,,DQ
M,Pavel Brezhnev,Павел Брежнев,J 20 - 23,90,Raw,Yes,B,1991-06-30,87.7,,,,,,-152.5,-152.5,-152.5,,,,,,,,,DQ
M,Igor Kostin,Игорь Костин,J 20 - 23,90,Raw,Yes,B,1991-06-24,89.1,,,,,,-160,-170,-170,,,,,,,,,DQ
M,Vladimir Konchakov,Владимир Кончаков,O,90,Raw,Yes,B,1973-05-25,89.95,,,,,,175,185,190,,190,,,,,,190,1
M,Denis Fedorov,Денис Федоров,O,90,Raw,Yes,B,1987-12-10,90,,,,,,175,182.5,190,,190,,,,,,190,2
M,Aleksey Blintsov,Алексей Блинцов,O,90,Raw,Yes,B,1980-03-12,84.3,,,,,,170,177.5,-182.5,,177.5,,,,,,177.5,6
M,Mikhail Saltanov,Михаил Салтанов,O,90,Raw,Yes,B,1981-12-09,88.05,,,,,,-160,165,-170,,165,,,,,,165,8
M,Aleksandr Shuralev,Александр Шуралев,O,90,Raw,Yes,B,1975-07-13,88.9,,,,,,155,165,-170,,165,,,,,,165,9
M,Yuriy Nikolaev,Юрий Николаев,O,90,Raw,Yes,B,1981-05-02,85.8,,,,,,162.5,-175,-175,,162.5,,,,,,162.5,11
M,Viktor Urvanov,Виктор Урванов,O,90,Raw,Yes,B,1978-11-30,87.6,,,,,,152.5,160,-162.5,,160,,,,,,160,13
M,Ivan Evdokimov,Иван Евдокимов,O,90,Raw,Yes,B,1964-02-24,89.95,,,,,,152.5,157.5,-162.5,,157.5,,,,,,157.5,16
M,Dmitriy Pokhilenko,Дмитрий Похиленко,O,90,Raw,Yes,B,1980-08-23,87.6,,,,,,-147.5,152.5,155,,155,,,,,,155,17
M,Sergey Ramenskiy,Сергей Раменский,O,90,Raw,Yes,B,1986-06-23,86.75,,,,,,145,152.5,-160,,152.5,,,,,,152.5,18
M,Aleksandr Gordopolov,Александр Гордополов,O,90,Raw,Yes,B,1973-11-01,86.9,,,,,,145,152.5,-157.5,,152.5,,,,,,152.5,19
M,Denis Krasnov,Денис Краснов,O,90,Raw,Yes,B,1987-04-27,87.2,,,,,,140,152.5,-160,,152.5,,,,,,152.5,20
M,Konstantin Viktorov,Константин Викторов,O,90,Raw,Yes,B,1977-11-07,87.3,,,,,,132.5,-152.5,152.5,,152.5,,,,,,152.5,21
M,Aleksey Evlanov,Алексей Евланов,O,90,Raw,Yes,B,1986-01-09,84.9,,,,,,135,142.5,150,,150,,,,,,150,22
M,Vladimir Pervago,Владимир Перваго,O,90,Raw,Yes,B,1984-04-23,87.1,,,,,,140,145,-152.5,,145,,,,,,145,24
M,Sergey Chakhotkin,Сергей Чахоткин,O,90,Raw,Yes,B,1982-07-13,87.9,,,,,,140,145,-152.5,,145,,,,,,145,26
M,Maksim Volkov,Максим Волков,O,90,Raw,Yes,B,1989-02-07,89.75,,,,,,145,-152.5,-152.5,,145,,,,,,145,27
M,Sergey Antsupov,Сергей Анцупов,O,90,Raw,Yes,B,1974-05-30,88.7,,,,,,142.5,-147.5,-152.5,,142.5,,,,,,142.5,28
M,Mikhail Chistyakov,Михаил Чистяков,O,90,Raw,Yes,B,1984-05-10,89.2,,,,,,135,140,-145,,140,,,,,,140,29
M,Stanislav Simonov,Станислав Симонов,O,90,Raw,Yes,B,1986-09-06,84.25,,,,,,-132.5,132.5,137.5,,137.5,,,,,,137.5,30
M,Aleksandr Gapchich,Александр Гапчич,O,90,Raw,Yes,B,1987-01-20,88.75,,,,,,127.5,132.5,137.5,,137.5,,,,,,137.5,31
M,Aleksey Nikulin,Алексей Никулин,O,90,Raw,Yes,B,1989-07-07,83.7,,,,,,135,-152.5,-152.5,,135,,,,,,135,32
M,Oleg Varvarin,Олег Варварин,O,90,Raw,Yes,B,1986-04-02,87.2,,,,,,130,135,-140,,135,,,,,,135,33
M,Maksim Levin,Максим Левин,O,90,Raw,Yes,B,1979-04-10,87.35,,,,,,132.5,135,-137.5,,135,,,,,,135,34
M,Sergey Tolmachev,Сергей Толмачев,O,90,Raw,Yes,B,1980-06-26,83.6,,,,,,120,132.5,-140,,132.5,,,,,,132.5,35
M,Sergey Churinov,Сергей Чуринов,O,90,Raw,Yes,B,1976-07-20,85.55,,,,,,-130,132.5,-140,,132.5,,,,,,132.5,36
M,Denis Nitkin,Денис Ниткин,O,90,Raw,Yes,B,1979-07-28,87.15,,,,,,130,132.5,-135,,132.5,,,,,,132.5,37
M,Bakhtygaliy Kuzbakov,Бахтыгалий Кузбаков,O,90,Raw,Yes,B,1979-07-13,87.2,,,,,,132.5,-152.5,-152.5,,132.5,,,,,,132.5,38
M,Aleksandr Polishchuk,Александр Полищук,O,90,Raw,Yes,B,1987-07-23,88.2,,,,,,125,132.5,-152.5,,132.5,,,,,,132.5,39
M,Nikita Matko,Никита Матько,O,90,Raw,Yes,B,1984-06-25,88.3,,,,,,-125,132.5,-135,,132.5,,,,,,132.5,40
M,Dmitriy Ilin,Дмитрий Ильин,O,90,Raw,Yes,B,1986-02-14,88.3,,,,,,132.5,-140,,,132.5,,,,,,132.5,41
M,Maksim Buyanov,Максим Буянов,O,90,Raw,Yes,B,1983-07-04,88.75,,,,,,-127.5,132.5,-135,,132.5,,,,,,132.5,42
M,Andrey Frolkin,Андрей Фролкин,O,90,Raw,Yes,B,1980-06-24,88.9,,,,,,120,132.5,,,132.5,,,,,,132.5,43
M,Ilya Androsov,Илья Андросов,O,90,Raw,Yes,B,1986-10-30,85.25,,,,,,127.5,-132.5,-135,,127.5,,,,,,127.5,44
M,Evgeniy Smirnov,Евгений Смирнов,O,90,Raw,Yes,B,1983-11-13,88.6,,,,,,127.5,-137.5,-137.5,,127.5,,,,,,127.5,46
M,Mikhail Sulaymonshoev,Михаил Сулаймоншоев,O,90,Raw,Yes,B,1985-11-25,85.8,,,,,,-120,120,-132.5,,120,,,,,,120,47
M,Kirill Emelyanov,Кирилл Емельянов,O,90,Raw,Yes,B,1986-06-02,89.45,,,,,,120,-125,-125,,120,,,,,,120,48
M,Aleksey Naumov,Алексей Наумов,O,90,Raw,Yes,B,1979-03-05,88.8,,,,,,-140,-140,,,,,,,,,,DQ
M,Sergey Asryan,Сергей Асрян,O,90,Raw,Yes,B,1986-11-10,89.1,,,,,,-120,-127.5,-127.5,,,,,,,,,DQ
M,Sergey Yarochkin,Сергей Ярочкин,M 40 - 44,90,Raw,Yes,B,1971-01-12,90,,,,,,145,152.5,157.5,,157.5,,,,,,157.5,2
M,Sergey Andriyanov,Сергей Андриянов,M 40 - 44,90,Raw,Yes,B,1970-05-20,86.8,,,,,,132.5,145,-152.5,,145,,,,,,145,3
M,Aleksandr Lebedev,Александр Лебедев,M 40 - 44,90,Raw,Yes,B,1972-12-20,89.1,,,,,,102.5,110,115,,115,,,,,,115,4
M,Andrey Makevnin,Андрей Макевнин,M 50 - 54,90,Raw,Yes,B,1961-05-18,88.05,,,,,,125,132.5,-137.5,,132.5,,,,,,132.5,1
M,Mikhail Aleksakov,Михаил Алексаков,M 55 - 59,90,Raw,Yes,B,1954-12-04,87.7,,,,,,110,115,120,,120,,,,,,120,1
M,Vyacheslav Stanchak,Вячеслав Станчак,M 60 - 64,90,Raw,Yes,B,1952-08-08,87,,,,,,147.5,152.5,-155,,152.5,,,,,,152.5,1
M,Nikolay Novikov,Николай Новиков,M 70 - 74,90,Raw,Yes,B,1938-06-18,87.7,,,,,,100,,,,100,,,,,,100,1
M,Anton Komolov,Антон Комолов,T 16-17,100,Raw,Yes,B,1995-08-11,95.3,,,,,,90,-97.5,97.5,,97.5,,,,,,97.5,1
M,Ivan Voronov,Иван Воронов,T 16-17,100,Raw,Yes,B,1995-03-21,96.7,,,,,,-120,-120,-120,,,,,,,,,DQ
M,Yuriy Sergeev,Юрий Сергеев,T 18 - 19,100,Raw,Yes,B,1993-05-27,98.8,,,,,,115,125,130,,130,,,,,,130,2
M,Daniil Lazarev,Даниил Лазарев,T 18 - 19,100,Raw,Yes,B,1995-02-11,97.25,,,,,,-115,115,-120,,115,,,,,,115,3
M,Vsevolod Ryazanov,Всеволод Рязанов,J 20 - 23,100,Raw,Yes,B,1990-08-11,98.2,,,,,,170,175,-177.5,,175,,,,,,175,2
M,Igor Simonenko,Игорь Симоненко,J 20 - 23,100,Raw,Yes,B,1993-01-11,91.1,,,,,,140,162.5,-177.5,,162.5,,,,,,162.5,3
M,Oleg Borodin,Олег Бородин,J 20 - 23,100,Raw,Yes,B,1990-04-21,96.7,,,,,,155,-162.5,-162.5,,155,,,,,,155,4
M,Sergey Stupnikov,Сергей Ступников,J 20 - 23,100,Raw,Yes,B,1989-12-15,96.15,,,,,,125,140,-145,,140,,,,,,140,5
M,Sergey Karasyov,Сергей Карасёв,J 20 - 23,100,Raw,Yes,B,1989-12-24,97.4,,,,,,-125,140,-162.5,,140,,,,,,140,6
M,Dmitriy Samsonov,Дмитрий Самсонов,J 20 - 23,100,Raw,Yes,B,1993-02-11,99.6,,,,,,135,140,-145,,140,,,,,,140,7
M,Kirill Dzhanko,Кирилл Джанко,J 20 - 23,100,Raw,Yes,B,1993-01-21,95.6,,,,,,120,127.5,-132.5,,127.5,,,,,,127.5,8
M,Yuriy Nizhegorodov,Юрий Нижегородов,J 20 - 23,100,Raw,Yes,B,1989-10-06,94.8,,,,,,-125,125,-140,,125,,,,,,125,9
M,Dmitriy Kostin,Дмитрий Костин,J 20 - 23,100,Raw,Yes,B,1991-04-05,96.2,,,,,,125,-140,-140,,125,,,,,,125,10
M,David Tumanyan,Давид Туманян,J 20 - 23,100,Raw,Yes,B,1992-04-10,98.1,,,,,,100,-112.5,-112.5,,100,,,,,,100,12
M,Andrey Kukhnevskiy,Андрей Кухневский,O,100,Raw,Yes,B,1981-11-30,96.8,,,,,,200,210,220,,220,,,,,,220,1
M,Pavel Milovanov,Павел Милованов,O,100,Raw,Yes,B,1977-10-05,99.9,,,,,,190,195,-200,,195,,,,,,195,5
M,Mikhail Evstigneev,Михаил Евстигнеев,O,100,Raw,Yes,B,1976-06-21,97,,,,,,180,-190,-190,,180,,,,,,180,7
M,Dmitriy Lifanov,Дмитрий Лифанов,O,100,Raw,Yes,B,1988-11-13,99.7,,,,,,150,162.5,170,,170,,,,,,170,10
M,Evgeniy Bakarinov,Евгений Бакаринов,O,100,Raw,Yes,B,1984-11-01,96,,,,,,-165,165,-180,,165,,,,,,165,11
M,Yuriy Stepanov,Юрий Степанов,O,100,Raw,Yes,B,1979-04-03,95.8,,,,,,-162.5,162.5,-167.5,,162.5,,,,,,162.5,13
M,Maksim Denisov,Максим Денисов,O,100,Raw,Yes,B,1982-03-20,98.1,,,,,,140,162.5,-167.5,,162.5,,,,,,162.5,14
M,Sergey Matveev,Сергей Матвеев,O,100,Raw,Yes,B,1973-04-29,99.1,,,,,,-150,150,162.5,,162.5,,,,,,162.5,15
M,Maksim Sevryukov,Максим Севрюков,O,100,Raw,Yes,B,1985-03-06,99.3,,,,,,147.5,155,-162.5,,155,,,,,,155,16
M,Aleksey Pustovoytov,Алексей Пустовойтов,O,100,Raw,Yes,B,1984-07-31,93.7,,,,,,140,147.5,152.5,,152.5,,,,,,152.5,17
M,Andrey Petrikov,Андрей Петриков,O,100,Raw,Yes,B,1986-02-15,98.35,,,,,,130,142.5,-150,,142.5,,,,,,142.5,18
M,Aleksey Maychenkov,Алексей Майченков,O,100,Raw,Yes,B,1977-03-24,98.8,,,,,,140,-150,-150,,140,,,,,,140,19
M,Valeriy Smolnikov,Валерий Смольников,O,100,Raw,Yes,B,1976-05-31,95.25,,,,,,125,135,-140,,135,,,,,,135,20
M,Igor Babichev,Игорь Бабичев,O,100,Raw,Yes,B,1974-06-05,96.3,,,,,,130,-140,-140,,130,,,,,,130,21
M,Viktor Bobro,Виктор Бобро,O,100,Raw,Yes,B,1987-02-07,97.2,,,,,,105,115,125,,125,,,,,,125,22
M,Andrey Drennov,Андрей Дреннов,O,100,Raw,Yes,B,1971-01-23,97.8,,,,,,125,-140,-140,,125,,,,,,125,23
M,Aleksandr Meshkov,Александр Мешков,O,100,Raw,Yes,B,1975-02-05,97.1,,,,,,120,-130,-140,,120,,,,,,120,24
M,Kirill Rachkov,Кирилл Рачков,O,100,Raw,Yes,B,1977-12-11,98.95,,,,,,120,-130,-130,,120,,,,,,120,25
M,Dmitriy Kvyatkovskiy,Дмитрий Квятковский,O,100,Raw,Yes,B,1978-08-12,92.05,,,,,,95,97.5,-105,,97.5,,,,,,97.5,26
M,Denis Lobanov,Денис Лобанов,O,100,Raw,Yes,B,1986-11-10,96,,,,,,-140,-140,-140,,,,,,,,,DQ
M,Sergey Rybkin,Сергей Рыбкин,O,100,Raw,Yes,B,1981-07-20,98.7,,,,,,-150,-155,,,,,,,,,,DQ
M,Vladislav Kolesnikov,Владислав Колесников,O,100,Raw,Yes,B,1984-06-19,99.4,,,,,,-142.5,-145,-145,,,,,,,,,DQ
M,Yuriy Verchenko,Юрий Верченко,M 40 - 44,100,Raw,Yes,B,1969-03-23,99,,,,,,150,155,-162.5,,155,,,,,,155,2
M,Oleg Mironov,Олег Миронов,M 40 - 44,100,Raw,Yes,B,1973-01-12,98,,,,,,130,-140,-140,,130,,,,,,130,3
M,Yuriy Lyubach,Юрий Любач,M 40 - 44,100,Raw,Yes,B,1968-10-23,93.5,,,,,,125,-132.5,-132.5,,125,,,,,,125,4
M,Pavel Sapronov,Павел Сапронов,M 40 - 44,100,Raw,Yes,B,1969-02-03,98.3,,,,,,70,75,-80,,75,,,,,,75,5
M,Mikhail Chepurnoy,Михаил Чепурной,M 40 - 44,100,Raw,Yes,B,1970-02-26,94.8,,,,,,-140,-140,-140,,,,,,,,,DQ
M,Aleksandr Goryunov,Александр Горюнов,M 45 - 49,100,Raw,Yes,B,1966-12-03,96.8,,,,,,150,155,-160,,155,,,,,,155,2
M,Igor Solomichev,Игорь Соломичев,M 45 - 49,100,Raw,Yes,B,1967-01-27,95.5,,,,,,-155,-155,-155,,,,,,,,,DQ
M,Mikhail Prokopov,Михаил Прокопов,M 55 - 59,100,Raw,Yes,B,1956-06-10,97.8,,,,,,150,-155,-155,,150,,,,,,150,1
M,Gennadiy Obmelyukhin,Геннадий Обмелюхин,M 60 - 64,100,Raw,Yes,B,1948-03-21,92.3,,,,,,97.5,102.5,105,,105,,,,,,105,1
M,Leonid Busov,Леонид Бусов,T 13-15,110,Raw,Yes,B,1998-03-13,106.2,,,,,,85,95,97.5,,97.5,,,,,,97.5,1
M,Anton Egorov,Антон Егоров,T 16-17,110,Raw,Yes,B,1996-04-07,101.1,,,,,,120,-130,132.5,,132.5,,,,,,132.5,1
M,Andrey Kudryavtsev,Андрей Кудрявцев,T 18 - 19,110,Raw,Yes,B,1993-06-28,106,,,,,,102.5,117.5,120,,120,,,,,,120,1
M,Ruslan Kulebyakin,Руслан Кулебякин,J 20 - 23,110,Raw,Yes,B,1991-02-26,102.5,,,,,,160,170,-175,,170,,,,,,170,3
M,Nikolay Shanin,Николай Шанин,J 20 - 23,110,Raw,Yes,B,1989-12-22,103.9,,,,,,170,-177.5,-177.5,,170,,,,,,170,4
M,Vladimir Shemyakin,Владимир Шемякин,J 20 - 23,110,Raw,Yes,B,1991-12-21,107.9,,,,,,155,160,162.5,,162.5,,,,,,162.5,5
M,Stanislav Golovatyuk,Станислав Головатюк,J 20 - 23,110,Raw,Yes,B,1991-08-02,105.5,,,,,,-180,-180,-180,,,,,,,,,DQ
M,Dmitriy Tenetko,Дмитрий Тенетко,O,110,Raw,Yes,B,1975-08-11,108.3,,,,,,210,-220,,,210,,,,,,210,7
M,Vasiliy Sidorov,Василий Сидоров,O,110,Raw,Yes,B,1977-10-12,109.8,,,,,,195,-200,-200,,195,,,,,,195,10
M,Mikhail Zhuravlev,Михаил Журавлев,O,110,Raw,Yes,B,1981-12-08,105,,,,,,160,167.5,172.5,,172.5,,,,,,172.5,12
M,Sergey Radchenko,Сергей Радченко,O,110,Raw,Yes,B,1980-08-10,106.65,,,,,,167.5,-170,-172.5,,167.5,,,,,,167.5,14
M,Konstantin Fedosov,Константин Федосов,O,110,Raw,Yes,B,,108.3,,,,,,-142.5,142.5,167.5,,167.5,,,,,,167.5,15
M,Roman Karpunin,Роман Карпунин,O,110,Raw,Yes,B,1982-10-17,108.7,,,,,,167.5,-177.5,-177.5,,167.5,,,,,,167.5,16
M,Maksim Uteshev,Максим Утешев,O,110,Raw,Yes,B,1974-12-04,109.4,,,,,,160,167.5,-172.5,,167.5,,,,,,167.5,17
M,Maksim Safin,Максим Сафин,O,110,Raw,Yes,B,1983-06-24,101.2,,,,,,157.5,162.5,-167.5,,162.5,,,,,,162.5,18
M,Stanislav Karpov,Станислав Карпов,O,110,Raw,Yes,B,1982-10-01,104,,,,,,155,160,-162.5,,160,,,,,,160,19
M,Evgeniy Marinov,Евгений Маринов,O,110,Raw,Yes,B,1983-11-20,107.75,,,,,,160,-167.5,-167.5,,160,,,,,,160,20
M,Mikhail Sidelnikov,Михаил Сидельников,O,110,Raw,Yes,B,1984-03-15,108,,,,,,147.5,152.5,157.5,,157.5,,,,,,157.5,21
M,Dmitriy Kobets,Дмитрий Кобец,O,110,Raw,Yes,B,1976-11-04,110,,,,,,150,157.5,-167.5,,157.5,,,,,,157.5,22
M,Mikhail Chepurnoy,Михаил Чепурной,O,110,Raw,Yes,B,1986-05-21,107.2,,,,,,147.5,155,-160,,155,,,,,,155,23
M,Sergey Gershtanskiy,Сергей Герштанский,O,110,Raw,Yes,B,1974-04-06,104.4,,,,,,142.5,147.5,-150,,147.5,,,,,,147.5,24
M,Roman Belyy,Роман Белый,O,110,Raw,Yes,B,1996-09-20,106.8,,,,,,145,-147.5,-147.5,,145,,,,,,145,25
M,Artyom Artyukhov,Артём Артюхов,O,110,Raw,Yes,B,1987-04-30,106.2,,,,,,-147.5,-147.5,,,,,,,,,,DQ
M,Vadim Ivanov,Вадим Иванов,M 40 - 44,110,Raw,Yes,B,1972-12-24,106,,,,,,170,175,-182.5,,175,,,,,,175,2
M,Denis Borozna,Денис Борозна,M 40 - 44,110,Raw,Yes,B,1972-08-19,107.8,,,,,,167.5,175,-180,,175,,,,,,175,3
M,Evgeniy Prosolov,Евгений Просолов,M 40 - 44,110,Raw,Yes,B,1968-03-28,108.25,,,,,,150,157.5,-167.5,,157.5,,,,,,157.5,4
M,Nikolay Milovanov,Николай Милованов,M 55 - 59,110,Raw,Yes,B,1957-12-11,110,,,,,,130,140,,,140,,,,,,140,1
M,Vitaliy Mashkevich,Виталий Машкевич,J 20 - 23,125,Raw,Yes,B,1989-08-18,113.7,,,,,,170,177.5,180,,180,,,,,,180,2
M,Aleksandr Andreev,Александр Андреев,O,125,Raw,Yes,B,1977-03-19,120.5,,,,,,202.5,207.5,-210,,207.5,,,,,,207.5,3
M,Andrey Khramtsov,Андрей Храмцов,O,125,Raw,Yes,B,1984-09-18,118.4,,,,,,185,190,-195,,190,,,,,,190,6
M,Yuriy Gordyakov,Юрий Гордяков,O,125,Raw,Yes,B,1976-04-27,123.6,,,,,,-210,-217.5,-217.5,,,,,,,,,DQ
M,Vladimir Chubarov,Владимир Чубаров,M 45 - 49,125,Raw,Yes,B,1964-04-03,120.4,,,,,,152.5,155,,,155,,,,,,155,1
M,Boris Trofimov,Борис Трофимов,O,140,Raw,Yes,B,1972-03-21,137.95,,,,,,210,,,,210,,,,,,210,3
M,Aleksandr Semenov,Александр Семенов,O,140,Raw,Yes,B,1966-08-21,136.7,,,,,,200,,,,200,,,,,,200,4
M,Roman Marachev,Роман Марачев,O,140,Raw,Yes,B,1978-05-16,136.9,,,,,,190,-202.5,-202.5,,190,,,,,,190,5
M,Boris Trofimov,Борис Трофимов,M 40 - 44,140,Raw,Yes,B,1972-03-21,137.95,,,,,,205,210,-215,,210,,,,,,210,2
M,Sergey Kozlenko,Сергей Козленко,M 40 - 44,140,Raw,Yes,B,1970-03-26,128.3,,,,,,190,-200,-200,,190,,,,,,190,3
M,Aleksandr Semenov,Александр Семенов,M 45 - 49,140,Raw,Yes,B,1966-08-21,136.7,,,,,,190,200,-210,,200,,,,,,200,1
M,Roman Mishurenkov,Роман Мишуренков,O,140+,Raw,Yes,B,1982-02-16,146.35,,,,,,192.5,202.5,210,,210,,,,,,210,1
M,Stanislav Karpov,Станислав Карпов,M 40 - 44,140+,Raw,Yes,B,1971-04-07,156.2,,,,,,187.5,192.5,200,,200,,,,,,200,1
M,Nikolay Savenkov,Николай Савенков,T 18 - 19,67.5,Single-ply,Yes,B,1993-10-29,64.7,,,,,,120,125,127.5,,127.5,,,,,,127.5,1
M,Aleksey Shchipanov,Алексей Щипанов,O,67.5,Single-ply,Yes,B,1980-07-04,67.15,,,,,,125,132.5,-140,,132.5,,,,,,132.5,1
M,Vitaliy Zhukov,Виталий Жуков,J 20 - 23,75,Single-ply,Yes,B,1992-01-29,74.5,,,,,,140,-147.5,-147.5,,140,,,,,,140,2
M,Yuriy Tarbonov,Юрий Тарбонов,O,82.5,Single-ply,Yes,B,1987-11-26,82.1,,,,,,190,200.5,202.5,207.5,202.5,,,,,,202.5,1
M,Denis Dobryanskiy,Денис Добрянский,O,82.5,Single-ply,Yes,B,1977-12-06,82,,,,,,185,-192.5,192.5,,192.5,,,,,,192.5,2
M,Dmitriy Korneev,Дмитрий Корнеев,O,82.5,Single-ply,Yes,B,1987-02-15,81.7,,,,,,-150,150,155,,155,,,,,,155,3
M,Sergey Goncharov,Сергей Гончаров,M 60 - 64,82.5,Single-ply,Yes,B,1952-03-22,81.4,,,,,,110,120,-130,,120,,,,,,120,1
M,Denis Piklyaev,Денис Пикляев,O,90,Single-ply,Yes,B,1981-11-14,88,,,,,,200,212.5,215,,215,,,,,,215,1
M,Anton Sosunov,Антон Сосунов,O,90,Single-ply,Yes,B,1980-12-14,85.5,,,,,,157.5,-165,-165,,157.5,,,,,,157.5,3
M,Igor Rachkov,Игорь Рачков,M 45 - 49,90,Single-ply,Yes,B,1965-03-06,86.9,,,,,,-140,140,150,,150,,,,,,150,1
M,Anton Shilov,Антон Шилов,O,100,Single-ply,Yes,B,1988-09-28,94.6,,,,,,140,162.5,-167.5,,162.5,,,,,,162.5,3
M,Aleksandr Klochikhin,Александр Клочихин,O,100,Single-ply,Yes,B,1977-01-13,90.7,,,,,,-200,-200,-200,,,,,,,,,DQ
M,Oleg Mironov,Олег Миронов,M 40 - 44,100,Single-ply,Yes,B,1973-01-12,98,,,,,,130,140,150,,150,,,,,,150,1
M,Natalya Zagrebina,Наталья Загребина,O,67.5,Multi-ply,Yes,B,1977-10-29,63,,,,,,80,-87.5,-87.5,,80,,,,,,80,2
M,Aleksandr Fyodorov,Александр Фёдоров,O,67.5,Multi-ply,Yes,B,1976-10-14,67.1,,,,,,130,137.5,142.5,,142.5,,,,,,142.5,1
M,Denis Dobryanskiy,Денис Добрянский,O,82.5,Multi-ply,Yes,B,1977-12-06,82,,,,,,-190,-200,-210,,,,,,,,,DQ
M,Aleksandr Shabrov,Александр Шабров,J 20 - 23,90,Multi-ply,Yes,B,1991-02-07,86.8,,,,,,-175,-175,-185,,,,,,,,,DQ
F,Anna Kucherova,Анна Кучерова,O,44,Raw,Yes,SBD,1988-05-04,41.4,45,50,-55,,50,30,-32.5,-35,,30,50,55,-65,,55,135,1
F,Yuliya Semina,Юлия Семина,T 18 - 19,52,Raw,Yes,SBD,1994-12-11,48.8,50,55,60,,60,40,-45,-45,,40,55,60,70,,70,170,1
F,Evgeniya Ryzhkova,Евгения Рыжкова,J 20 - 23,52,Raw,Yes,SBD,1989-05-20,50.7,-60,60,70,,70,35,37.5,40,,40,65,75,80,,80,190,1
F,Tatyana Grafova,Татьяна Графова,O,52,Raw,Yes,SBD,1981-11-09,50.7,75,77.5,80,,80,42.5,-50,50,,50,105,107.5,112.5,,112.5,242.5,1
F,Arina Aleksina,Арина Алексина,M 40 - 44,52,Raw,Yes,SBD,1972-03-16,51.9,55,60,-65,,60,35,40,-42.5,,40,70,80,85,,85,185,1
F,Alyona Sotnikova,Алёна Сотникова,J 20 - 23,56,Raw,Yes,SBD,1989-08-28,55.7,85,95,-100,,95,50,60,-62.5,,60,80,95,-100,,95,250,1
F,Aleksandra Nasonova,Александра Насонова,O,56,Raw,Yes,SBD,1987-10-15,54.7,80,-85,-85,,80,40,45,-47.5,,45,90,95,102.5,,102.5,227.5,1
F,Irina Karpova,Ирина Карпова,J 20 - 23,60,Raw,Yes,SBD,1989-12-01,56.7,85,90,95,,95,50,55,-57.5,,55,90,100,105,,105,255,1
F,Anna Kozhukhar,Анна Кожухарь,J 20 - 23,60,Raw,Yes,SBD,1990-10-29,59,-90,-90,90,,90,45,-50,50,,50,90,100,107.5,,107.5,247.5,2
F,Tatyana Ukhlina,Татьяна Ухлина,O,60,Raw,Yes,SBD,1971-07-19,57.7,105,110,115,,115,55,60,62.5,,62.5,-105,110,117.5,,117.5,295,1
F,Natalya Sopkina,Наталья Сопкина,O,60,Raw,Yes,SBD,1988-04-07,58.5,75,-80,80,,80,45,-47.5,-47.5,,45,80,-87.5,-87.5,,80,205,2
F,Zukhra Amirzhanova,Зухра Амиржанова,O,60,Raw,Yes,SBD,1984-10-14,58.9,50,55,60,,60,35,37.5,-40,,37.5,-70,-70,-70,,,,DQ
F,Tatyana Ukhlina,Татьяна Ухлина,M 40 - 44,60,Raw,Yes,SBD,1971-07-19,57.7,105,110,115,,115,55,60,62.5,,62.5,-105,110,117.5,,117.5,295,1
F,Mariya Voronina,Мария Воронина,M 40 - 44,67.5,Raw,Yes,SBD,1972-10-21,61.1,82.5,90,,,90,50,55,-57.5,,55,-105,105,-112.5,,105,250,1
F,Ekaterina Mamicheva,Екатерина Мамичева,O,75,Raw,Yes,SBD,1979-02-19,73.5,80,87.5,95,,95,52.5,60,-62.5,,60,100,120,,,120,275,2
F,Elena Davydova,Елена Давыдова,O,75,Raw,Yes,SBD,1973-12-29,74.2,80,-85,85,,85,-52.5,52.5,-55,,52.5,110,115,-117.5,,115,252.5,3
F,Marina Sinotova,Марина Синотова,O,75,Raw,Yes,SBD,1988-12-31,69.2,85,-95,-95,,85,45,55,-65,,55,75,-85,90,,90,230,4
F,Alla Pugovkina,Алла Пуговкина,O,82.5,Raw,Yes,SBD,1975-12-12,79.2,115,-120,-122.5,,115,85,90,92.5,,92.5,137.5,145,-150,,145,352.5,1
F,Irina Yaroshenko,Ирина Ярошенко,O,90+,Raw,Yes,SBD,1986-12-04,106,180,190,200,,200,105,115,-120,,115,205,230,245,,245,560,1
M,Evgeniy Pleshkov,Евгений Плешков,T 16-17,56,Raw,Yes,SBD,1995-12-13,55.2,80,85,90,,90,-55,-60,60,,60,110,122.5,132.5,,132.5,282.5,1
M,Aleksandr Bubnov,Александр Бубнов,T 16-17,60,Raw,Yes,SBD,1996-08-30,58.8,80,85,90,,90,-65,65,70,,70,95,102.5,107.5,,107.5,267.5,1
M,Konstantin Umnov,Константин Умнов,J 20 - 23,60,Raw,Yes,SBD,1990-12-08,60,-80,-90,90,,90,85,-95,-97.5,,85,130,150,-157.5,,150,325,1
M,Mikhail Elistratov,Михаил Елистратов,T 16-17,67.5,Raw,Yes,SBD,1996-10-03,67.5,-100,-110,120,,120,-85,-85,-90,,-85,-150,,,,,,DQ
M,Viktor Kulpin,Виктор Кульпин,T 18 - 19,67.5,Raw,Yes,SBD,1993-08-18,65.8,95,-115,-115,,95,75,-87.5,-87.5,,75,115,-137.5,-140,,115,285,1
M,Ruslan Volkov,Руслан Волков,J 20 - 23,67.5,Raw,Yes,SBD,1993-02-18,67,160,-170,-170,,160,115,-120,-120,,115,205,-215,-215,,205,480,1
M,Yuriy Nikitchenko,Юрий Никитченко,O,67.5,Raw,Yes,SBD,1977-06-27,67.45,200,210,-217.5,,210,120,127.5,-130,,127.5,190,200,210,,210,547.5,1
M,Mikhail Vorozhtsov,Михаил Ворожцов,O,67.5,Raw,Yes,SBD,1979-06-03,66,145,155,-160,,155,-125,135,-137.5,,135,-180,190,-200,,190,480,2
M,Vladislav Ataev,Владислав Атаев,O,67.5,Raw,Yes,SBD,1980-08-14,65.65,130,140,150,,150,130,132.5,135,,135,150,160,170,,170,455,3
M,Amiran Dzutsev,Амиран Дзуцев,O,67.5,Raw,Yes,SBD,1986-09-24,66.3,-140,-140,140,,140,110,115,-120,,115,140,150,160,,160,415,4
M,Aleksandr Tolstosheev,Александр Толстошеев,O,67.5,Raw,Yes,SBD,1976-03-27,66.9,100,-120,-125,,100,80,85,-90,,85,120,140,-155,,140,325,5
M,Denis Davydov,Денис Давыдов,T 13-15,75,Raw,Yes,SBD,1997-09-17,71.1,100,105,115,,115,-70,-75,75,,75,120,135,-150,,135,325,1
M,Valeriy Proskurkin,Валерий Проскуркин,J 20 - 23,75,Raw,Yes,SBD,1989-09-21,74.2,155,165,172.5,,172.5,142.5,-147.5,-147.5,,142.5,-210,217.5,225,,225,540,1
M,Nikolay Medved,Николай Медведь,J 20 - 23,75,Raw,Yes,SBD,1989-09-14,73.6,145,155,165,,165,-115,115,120,,120,180,195,202.5,,202.5,487.5,2
M,Dmitriy Denezhkin,Дмитрий Денежкин,J 20 - 23,75,Raw,Yes,SBD,1989-05-25,73.7,-120,-127.5,-127.5,,,,,,,,,,,,,,DQ
M,Igor Bogachev,Игорь Богачев,O,75,Raw,Yes,SBD,1977-08-03,74.8,160,172.5,-185,,172.5,130,137.5,-142.5,,137.5,180,190,-200,,190,500,2
M,Dmitriy Trushko,Дмитрий Трушко,O,75,Raw,Yes,SBD,1989-01-01,72.55,140,147.5,152.5,,152.5,107.5,-112.5,112.5,,112.5,175,185,195,,195,460,4
M,Andrey Terekhov,Андрей Терехов,O,75,Raw,Yes,SBD,1979-12-28,70.9,-150,150,-160,,150,-100,105,110,,110,180,-190,190,,190,450,5
M,Denis Akhmetshin,Денис Ахметшин,O,75,Raw,Yes,SBD,1987-01-07,68.85,-140,140,145,,145,95,102.5,-105,,102.5,140,145,-150,,145,392.5,6
M,Pavel Kolosov,Павел Колосов,O,75,Raw,Yes,SBD,1994-07-27,70.3,125,135,-145,,135,80,-85,-85,,80,140,-150,-150,,140,355,7
M,Vasiliy Polyakov,Василий Поляков,O,75,Raw,Yes,SBD,1987-06-24,72.2,150,160,-170,,160,105,110,115,,115,,,,,,,DQ
M,Vladimir Kulakov,Владимир Кулаков,M 55 - 59,75,Raw,Yes,SBD,1955-12-24,74.4,95,102.5,,,102.5,85,90,,,90,120,127.5,,,127.5,320,1
M,Viktor Popov,Виктор Попов,M 60 - 64,75,Raw,Yes,SBD,1952-07-15,75,-130,130,140,,140,75,82.5,-87.5,,82.5,170,185,190,,190,412.5,1
M,Aliksandr Sorochinskiy,Аликсандр Сорочинский,M 70 - 74,75,Raw,Yes,SBD,1939-01-04,74.4,-125,125,-130,,125,110,115,120,,120,-142.5,142.5,150,,150,395,1
M,Egor Shepelev,Егор Шепелев,T 16-17,82.5,Raw,Yes,SBD,1996-08-10,81.4,100,-120,-120,,100,80,85,-90,,85,110,135,-155,,135,320,1
M,Ruslan Ayzyatullov,Руслан Айзятуллов,J 20 - 23,82.5,Raw,Yes,SBD,1989-07-31,81.4,170,185,-195,,185,130,135,-140,,135,200,215,-225,,215,535,2
M,Vsevolod Petrovskiy,Всеволод Петровский,J 20 - 23,82.5,Raw,Yes,SBD,1991-10-01,79.5,-140,-140,-140,,,,,,,,,,,,,,DQ
M,Aleksandr Kurtsaev,Александр Курцаев,J 20 - 23,82.5,Raw,Yes,SBD,1989-03-29,79.7,-170,-170,-170,,,,,,,,,,,,,,DQ
M,Timur Tkhamokov,Тимур Тхамоков,O,82.5,Raw,Yes,SBD,1982-03-04,81.4,-225,225,-235,,225,135,140,-142.5,,140,250,260,-265,,260,625,1
M,Dmitriy Shelukhin,Дмитрий Шелухин,O,82.5,Raw,Yes,SBD,1985-05-01,81.8,-180,180,195,,195,135,145,150,,150,210,220,230,,230,575,4
M,Rinat Usmanov,Ринат Усманов,O,82.5,Raw,Yes,SBD,1988-07-21,81.5,190,200,-205,,200,117.5,122.5,-125,,122.5,235,245,-255,,245,567.5,5
M,Dmitriy Karpeev,Дмитрий Карпеев,O,82.5,Raw,Yes,SBD,1984-04-24,81.85,182.5,-190,190,,190,130,140,-145,,140,205,-215,,,205,535,7
M,Andrey Karpov,Андрей Карпов,O,82.5,Raw,Yes,SBD,1985-09-12,79.9,160,170,177.5,,177.5,125,132.5,-135,,132.5,170,180,-190,,180,490,8
M,Vadim Tarkhanov,Вадим Тарханов,O,82.5,Raw,Yes,SBD,1983-03-05,81.1,120,130,145,,145,100,-110,,,100,160,170,180,,180,425,9
M,Anton Orlov,Антон Орлов,O,82.5,Raw,Yes,SBD,1984-11-23,80.1,-142.5,-142.5,-142.5,,,,,,,,,,,,,,DQ
M,Evgeniy Zhurkin,Евгений Журкин,M 65 - 69,82.5,Raw,Yes,SBD,1945-02-13,80.95,100,105,-107.5,,105,82.5,85,-87.5,,85,135,147.5,,,147.5,337.5,1
M,Aleksey Moshkov,Алексей Мошков,T 18 - 19,90,Raw,Yes,SBD,1993-10-26,83.6,90,100,-115,,100,65,72.5,-77.5,,72.5,110,-127.5,130,,130,302.5,1
M,Aleksandr Kozlov,Александр Козлов,J 20 - 23,90,Raw,Yes,SBD,1990-02-08,89.8,-180,180,-190,,180,-105,105,-110,,105,200,215,-225,,215,500,3
M,Maksim Terekhov,Максим Терехов,J 20 - 23,90,Raw,Yes,SBD,1989-05-14,89.5,140,150,165,,165,100,110,117.5,,117.5,150,-160,-160,,150,432.5,5
M,Nikolay Malakhov,Николай Малахов,J 20 - 23,90,Raw,Yes,SBD,1991-01-10,87.5,-150,-150,-150,,,,,,,,,,,,,,DQ
M,Nikolay Chayuk,Николай Чаюк,J 20 - 23,90,Raw,Yes,SBD,1990-05-28,87.8,-165,-165,-165,,,,,,,,,,,,,,DQ
M,Sergey Ulyanov,Сергей Ульянов,O,90,Raw,Yes,SBD,1986-10-19,87.6,220,240,-245,,240,155,160,165,,165,260,-275,275,,275,680,2
M,Eldar Mamedov,Эльдар Мамедов,O,90,Raw,Yes,SBD,1985-05-09,88,200,210,217.5,,217.5,145,152.5,-157.5,,152.5,245,260,275,,275,645,4
M,Anton Ilyasov,Антон Илясов,O,90,Raw,Yes,SBD,1988-11-25,89.7,-200,200,-210,,200,130,-135,-135,,130,290,300,-310,,300,630,5
M,Nafal Dadashov,Нафал Дадашов,O,90,Raw,Yes,SBD,1982-10-16,89.8,200,210,-220,,210,150,160,-165,,160,250,-260,260,,260,630,6
M,Aleksandr Shustov,Александр Шустов,O,90,Raw,Yes,SBD,1987-07-07,88.8,200,-220,-220,,200,-130,-130,130,,130,220,230,-240,,230,560,8
M,Ruslan Aliev,Руслан Алиев,O,90,Raw,Yes,SBD,1981-01-05,87.1,170,-185,-190,,170,110,-130,130,,130,185,205,-215,,205,505,10
M,Dmitriy Khaylov,Дмитрий Хайлов,O,90,Raw,Yes,SBD,1983-10-30,88.7,-170,175,-185,,175,110,-115,,,110,-190,200,210,,210,495,11
M,Andrey Pivovar,Андрей Пивовар,O,90,Raw,Yes,SBD,1978-02-28,86.2,170,175,-180,,175,115,120,-122.5,,120,185,190,195,,195,490,12
M,Stanislav Matveev,Станислав Матвеев,O,90,Raw,Yes,SBD,1987-07-10,88.6,115,125,-130,,125,92.5,95,97.5,,97.5,150,155,162.5,,162.5,385,13
M,Andrey Kolesnikov,Андрей Колесников,O,90,Raw,Yes,SBD,1988-09-01,85,132.5,137.5,-140,,137.5,87.5,92.5,-97.5,,92.5,145,152.5,,,152.5,382.5,14
M,Vitaliy Privezentsev,Виталий Привезенцев,O,90,Raw,Yes,SBD,1979-04-26,88.85,130,140,-145,,140,85,95,100,,100,120,140,-150,,140,380,15
M,Andrey Terekhov,Андрей Терехов,O,90,Raw,Yes,SBD,1979-12-28,89.5,-140,,,,-140,-100,,,,,-140,,,,,,DQ
M,Aleksandr Silantev,Александр Силантьев,O,90,Raw,Yes,SBD,1980-05-15,90,-185,-185,185,,185,-135,-135,,,,,,,,,,DQ
M,Konstantin Zhekov,Константин Жеков,M 40 - 44,90,Raw,Yes,SBD,1972-10-26,87.3,160,167.5,172.5,,172.5,125,130,132.5,,132.5,205,212.5,217.5,,217.5,522.5,2
M,Sergey Kundus,Сергей Кундус,M 55 - 59,90,Raw,Yes,SBD,1953-10-26,85.85,140,145,,,145,110,-115,,,110,-180,180,,,180,435,1
M,Stanislav Zhuravlev,Станислав Журавлев,M 70 - 74,90,Raw,Yes,SBD,1939-08-17,84.8,140,145,150,,150,90,95,,,95,-140,150,160,,160,405,1
M,Nikolay Novikov,Николай Новиков,M 70 - 74,90,Raw,Yes,SBD,1938-06-18,87.6,-105,105,110,,110,105,-110,110,,110,140,150,,,150,370,3
M,Stanislav Sadulaev,Станислав Садулаев,T 16-17,100,Raw,Yes,SBD,1996-03-29,96.5,107.5,115,-120,,115,-97.5,97.5,-105,,97.5,140,145,-160,,145,357.5,1
M,Fedor Vershinin,Федор Вершинин,J 20 - 23,100,Raw,Yes,SBD,1992-12-03,95.7,-180,190,200,,200,150,160,-170,,160,200,210,-215,,210,570,1
M,Artem Bezpalenko,Артем Безпаленко,J 20 - 23,100,Raw,Yes,SBD,1990-03-21,98.8,-160,160,180,,180,130,140,145,,145,-220,220,-245,,220,545,2
M,Sergey Shelenkov,Сергей Шеленков,J 20 - 23,100,Raw,Yes,SBD,1989-04-28,97.75,155,165,170,,170,125,130,132.5,,132.5,190,200,210,,210,512.5,3
M,Dmitriy Biletskiy,Дмитрий Билецкий,J 20 - 23,100,Raw,Yes,SBD,1991-02-06,91.5,-130,130,140,,140,-110,-120,120,,120,160,170,-180,,170,430,4
M,Konstantin Morozov,Константин Морозов,O,100,Raw,Yes,SBD,1984-10-23,99.1,-210,210,220,,220,180,190,-195,,190,300,320,-330,,320,730,1
M,Andrey Shevchenko,Андрей Шевченко,O,100,Raw,Yes,SBD,1986-10-17,95.9,205,-210,,,205,150,157.5,162.5,,162.5,250,260,-270,,260,627.5,4
M,Vladimir Konyagin,Владимир Конягин,O,100,Raw,Yes,SBD,1984-08-02,97.9,-180,190,195,,195,142.5,150,-152.5,,150,225,235,245,,245,590,5
M,Sergey Puzanov,Сергей Пузанов,O,100,Raw,Yes,SBD,1974-04-23,91.5,-150,,,,,,,,,,,,,,,,DQ
M,Aleksandr Mishustin,Александр Мишустин,M 45 - 49,100,Raw,Yes,SBD,1964-11-25,98.6,160,170,177.5,,177.5,130,-140,145,,145,175,195,-205,,195,517.5,1
M,Nikita Vinogradov,Никита Виноградов,T 18 - 19,110,Raw,Yes,SBD,1993-06-06,108.4,220,-227.5,-227.5,,220,-145,145,-152.5,,145,245,-265,265,,265,630,1
M,Vladimir Muravev,Владимир Муравьев,J 20 - 23,110,Raw,Yes,SBD,1990-12-20,102.1,210,-220,220,,220,120,125,130,,130,230,250,-255,,250,600,1
M,Aleksandr Kuznetsov,Александр Кузнецов,O,110,Raw,Yes,SBD,1979-06-20,109.3,210,220,225,,225,195,205,-210,,205,230,240,-245,,240,670,5
M,Dmitriy Pavlovskiy,Дмитрий Павловский,O,110,Raw,Yes,SBD,1988-02-01,101.5,190,205,215,,215,140,150,-157.5,,150,240,260,-270,,260,625,7
M,Aleksandr Belikov,Александр Беликов,O,110,Raw,Yes,SBD,1974-05-31,106.8,190,-200,200,,200,140,150,-155,,150,210,220,230,,230,580,8
M,Dmitriy Maslov,Дмитрий Маслов,O,110,Raw,Yes,SBD,1986-03-16,105.1,190,-200,200,,200,-135,140,145,,145,215,230,,,230,575,9
M,Aleksandr Titov,Александр Титов,O,110,Raw,Yes,SBD,1977-09-03,105,170,180,190,,190,-125,125,130,,130,210,220,230,,230,550,10
M,Andrey Shishkin,Андрей Шишкин,M 50 - 54,110,Raw,Yes,SBD,1962-09-02,109.2,175,200,,,200,120,135,145,,145,175,205,,,205,550,1
M,Vitaliy Mashkevich,Виталий Машкевич,J 20 - 23,125,Raw,Yes,SBD,1989-08-18,112.2,210,220,-225,,220,165,175,-182.5,,175,200,215,225,,225,620,2
M,Evgeniy Baranov,Евгений Баранов,O,125,Raw,Yes,SBD,1982-07-28,124.4,250,260,270,,270,180,190,195,,195,280,295,305,,305,770,1
M,Andrey Shmorgun,Андрей Шморгун,O,125,Raw,Yes,SBD,1984-11-20,122.45,-215,-225,225,,225,170,180,-187.5,,180,250,270,-280,,270,675,3
M,Kirill Bakarinov,Кирилл Бакаринов,O,125,Raw,Yes,SBD,1987-06-26,117.6,-210,225,-250,,225,140,-155,155,,155,230,240,-250,,240,620,4
M,Evgeniy Yushchenko,Евгений Ющенко,O,125,Raw,Yes,SBD,1985-07-11,120.1,175,185,190,,190,-167.5,167.5,-175,,167.5,200,215,225,,225,582.5,5
M,Igor Ziganchin,Игорь Зиганчин,M 50 - 54,125,Raw,Yes,SBD,1960-06-23,119.2,240,250,260,,260,185,192.5,-195,,192.5,250,270,280,,280,732.5,1
M,Igor Ivchenkov,Игорь Ивченков,O,140,Raw,Yes,SBD,1980-04-23,126.4,240,255,265,,265,180,190,200,,200,240,250,,,250,715,1
M,Igor Karpunin,Игорь Карпунин,O,140,Raw,Yes,SBD,1978-05-19,127.8,235,250,,,250,175,187.5,190,,190,240,267.5,-275,,267.5,,DD
F,Světlana Veselova,Светлана Веселова,O,60,Single-ply,Yes,SBD,1987-09-19,57.1,90,-100,105,,105,60,70,-75,,70,110,120,-130,,120,295,1
M,Maksim Tovstonog,Максим Товстоног,O,75,Single-ply,Yes,SBD,1983-06-05,73.15,190,205,-210,,205,155,162.5,-167.5,,162.5,200,212.5,217.5,225,217.5,585,1
M,Pavel Zubkov,Павел Зубков,O,75,Single-ply,Yes,SBD,1985-12-22,72.5,190,200,205,,205,-135,135,-140,,135,220,232.5,-240,,232.5,572.5,2
M,Sergey Dolnikov,Сергей Дольников,O,75,Single-ply,Yes,SBD,1986-05-05,72.5,-190,190,-200,,190,-125,125,135,,135,160,190,205,,205,530,3
M,Vladimir Kulakov,Владимир Кулаков,O,75,Single-ply,Yes,SBD,1955-12-24,74.4,105,,,,105,85,,,,85,125,,,,125,315,4
M,Vladimir Kulakov,Владимир Кулаков,M 55 - 59,75,Single-ply,Yes,SBD,1955-12-24,74.4,105,,,,105,85,,,,85,125,,,,125,315,1
M,Danil Vafin,Данил Вафин,T 16-17,82.5,Single-ply,Yes,SBD,1995-07-27,82.5,-190,-190,190,,190,90,,,,90,180,190,200,,200,480,3
M,Rinat Usmanov,Ринат Усманов,O,82.5,Single-ply,Yes,SBD,1988-07-21,81.45,-190,,,,,,,,,,,,,,,,DQ
M,Sergey Polyakov,Сергей Поляков,M 40 - 44,90,Single-ply,Yes,SBD,1972-02-14,89.6,180,-190,190,,190,130,140,-145,,140,170,185,195,,195,525,1
M,Aleksandr Kalinin,Александр Калинин,O,100,Single-ply,Yes,SBD,1975-05-07,99,-190,190,-225,,190,-135,135,-157.5,,135,200,220,245,,245,570,2
M,Evgeniy Pivovarov,Евгений Пивоваров,O,90,Multi-ply,Yes,SBD,1988-09-01,86.6,260,-275,275,,275,195,-205,-205,,195,260,270,-280,,270,740,1
M,Nikolay Novikov,Николай Новиков,M 70 - 74,90,Multi-ply,Yes,SBD,1938-06-18,87.7,100,,,,100,100,,,,100,140,,,,140,340,1
M,Ilya Filippov,Илья Филиппов,J 20 - 23,100,Multi-ply,Yes,SBD,1993-01-24,97.5,-200,-200,200,,200,160,-165,165,,165,240,-260,-260,,240,605,1
M,Aleksandr Krovikov,Александр Кровиков,M 50 - 54,100,Multi-ply,Yes,SBD,1961-09-26,93.35,230,245,-255,,245,160,170,175,,175,240,-260,-260,,240,660,1
M,Vasiliy Voropaev,Василий Воропаев,M 55 - 59,110,Multi-ply,Yes,SBD,1956-11-19,101.5,-200,200,,,200,100,-110,,,100,200,210,,,210,510,1
F,Lyudmila Lemesheva,Людмила Лемешева,T 18 - 19,48,Raw,Yes,D,1995-01-05,48,,,,,,,,,,,-50,50,,,50,50,1
F,Tatyana Lazukova,Татьяна Лазукова,M 45 - 49,52,Raw,Yes,D,1963-08-13,50.4,,,,,,,,,,,70,87.5,-100,,87.5,87.5,1
F,Mariya Lapshova,Мария Лапшова,J 20 - 23,56,Raw,Yes,D,1991-03-19,54,,,,,,,,,,,115,-122.5,122.5,,122.5,122.5,1
F,Tatyana Ukhlina,Татьяна Ухлина,O,60,Raw,Yes,D,1971-07-19,57.2,,,,,,,,,,,120,,,,120,120,1
F,Anastasiya Mayboroda,Анастасия Майборода,O,60,Raw,Yes,D,1987-10-28,59.3,,,,,,,,,,,90,-105,-110,,90,90,2
F,Tatyana Ukhlina,Татьяна Ухлина,M 40 - 44,60,Raw,Yes,D,1971-07-19,57.2,,,,,,,,,,,110,115,120,,120,120,1
F,Galina Kalinina,Галина Калинина,O,75,Raw,Yes,D,1981-10-29,74,,,,,,,,,,,145,152.5,-157.5,,152.5,152.5,1
F,Ekaterina Mamicheva,Екатерина Мамичева,O,75,Raw,Yes,D,1979-02-19,74.5,,,,,,,,,,,127.5,147.5,-155,,147.5,147.5,2
F,Alesya Semenina,Алеся Семенина,O,75,Raw,Yes,D,1988-01-21,74.2,,,,,,,,,,,90,-110,110,,110,110,3
M,Vyacheslav Meshkov,Вячеслав Мешков,T 16-17,60,Raw,Yes,D,1995-07-25,58.2,,,,,,,,,,,155,175,-180,,175,175,1
M,Igor Puzin,Игорь Пузин,T 16-17,67.5,Raw,Yes,D,1995-08-07,65,,,,,,,,,,,-135,-135,-135,,,,DQ
M,Ruslan Volkov,Руслан Волков,J 20 - 23,67.5,Raw,Yes,D,1993-02-18,67.1,,,,,,,,,,,190,200,205,,205,205,1
M,Andrey Dezhin,Андрей Дежин,J 20 - 23,67.5,Raw,Yes,D,1992-07-30,67.4,,,,,,,,,,,150,-165,-165,,150,150,2
M,Andrey Markovchin,Андрей Марковчин,O,67.5,Raw,Yes,D,1987-09-04,64.2,,,,,,,,,,,150,165,170,,170,170,1
M,Maksim Popov #9,Максим Попов,O,67.5,Raw,Yes,D,1988-05-24,66.1,,,,,,,,,,,155,-165,-165,,155,155,2
M,Georgiy Dubrovin,Георгий Дубровин,T 13-15,75,Raw,Yes,D,1997-11-12,72.95,,,,,,,,,,,185,202.5,-205,,202.5,202.5,1
M,Ivan Klimenko,Иван Клименко,T 16-17,75,Raw,Yes,D,1995-03-06,69.1,,,,,,,,,,,190,-202.5,202.5,,202.5,202.5,1
M,Sergey Delianidi,Сергей Делианиди,T 16-17,75,Raw,Yes,D,1996-11-26,71.7,,,,,,,,,,,182.5,192.5,-202.5,,192.5,192.5,2
M,Andrey Muravev,Андрей Муравьев,T 18 - 19,75,Raw,Yes,D,1994-03-20,74.3,,,,,,,,,,,205,215,-232.5,,215,215,1
M,Pavel Barkanov,Павел Барканов,T 18 - 19,75,Raw,Yes,D,1993-07-03,73.5,,,,,,,,,,,170,190,202.5,,202.5,202.5,2
M,Semen Imanov,Семен Иманов,J 20 - 23,75,Raw,Yes,D,1989-09-20,74.8,,,,,,,,,,,190,205,215,,215,215,1
M,Gennadiy Fedotov,Геннадий Федотов,J 20 - 23,75,Raw,Yes,D,1990-01-08,72.8,,,,,,,,,,,177.5,180,190,,190,190,2
M,Anton Nikishev,Антон Никишев,J 20 - 23,75,Raw,Yes,D,1991-01-02,68.9,,,,,,,,,,,177.5,182.5,187.5,,187.5,187.5,3
M,Dmitriy Gordeev,Дмитрий Гордеев,J 20 - 23,75,Raw,Yes,D,1992-04-21,70,,,,,,,,,,,170,-180,-185,,170,170,4
M,Mikhail Charov,Михаил Чаров,O,75,Raw,Yes,D,1989-02-01,73.9,,,,,,,,,,,202.5,210,220,,220,220,1
M,Aleksey Petrov,Алексей Петров,O,75,Raw,Yes,D,1978-02-28,73.6,,,,,,,,,,,125,145,155,,155,155,2
M,Vladimir Kulakov,Владимир Кулаков,O,75,Raw,Yes,D,1955-12-24,74.7,,,,,,,,,,,120,130,,,130,130,4
M,Georgiy Bondar,Георгий Бондарь,O,75,Raw,Yes,D,1982-12-22,71.9,,,,,,,,,,,-170,-170,-170,,,,DQ
M,Vladimir Kulakov,Владимир Кулаков,M 55 - 59,75,Raw,Yes,D,1955-12-24,74.7,,,,,,,,,,,120,130,,,130,130,1
M,Viktor Popov,Виктор Попов,M 60 - 64,75,Raw,Yes,D,1952-07-15,75,,,,,,,,,,,175,185,192.5,,192.5,192.5,1
M,Oleg Frolov,Олег Фролов,T 18 - 19,82.5,Raw,Yes,D,1993-09-10,80.3,,,,,,,,,,,-200,-200,200,,200,200,1
M,Aleksandr Zashchepin,Александр Защепин,T 18 - 19,82.5,Raw,Yes,D,1993-09-22,77.8,,,,,,,,,,,170,185,-190,,185,185,2
M,Andrey Ayvazyan,Андрей Айвазян,T 18 - 19,82.5,Raw,Yes,D,1994-10-02,81.9,,,,,,,,,,,135,145,-150,,145,145,3
M,Daniil Evtushenko,Даниил Евтушенко,J 20 - 23,82.5,Raw,Yes,D,1989-09-19,80.6,,,,,,,,,,,185,195,200,,200,200,1
M,Vyacheslav Butenko,Вячеслав Бутенко,J 20 - 23,82.5,Raw,Yes,D,1991-06-06,77.3,,,,,,,,,,,175,185,-195,,185,185,2
M,Vladimir Pak,Владимир Пак,O,82.5,Raw,Yes,D,1982-09-13,80.5,,,,,,,,,,,275,295,-305,,295,295,1
M,Aleksandr Zhigulin,Александр Жигулин,O,82.5,Raw,Yes,D,1986-12-27,76.7,,,,,,,,,,,240,245,250,,250,250,3
M,Aleksandr Mozzhukhin,Александр Мозжухин,O,82.5,Raw,Yes,D,1984-04-04,81.6,,,,,,,,,,,215,220,225,,225,225,4
M,Maksim Yakovlev,Максим Яковлев,O,82.5,Raw,Yes,D,1987-09-25,80.9,,,,,,,,,,,200,215,222.5,,222.5,222.5,5
M,Vladislav Girko,Владислав Гирко,O,82.5,Raw,Yes,D,1987-09-19,80,,,,,,,,,,,200,215,220,,220,220,6
M,Sergey Stepanov,Сергей Степанов,O,82.5,Raw,Yes,D,1988-06-01,78.1,,,,,,,,,,,185,200,215,,215,215,7
M,Sergey Ilyukhin,Сергей Илюхин,O,82.5,Raw,Yes,D,1981-09-19,81.8,,,,,,,,,,,200,215,-222.5,,215,215,8
M,Yuriy Kuznetsov,Юрий Кузнецов,O,82.5,Raw,Yes,D,1987-08-08,80,,,,,,,,,,,185,195,-215,,195,195,9
M,Ivan Mikryukov,Иван Микрюков,O,82.5,Raw,Yes,D,1987-09-30,79.7,,,,,,,,,,,170,185,190,,190,190,10
M,Dmitriy Eshchenko,Дмитрий Ещенко,O,82.5,Raw,Yes,D,1984-09-01,82.5,,,,,,,,,,,170,185,190,,190,190,11
M,Kirill Marakshin,Кирилл Маракшин,O,82.5,Raw,Yes,D,1988-03-18,80.8,,,,,,,,,,,175,185,-190,,185,185,12
M,Anton Orlov,Антон Орлов,O,82.5,Raw,Yes,D,1984-11-23,81.3,,,,,,,,,,,180,185,-195,,185,185,13
M,Yuriy Ermoshin,Юрий Ермошин,O,82.5,Raw,Yes,D,1987-04-29,81.5,,,,,,,,,,,170,185,-200,,185,185,14
M,Valentin Skokin,Валентин Скокин,O,82.5,Raw,Yes,D,1987-06-23,82,,,,,,,,,,,170,185,-195,,185,185,15
M,Viktor Skokin,Виктор Скокин,M 55 - 59,82.5,Raw,Yes,D,1957-06-20,80.65,,,,,,,,,,,227.5,235,-240,,235,235,1
M,Vyacheslav Chevordaev,Вячеслав Чевордаев,M 60 - 64,82.5,Raw,Yes,D,1948-04-06,80.2,,,,,,,,,,,215,-220,-220,,215,215,1
M,Zhurkin,Журкин,M 65 - 69,82.5,Raw,Yes,D,1945-02-13,80,,,,,,,,,,,135,145,155,,155,155,1
M,Andrey Zamalin,Андрей Замалин,J 20 - 23,90,Raw,Yes,D,1990-07-02,85.6,,,,,,,,,,,230,250,,,250,250,1
M,Aleksey Chichkanov,Алексей Чичканов,J 20 - 23,90,Raw,Yes,D,1992-07-23,85.9,,,,,,,,,,,210,-222.5,-222.5,,210,210,3
M,Vasiliy Kopev,Василий Копьев,J 20 - 23,90,Raw,Yes,D,1991-02-08,84.4,,,,,,,,,,,200,-205,205,,205,205,4
M,Nikolay Malakhov,Николай Малахов,J 20 - 23,90,Raw,Yes,D,1991-01-10,88.2,,,,,,,,,,,175,195,205,,205,205,5
M,Ilya Chernov,Илья Чернов,J 20 - 23,90,Raw,Yes,D,1992-07-11,89.4,,,,,,,,,,,-195,195,-205,,195,195,6
M,Eduard Kanevskiy,Эдуард Каневский,O,90,Raw,Yes,D,1983-11-24,86.5,,,,,,,,,,,180,195,210,,210,210,1
M,Aleksandr Lebedev,Александр Лебедев,O,90,Raw,Yes,D,1986-03-17,88.7,,,,,,,,,,,-185,-195,195,,195,195,2
M,Aleksey Cherepkov,Алексей Черепков,O,90,Raw,Yes,D,1988-06-09,85.4,,,,,,,,,,,150,170,-185,,170,170,4
M,Kirill Emelyanov,Кирилл Емельянов,O,90,Raw,Yes,D,1986-06-02,88.6,,,,,,,,,,,-185,,,,,,DQ
M,Leonid Shpynov,Леонид Шпынов,O,90,Raw,Yes,D,1987-09-01,88.7,,,,,,,,,,,-195,,,,,,DQ
M,Anton Ilyasov,Антон Илясов,O,90,Raw,Yes,D,1988-11-25,89.7,,,,,,,,,,,-290,-290,-290,,,,DQ
M,Vadim Zaytsev,Вадим Зайцев,M 50 - 54,90,Raw,Yes,D,1960-08-26,89.2,,,,,,,,,,,210,230,240,,240,240,1
M,Sergey Gramotkin,Сергей Грамоткин,M 60 - 64,90,Raw,Yes,D,1952-05-23,88.2,,,,,,,,,,,-170,,,,,,DQ
M,Sergey Semchenko,Сергей Семченко,T 18 - 19,100,Raw,Yes,D,1993-06-09,96.3,,,,,,,,,,,190,202.5,210,,210,210,1
M,Konstantin Kozlov,Константин Козлов,J 20 - 23,100,Raw,Yes,D,1990-01-03,99.5,,,,,,,,,,,-170,,,,,,DQ
M,Mikhail Dubrovin,Михаил Дубровин,O,100,Raw,Yes,D,1977-07-29,98.9,,,,,,,,,,,-280,280,-290,,280,280,1
M,Sergey Shukelovich,Сергей Шукелович,O,100,Raw,Yes,D,1984-02-07,96.5,,,,,,,,,,,210,-225,-225,,210,210,4
M,Ivan Slavinskiy,Иван Славинский,O,100,Raw,Yes,D,1983-12-08,91.2,,,,,,,,,,,170,-185,190,,190,190,5
M,Aleksandr Smirnov,Александр Смирнов,O,100,Raw,Yes,D,1974-04-21,100,,,,,,,,,,,-195,,,,,,DQ
M,Pavel Sapronov,Павел Сапронов,M 40 - 44,100,Raw,Yes,D,1969-02-03,98.3,,,,,,,,,,,115,125,130,,130,130,1
M,Ruslan Kulebyakin,Руслан Кулебякин,J 20 - 23,110,Raw,Yes,D,1991-02-26,102.3,,,,,,,,,,,220,235,245,,245,245,3
M,Nikolay Shanin,Николай Шанин,J 20 - 23,110,Raw,Yes,D,1989-12-22,104.9,,,,,,,,,,,242.5,-250,-250,,242.5,242.5,4
M,Mikhail Grinko,Михаил Гринько,O,110,Raw,Yes,D,1978-02-04,102.8,,,,,,,,,,,240,260,-270,,260,260,2
M,Dmitriy Timofeev,Дмитрий Тимофеев,O,110,Raw,Yes,D,1977-09-19,109.2,,,,,,,,,,,220,240,252.5,,252.5,252.5,3
M,Pavel Shtatnov,Павел Штатнов,O,110,Raw,Yes,D,1980-12-27,101.2,,,,,,,,,,,240,250,-260,,250,250,4
M,Artyom Artyukhov,Артём Артюхов,O,110,Raw,Yes,D,1987-04-30,106.2,,,,,,,,,,,215,225,-240,,225,225,5
M,Dmitriy Kobets,Дмитрий Кобец,O,110,Raw,Yes,D,1976-11-04,110,,,,,,,,,,,215,225,-240,,225,225,6
M,Nikolay Antyukhov,Николай Антюхов,O,110,Raw,Yes,D,1985-10-04,107.6,,,,,,,,,,,-200,207.5,-210,,207.5,207.5,7
M,Andrey Shmorgun,Андрей Шморгун,O,125,Raw,Yes,D,1984-11-20,122.9,,,,,,,,,,,250,-267.5,-267.5,,250,250,3
M,Aleksandr Yukhanov,Александр Юханов,O,125,Raw,Yes,D,1985-12-14,121.6,,,,,,,,,,,230,245,-250,,245,245,4
M,Aleksandr Denezhkin,Александр Денежкин,O,125,Raw,Yes,D,1982-06-25,117.5,,,,,,,,,,,210,220,-230,,220,220,5
M,Andrey Shishkin,Андрей Шишкин,M 50 - 54,125,Raw,Yes,D,1962-09-02,112.8,,,,,,,,,,,-175,185,225,,225,225,1
M,Aleksandr Petrov,Александр Петров,O,75,Single-ply,Yes,D,1990-12-27,72.1,,,,,,,,,,,190,205,-215,,205,205,1
M,Vladimir Kulakov,Владимир Кулаков,O,75,Single-ply,Yes,D,1955-12-24,74.7,,,,,,,,,,,125,,,,125,125,2
M,Vladimir Kulakov,Владимир Кулаков,M 55 - 59,75,Single-ply,Yes,D,1955-12-24,74.7,,,,,,,,,,,125,,,,125,125,1
M,Vyacheslav Varlamov,Вячеслав Варламов,O,82.5,Single-ply,Yes,D,1985-03-18,82.3,,,,,,,,,,,220,235,250,,250,250,1
M,Petr Samko,Петр Самко,O,90,Single-ply,Yes,D,1987-11-12,88.7,,,,,,,,,,,170,190,200,,200,200,2
M,Konstantin Kozlov,Константин Козлов,J 20 - 23,100,Single-ply,Yes,D,1990-01-03,99.5,,,,,,,,,,,170,190,-200,,190,190,1
M,Roman Zverev,Роман Зверев,O,100,Single-ply,Yes,D,1988-05-15,95.8,,,,,,,,,,,270,300,310,,310,310,1
F,Olga Novikova,Ольга Новикова,O,56,Raw,No,B,1978-07-29,53.3,,,,,,30,35,37.5,,37.5,,,,,,37.5,3
F,Elena Evdokimova,Елена Евдокимова,M 40 - 44,56,Raw,No,B,1970-05-06,55.3,,,,,,35,37.5,-40,,37.5,,,,,,37.5,1
F,Ekaterina Yunak,Екатерина Юнак,O,60,Raw,No,B,1986-11-24,58.1,,,,,,32.5,37.5,40,,40,,,,,,40,3
F,Tatyana Sitnikova,Татьяна Ситникова,O,67.5,Raw,No,B,1982-11-09,66,,,,,,56,60,,,60,,,,,,60,2
F,Alina Fadeeva,Алина Фадеева,O,75,Raw,No,B,1988-09-09,75,,,,,,70,75,-82.5,,75,,,,,,75,1
F,Marina Moroz,Марина Мороз,O,75,Raw,No,B,1970-01-21,75,,,,,,-150,,,,,,,,,,,DQ
F,Marina Moroz,Марина Мороз,M 40 - 44,75,Raw,No,B,1970-01-21,70.8,,,,,,-90,95,-100,,95,,,,,,95,1
M,Fayzillo Alimov,Файзилло Алимов,J 20 - 23,52,Raw,No,B,1992-04-28,52,,,,,,-60,60,72.5,,72.5,,,,,,72.5,1
M,Maksim Khersonskiy,Максим Херсонский,T 16-17,56,Raw,No,B,1996-07-08,55.5,,,,,,-60,60,65,,65,,,,,,65,1
M,Igor Meshcheryakov,Игорь Мещеряков,T 16-17,60,Raw,No,B,1996-10-14,58.3,,,,,,65,-70,-70,,65,,,,,,65,4
M,Andrey Tikhomirov,Андрей Тихомиров,T 16-17,67.5,Raw,No,B,1996-04-10,66,,,,,,-100,-100,,,,,,,,,,DQ
M,Nikolay Chuykov,Николай Чуйков,O,67.5,Raw,No,B,1976-12-03,67.5,,,,,,137.5,-142.5,-142.5,,137.5,,,,,,137.5,1
M,Timur Abrosimov,Тимур Абросимов,T 18 - 19,75,Raw,No,B,1993-10-13,70.3,,,,,,110,122.5,127.5,,127.5,,,,,,127.5,1
M,Nikolay Gorshkov,Николай Горшков,T 18 - 19,75,Raw,No,B,1994-08-12,74.8,,,,,,110,115,-125,,115,,,,,,115,2
M,Dmitriy Kazakov,Дмитрий Казаков,J 20 - 23,75,Raw,No,B,1990-09-12,75,,,,,,135,142.5,147.5,,147.5,,,,,,147.5,2
M,Maksim Rudakov,Максим Рудаков,J 20 - 23,75,Raw,No,B,1991-03-12,71.9,,,,,,110,115,-117.5,,115,,,,,,115,9
M,Ilya Klimenko,Илья Клименко,J 20 - 23,75,Raw,No,B,1992-10-20,73.3,,,,,,-120,,,,,,,,,,,DQ
M,Pavel Zabaznov,Павел Забазнов,O,75,Raw,No,B,1987-02-18,74.1,,,,,,150,152.5,157.5,,157.5,,,,,,157.5,2
M,Ivan Karangin,Иван Карангин,O,75,Raw,No,B,1985-09-17,73.55,,,,,,147.5,-155,-157.5,,147.5,,,,,,147.5,4
M,Dmitriy Kazakov,Дмитрий Казаков,O,75,Raw,No,B,1990-09-12,75,,,,,,147.5,,,,147.5,,,,,,147.5,5
M,Nikolay Petrokovich,Николай Петрокович,O,75,Raw,No,B,1979-08-17,72.5,,,,,,-130,-130,130,,130,,,,,,130,11
M,Nikolay Ionov,Николай Ионов,M 60 - 64,75,Raw,No,B,1949-05-20,74.3,,,,,,100,105,110,,110,,,,,,110,1
M,Dmitriy Guskov,Дмитрий Гуськов,T 18 - 19,82.5,Raw,No,B,1993-04-13,81.6,,,,,,110,115,-120,,115,,,,,,115,5
M,Andrey Putyatin,Андрей Путятин,J 20 - 23,82.5,Raw,No,B,1991-06-20,82.4,,,,,,152.5,-162.5,162.5,,162.5,,,,,,162.5,1
M,Roman Kruchyonykh,Роман Кручёных,J 20 - 23,82.5,Raw,No,B,1989-05-28,82.4,,,,,,125,132.5,-147.5,,132.5,,,,,,132.5,5
M,Dmitriy Boronikhin,Дмитрий Боронихин,J 20 - 23,82.5,Raw,No,B,1990-01-24,79.7,,,,,,100,115,-125,,115,,,,,,115,14
M,Konstantin Gausman,Константин Гаусман,O,82.5,Raw,No,B,1973-10-15,79.6,,,,,,190,200,210,-218,210,,,,,,210,1
M,Gevorg Kocharyan,Геворг Кочарян,O,82.5,Raw,No,B,1987-07-11,81.1,,,,,,147.5,170,-175,,170,,,,,,170,3
M,Roman Shchekleev,Роман Щеклеев,O,82.5,Raw,No,B,1989-08-27,80.7,,,,,,150,157.5,160,,160,,,,,,160,4
M,Semen Lyubimskiy,Семен Любимский,O,82.5,Raw,No,B,1986-03-31,79.5,,,,,,145,-147.5,-147.5,,145,,,,,,145,9
M,Mikhail Korolyov,Михаил Королёв,O,82.5,Raw,No,B,1977-05-10,80.9,,,,,,135,140,142.5,,142.5,,,,,,142.5,13
M,Aleksey Molochkov,Алексей Молочков,M 50 - 54,82.5,Raw,No,B,1962-08-08,82,,,,,,142.5,147.5,152.5,,152.5,,,,,,152.5,1
M,Murad Kyazymov,Мурад Кязымов,T 18 - 19,90,Raw,No,B,1993-03-10,89.8,,,,,,-140,-140,-140,,,,,,,,,DQ
M,Nikita Tyunin,Никита Тюнин,J 20 - 23,90,Raw,No,B,1991-11-26,83.3,,,,,,150,160,-170,,160,,,,,,160,3
M,Sergey Alekhin,Сергей Алехин,J 20 - 23,90,Raw,No,B,1989-04-15,87.8,,,,,,150,-157.5,-157.5,,150,,,,,,150,7
M,Ruslan Mudrogelov,Руслан Мудрогелов,O,90,Raw,No,B,1983-08-30,90,,,,,,180,-190,190,,190,,,,,,190,3
M,Aleksey Minaev,Алексей Минаев,O,90,Raw,No,B,1985-07-28,87.9,,,,,,170,180,187.5,,187.5,,,,,,187.5,4
M,Andrey Latyshev,Андрей Латышев,O,90,Raw,No,B,1973-04-16,87.65,,,,,,180,-185,-185,,180,,,,,,180,5
M,Semen Senin,Семен Сенин,O,90,Raw,No,B,1991-12-22,85.7,,,,,,160,170,-180,,170,,,,,,170,7
M,Aleksey Melnikov,Алексей Мельников,O,90,Raw,No,B,1987-10-22,89.4,,,,,,155,165,-180,,165,,,,,,165,10
M,Aleksandr Ivanov,Александр Иванов,O,90,Raw,No,B,1975-09-06,87.95,,,,,,150,157.5,162.5,,162.5,,,,,,162.5,12
M,Konstantin Gruzdev,Константин Груздев,O,90,Raw,No,B,1977-11-06,88.8,,,,,,150,157.5,160,,160,,,,,,160,14
M,Aleksandr Mikheev,Александр Михеев,O,90,Raw,No,B,1986-02-24,89.5,,,,,,-160,160,-165,,160,,,,,,160,15
M,Aleksandr Dobrynin,Александр Добрынин,O,90,Raw,No,B,1987-05-24,88.9,,,,,,150,-157.5,-157.5,,150,,,,,,150,23
M,Evgeniy Komarov,Евгений Комаров,O,90,Raw,No,B,1983-04-01,87.6,,,,,,135,140,145,,145,,,,,,145,25
M,Vitaliy Derevyanko,Виталий Деревянко,O,90,Raw,No,B,1974-07-05,87.55,,,,,,120,127.5,-135,,127.5,,,,,,127.5,45
M,Aleksandr Fedorov,Александр Федоров,M 40 - 44,90,Raw,No,B,1968-06-12,89.6,,,,,,155,162.5,170,-175,170,,,,,,170,1
M,Vladimir Fateev,Владимир Фатеев,M 45 - 49,90,Raw,No,B,1964-08-01,85.7,,,,,,147.5,-150,150,,150,,,,,,150,1
M,Amir Khusnetdinov,Амир Хуснетдинов,M 60 - 64,90,Raw,No,B,1948-03-01,83.1,,,,,,120,140,-150,,140,,,,,,140,2
M,Artur Nigmatullin,Артур Нигматуллин,T 18 - 19,100,Raw,No,B,1994-07-17,95.4,,,,,,170,-185.5,-185.5,,170,,,,,,170,1
M,Aleksandr Marin,Александр Марин,J 20 - 23,100,Raw,No,B,1989-06-09,96.85,,,,,,170,180,190,,190,,,,,,190,1
M,Pavel Khalatov,Павел Халатов,J 20 - 23,100,Raw,No,B,1990-02-22,90.1,,,,,,105,107.5,112.5,,112.5,,,,,,112.5,11
M,Aleksandr Revyako,Александр Ревяко,O,100,Raw,No,B,1985-07-16,95.5,,,,,,190,205,212.5,-220.5,212.5,,,,,,212.5,2
M,Aleksandr Kalyagin,Александр Калягин,O,100,Raw,No,B,1983-06-12,99.2,,,,,,190,197.5,-202.5,,197.5,,,,,,197.5,3
M,Sergey Timchenko,Сергей Тимченко,O,100,Raw,No,B,1979-12-23,90.7,,,,,,180,195,-200,,195,,,,,,195,4
M,Nikolay Chekhov,Николай Чехов,O,100,Raw,No,B,1978-03-28,99,,,,,,185,-195,-197.5,,185,,,,,,185,6
M,Andrey Mikhaylov,Андрей Михайлов,O,100,Raw,No,B,1988-02-10,96.6,,,,,,-160,-170,175,,175,,,,,,175,8
M,Mikhail Bochkov,Михаил Бочков,O,100,Raw,No,B,1987-09-18,99,,,,,,170,-190,-190,,170,,,,,,170,9
M,Evgeniy Aksenenkov,Евгений Аксененков,O,100,Raw,No,B,1983-10-01,97.9,,,,,,165,-170,-170,,165,,,,,,165,12
M,Aleksey Stolyarov,Алексей Столяров,O,100,Raw,No,B,1986-01-29,97.1,,,,,,-180,-185,,,,,,,,,,DQ
M,Artur Nigmatullin,Артур Нигматуллин,O,100,Raw,No,B,1994-07-17,95.4,,,,,,-170,,,,,,,,,,,DQ
M,Dmitriy Voronin,Дмитрий Воронин,M 40 - 44,100,Raw,No,B,1969-05-01,96,,,,,,175,-185,-190,,175,,,,,,175,1
M,Eduard Gavrilchenko,Эдуард Гаврильченко,M 45 - 49,100,Raw,No,B,1967-08-30,92,,,,,,175,185,200,,200,,,,,,200,1
M,Denis Petrov,Денис Петров,J 20 - 23,110,Raw,No,B,1992-07-20,105.3,,,,,,185,192.5,-200,,192.5,,,,,,192.5,1
M,Andrey Negorodov,Андрей Негородов,J 20 - 23,110,Raw,No,B,1989-06-05,110,,,,,,172.5,-197.5,-197.5,,172.5,,,,,,172.5,2
M,Sergey Ponomarev,Сергей Пономарев,O,110,Raw,No,B,1982-03-05,108.1,,,,,,227.5,232.5,237.5,-243,237.5,,,,,,237.5,1
M,Roman Knishchuk,Роман Книщук,O,110,Raw,No,B,1975-11-22,109.1,,,,,,225,-235,-235,,225,,,,,,225,2
M,Vladimir Svinarchuk,Владимир Свинарчук,O,110,Raw,No,B,1983-08-30,106.9,,,,,,205,215,220,,220,,,,,,220,3
M,Andrey Grudkin,Андрей Грудкин,O,110,Raw,No,B,1984-03-30,104,,,,,,210,217.5,-220,,217.5,,,,,,217.5,4
M,Ruslan Pustovoy,Руслан Пустовой,O,110,Raw,No,B,1979-08-28,110,,,,,,205,215,-222.5,,215,,,,,,215,5
M,Andrey Glukhov,Андрей Глухов,O,110,Raw,No,B,1978-04-02,108,,,,,,207.5,212.5,-217.5,,212.5,,,,,,212.5,6
M,Mikhail Korenovskiy,Михаил Кореновский,O,110,Raw,No,B,1986-01-17,108.5,,,,,,210,-215,,,210,,,,,,210,8
M,Ivan Polyakov,Иван Поляков,O,110,Raw,No,B,1974-12-25,109.5,,,,,,200,-210,,,200,,,,,,200,9
M,Igor Rakhmanov,Игорь Рахманов,O,110,Raw,No,B,1979-08-03,106.3,,,,,,190,-197.5,-197.5,,190,,,,,,190,11
M,Aleksandr Kulichkov,Александр Куличков,O,110,Raw,No,B,1988-08-02,110,,,,,,170,-180,-180,,170,,,,,,170,13
M,Igor Lipachev,Игорь Липачев,M 40 - 44,110,Raw,No,B,1968-10-12,103.6,,,,,,210,220,-227.5,,220,,,,,,220,1
M,Sergey Dyakonov,Сергей Дьяконов,M 55 - 59,110,Raw,No,B,1957-07-08,104.9,,,,,,-145,,,,,,,,,,,DQ
M,Marat Savosin,Марат Савосин,J 20 - 23,125,Raw,No,B,1990-10-23,111.6,,,,,,185,196,-207.5,,196,,,,,,196,1
M,Murad Alibegov,Мурад Алибегов,O,125,Raw,No,B,1977-02-09,122.9,,,,,,250,265,,,265,,,,,,265,1
M,Dmitriy Kostin,Дмитрий Костин,O,125,Raw,No,B,1985-09-13,120,,,,,,195,202.5,207.5,,207.5,,,,,,207.5,2
M,Sergey Larenkov,Сергей Ларенков,O,125,Raw,No,B,1980-07-13,120,,,,,,200,-207.5,-207.5,,200,,,,,,200,4
M,Mikhail Belyaev,Михаил Беляев,O,125,Raw,No,B,1988-10-05,124.9,,,,,,190,200,-207.5,,200,,,,,,200,5
M,Valeriy Chubotaru,Валерий Чуботару,O,125,Raw,No,B,1985-05-20,123.8,,,,,,190,-200,-200,,190,,,,,,190,7
M,Stanislav Zakharov,Станислав Захаров,O,125,Raw,No,B,1985-01-20,120.6,,,,,,-207.5,-207.5,-207.5,,,,,,,,,DQ
M,Aleksey Shishov,Алексей Шишов,O,125,Raw,No,B,1973-03-21,125,,,,,,-190,-190,-190,,,,,,,,,DQ
M,Roman Strelkov,Роман Стрелков,O,140,Raw,No,B,1969-08-25,125.5,,,,,,225,-232.5,232.5,,232.5,,,,,,232.5,1
M,Evgeniy Vasilev,Евгений Васильев,O,140,Raw,No,B,1982-04-09,125.6,,,,,,210,215,-217.5,,215,,,,,,215,2
M,Sergey Zimin,Сергей Зимин,M 40 - 44,140,Raw,No,B,1972-02-14,125.8,,,,,,220,227.5,-232.5,,227.5,,,,,,227.5,1
M,Evgeniy Deryuzhenko,Евгений Дерюженко,O,140+,Raw,No,B,1981-06-07,163,,,,,,200,205,210,,210,,,,,,210,2
F,Lidiya Tomchina,Лидия Томчина,O,67.5,Single-ply,No,B,1984-07-28,67,,,,,,52.5,57.5,65,,65,,,,,,65,1
M,Vitaliy Kulikov,Виталий Куликов,J 20 - 23,75,Single-ply,No,B,1990-01-03,74.45,,,,,,145,-152.5,-152.5,,145,,,,,,145,1
M,Aleksandr Davydtsev,Александр Давыдцев,O,75,Single-ply,No,B,1987-10-25,73.2,,,,,,180,188,-190,,188,,,,,,188,1
M,Valeriy Kozlovskiy,Валерий Козловский,O,90,Single-ply,No,B,1982-10-08,88.8,,,,,,205,215,-220,,215,,,,,,215,2
M,Dmitriy Zaytsev,Дмитрий Зайцев,O,90,Single-ply,No,B,1981-04-01,89.3,,,,,,145,150,155,,155,,,,,,155,4
M,Marat Abdullin,Марат Абдуллин,O,100,Single-ply,No,B,1985-07-21,98.8,,,,,,292.5,302.5,312.5,-320,312.5,,,,,,312.5,1
M,Oleg Loktionov,Олег Локтионов,O,100,Single-ply,No,B,1977-05-05,95.5,,,,,,190,-200,200,,200,,,,,,200,2
M,Leonid Golyatskiy,Леонид Голяцкий,O,100,Single-ply,No,B,1980-03-22,98.6,,,,,,-220,-220,-230,,,,,,,,,DQ
M,Oleg Zverev,Олег Зверев,O,110,Single-ply,No,B,1974-05-20,108.7,,,,,,220,232.5,240,,240,,,,,,240,1
M,Aleksey Yakovlev,Алексей Яковлев,O,100,Multi-ply,No,B,1978-03-22,96,,,,,,-220,220,-230,,220,,,,,,220,1
M,Grigoriy Lysov,Григорий Лысов,O,100,Multi-ply,No,B,1976-03-23,99.7,,,,,,190,-200,-200,,190,,,,,,190,2
M,Valeriy Kurochkin,Валерий Курочкин,O,110,Multi-ply,No,B,1978-11-09,106.4,,,,,,270,-282.5,-282.5,,270,,,,,,270,1
M,Mikhail Royanov,Михаил Роянов,O,110,Multi-ply,No,B,1977-03-04,106.2,,,,,,225,240,-242.5,,240,,,,,,240,2
M,Maksim Stepanov,Максим Степанов,O,110,Multi-ply,No,B,1988-07-18,107.3,,,,,,215,-225,-225,,215,,,,,,215,3
M,Yaroslav Golubev,Ярослав Голубев,O,110,Multi-ply,No,B,1980-02-02,109.2,,,,,,-290,-290,-290,,,,,,,,,DQ
M,Georgiy Lopatskiy,Георгий Лопацкий,O,140,Multi-ply,No,B,1962-05-16,130.1,,,,,,275,285,-300,,285,,,,,,285,1
F,Tatyana Sitnikova,Татьяна Ситникова,O,67.5,Raw,No,SBD,1982-11-09,66,90,100,105,,105,56,60,,,60,115,120,-125,,120,285,1
F,Anastasiya Burkovskaya,Анастасия Бурковская,T 18 - 19,75,Raw,No,SBD,1993-07-11,73.85,77.5,-85,-85,,77.5,37.5,42.5,-45,,42.5,85,95,97.5,,97.5,217.5,1
F,Natalya Strelkova,Наталья Стрелкова,J 20 - 23,75,Raw,No,SBD,1992-08-05,72.25,75,-80,82.5,,82.5,-35,35,-40,,35,85,90,100,,100,217.5,1
F,Alina Fadeeva,Алина Фадеева,O,75,Raw,No,SBD,1988-09-09,71.4,100,105,111,,111,70,75,,,75,125,136,,,136,322,1
M,Andrey Komolov,Андрей Комолов,T 13-15,56,Raw,No,SBD,1997-11-08,54.45,70,77.5,85,,85,40,45,50,,50,80,95,105,,105,240,1
M,Sergey Dobrynin,Сергей Добрынин,T 18 - 19,75,Raw,No,SBD,1993-10-19,73.2,165,175,185,,185,130,137.5,-142.5,,137.5,-200,-200,200,,200,522.5,1
M,Aleksandr Sadovnikov,Александр Садовников,O,75,Raw,No,SBD,1983-01-25,75,-192.5,192.5,200,,200,122.5,-130,130,,130,-250,252.5,-270,,252.5,582.5,1
M,Aleksandr Yakovlev,Александр Яковлев,O,75,Raw,No,SBD,1982-12-15,74.5,145,155,-170,,155,-120,120,-127.5,,120,200,205,212.5,,212.5,487.5,3
M,Ragim Balakshiev,Рагим Балакшиев,J 20 - 23,82.5,Raw,No,SBD,1990-06-17,82,195,-205,205,,205,145,-155,-155,,145,230,-240,,,230,580,1
M,Aleksey Ovchinnikov,Алексей Овчинников,O,82.5,Raw,No,SBD,1986-08-28,82.1,200,-210,210,,210,-150,150,-160,,150,210,235,255,,255,615,2
M,Aleksey Koshuba,Алексей Кошуба,O,82.5,Raw,No,SBD,1980-10-09,82.5,180,190,200,,200,130,-135,-135,,130,250,260,-270,,260,590,3
M,Konstantin Sapunkov,Константин Сапунков,O,82.5,Raw,No,SBD,1981-09-02,82.5,182.5,-192.5,-192.5,,182.5,140,147.5,,,147.5,200,212.5,-220,,212.5,542.5,6
M,Dmitriy Bogdanov,Дмитрий Богданов,J 20 - 23,90,Raw,No,SBD,1992-06-29,90,240,252.5,-260,,252.5,-160,160,165,,165,265,-276,-276,,265,682.5,1
M,Dmitriy Maleev,Дмитрий Малеев,J 20 - 23,90,Raw,No,SBD,1990-02-06,85.7,205,215,222.5,,222.5,165,-175,175,,175,250,260,-276,,260,657.5,2
M,Anatoliy Salin,Анатолий Салин,J 20 - 23,90,Raw,No,SBD,1991-12-22,87.5,-150,-150,150,,150,127.5,132.5,-140,,132.5,170,180,190,,190,472.5,4
M,Aleksey Mershchikov,Алексей Мерщиков,O,90,Raw,No,SBD,1982-05-25,88.9,230,240,-250,,240,170,177.5,182.5,,182.5,250,270,280,,280,702.5,1
M,Valeriy Beloglazov,Валерий Белоглазов,O,90,Raw,No,SBD,1981-04-27,89,-210,-220,220,,220,155,165,170,,170,-250,257.5,265,,265,655,3
M,Dmitriy Melikhov,Дмитрий Мелихов,O,90,Raw,No,SBD,1979-09-19,88.5,205,210,215,,215,140,145,-150,,145,225,235,245,,245,605,7
M,Andrey Bubin,Андрей Бубин,O,90,Raw,No,SBD,1981-06-08,88.9,-170,170,-185,,170,135,-140,140,,140,200,207.5,-225,,207.5,517.5,9
M,Vladimir Orlov,Владимир Орлов,O,90,Raw,No,SBD,1977-11-07,88.4,-192.5,-192.5,195,,195,-120,,,,,,,,,,,DQ
M,Vyacheslav Svyatkin,Вячеслав Святкин,O,90,Raw,No,SBD,1989-05-19,89.3,-197.5,-197.5,-197.5,,,,,,,,,,,,,,DQ
M,Dmitriy Postnov,Дмитрий Постнов,M 40 - 44,90,Raw,No,SBD,1971-07-17,90,185,200,210,,210,140,150,-155,,150,205,225,-240,,225,585,1
M,Yuriy Lobachyov,Юрий Лобачёв,M 70 - 74,90,Raw,No,SBD,1938-10-04,88.75,-120,120,130,,130,80,85,-90,,85,150,-170,175,,175,390,2
M,Pavel Parov,Павел Паров,J 20 - 23,100,Raw,No,SBD,1990-07-03,99.1,-220,-220,,,,,,,,,,,,,,,DQ
M,Igor Paramonov,Игорь Парамонов,O,100,Raw,No,SBD,1983-11-17,97.9,220,230,245,,245,175,185,-192.5,,185,260,275,290,,290,720,2
M,Ivan Abramov,Иван Абрамов,O,100,Raw,No,SBD,1980-05-18,100,205,220,-230,,220,160,-170,-170,,160,250,260,-270,,260,640,3
M,Anton Yashchuk,Антон Ящук,O,100,Raw,No,SBD,1980-12-20,98.1,210,,,,210,130,,,,130,230,-250,,,230,570,6
M,Sergey Khramtsov,Сергей Храмцов,O,100,Raw,No,SBD,1982-02-12,98.2,210,220,,,220,160,165,-170,,165,-230,-230,-230,,,,DQ
M,Veniamin Kirpichenko,Вениамин Кирпиченко,M 45 - 49,100,Raw,No,SBD,1963-12-14,98.3,-140,-140,140,,140,125,-130,130,,130,180,190,-205,,190,460,2
M,Vitaliy Bobrov,Виталий Бобров,O,110,Raw,No,SBD,1981-07-30,103.1,270,290,302.5,,302.5,195,205,212.5,,212.5,300,312.5,330,,330,845,1
M,Ivan Zevyakin,Иван Зевякин,O,110,Raw,No,SBD,1988-06-28,105,280,295,-305,,295,180,190,-197.5,,190,-305,320,330,,330,815,2
M,Artem Kobanov,Артем Кобанов,O,110,Raw,No,SBD,1992-01-10,105.6,-265,265,-277.5,,265,192.5,202.5,210,-212,210,285,295,302.5,,302.5,777.5,3
M,Aleksey Smirnov,Алексей Смирнов,O,110,Raw,No,SBD,1977-09-20,105.6,220,230,240,,240,160,170,-175,,170,255,270,280,,280,690,4
M,Denis Gromanov,Денис Громанов,O,110,Raw,No,SBD,1981-09-24,105.9,230,-260,-260,,230,160,180,-185,,180,230,250,,,250,660,6
M,Miroslav Shlapak,Мирослав Шлапак,M 40 - 44,110,Raw,No,SBD,1968-08-12,109.5,-205,-210,210,,210,-160,160,170,,170,-255,270,280,,280,660,1
M,Roman Denikaev,Роман Деникаев,M 55 - 59,110,Raw,No,SBD,1955-06-06,102.9,-160,-160,-160,,,,,,,,,,,,,,DQ
M,Marat Savosin,Марат Савосин,J 20 - 23,125,Raw,No,SBD,1990-10-23,111.6,245,265,275,,275,185,195,203,,203,-265,265,-280,,265,742.5,1
M,Anton Bardin,Антон Бардин,O,125,Raw,No,SBD,1990-11-17,122.3,230,250,-260,,250,160,170,-180,,170,310,322.5,330,,330,750,2
M,Aleksandr Pirogov #2,Александр Пирогов,O,140,Raw,No,SBD,1984-09-16,137.2,310,325,340,,340,-210,-210,-210,,,,,,,,,DQ
M,Aleksandr Rek,Александр Рек,O,67.5,Single-ply,No,SBD,1987-07-13,67.1,-215,220,-232.5,,220,120,127.5,-132.5,,127.5,-190,-190,190,-210,190,537.5,1
M,Roman Kiselyov,Роман Киселёв,T 16-17,82.5,Single-ply,No,SBD,1995-11-13,82,270,-285,-285,,270,135,-145,-145,,135,210,227.5,-235,,227.5,632.5,1
M,Andrey Semunin,Андрей Семунин,T 16-17,82.5,Single-ply,No,SBD,1996-07-15,81.9,230,245,-252.5,,245,-115,122.5,-130,,122.5,200,-215,-227.5,,200,567.5,2
M,Artem Tyutikov,Артем Тютиков,O,90,Single-ply,No,SBD,1982-11-12,90,280,295,-307.5,,295,180,-187.5,-187.5,,180,240,-255,,,240,715,1
M,Dmitriy Zaytsev,Дмитрий Зайцев,O,90,Single-ply,No,SBD,1981-04-01,89.3,170,180,190,,190,150,155,,,155,160,170,180,,180,525,2
M,Pavel Perov,Павел Перов,J 20 - 23,100,Single-ply,No,SBD,1990-07-03,99.1,-220,-240,-240,,,,,,,,,,,,,,DQ
M,Pavel Vasilev,Павел Васильев,O,100,Single-ply,No,SBD,1978-01-09,96.9,185,210,-235,,210,165,-175,-180,,165,200,220,-255,,220,595,1
M,Dmitriy Kurov,Дмитрий Куров,O,100,Single-ply,No,SBD,1982-03-02,99.7,-280,280,-300,,280,-180,-180,-180,,,,,,,,,DQ
M,Aleksey Baryshev,Алексей Барышев,J 20 - 23,110,Single-ply,No,SBD,1989-04-07,106.4,-335,-335,-335,,,,,,,,,,,,,,DQ
M,Aleksey Kurkov,Алексей Курков,O,110,Single-ply,No,SBD,1976-03-29,103.1,235,250,260,,260,145,-150,150,,150,235,-255,-257.5,,235,645,1
M,Viktor Zhbankov,Виктор Жбанков,T 18 - 19,125,Single-ply,No,SBD,1992-06-09,115.5,285,-300,300,,300,200,215,225,,225,-275,300,315,,315,840,1
M,Vyacheslav Sidyakin,Вячеслав Сидякин,O,140,Single-ply,No,SBD,1978-06-08,135.7,350,-375,-390,,350,-250,250,-260,,250,300,327.5,332.5,,332.5,932.5,1
M,Evgeniy Khudoleev,Евгений Худолеев,M 65 - 69,90,Multi-ply,No,SBD,1946-09-10,89.1,220,-235,,,220,-170,-170,-170,,,-200,,,,,,DQ
M,Pavel Perov,Павел Перов,J 20 - 23,100,Multi-ply,No,SBD,1990-07-03,99.1,-220,,,,-220,-160,,,,,-210,,,,,,DQ
F,Olga Novikova,Ольга Новикова,O,56,Raw,No,D,1978-07-29,53.3,,,,,,,,,,,55,65,75,,75,75,1
F,Darya Kremen,Дарья Кремень,O,67.5,Raw,No,D,1989-10-30,65,,,,,,,,,,,140,-150,-160,,140,140,1
F,Tatyana Sitnikova,Татьяна Ситникова,O,67.5,Raw,No,D,1982-11-09,66,,,,,,,,,,,115,-125,-125,,115,115,2
F,Alina Fadeeva,Алина Фадеева,O,75,Raw,No,D,1988-09-09,71.4,,,,,,,,,,,90,,,,90,90,4
M,Vitaliy Penkov,Виталий Пеньков,J 20 - 23,60,Raw,No,D,1992-04-23,60,,,,,,,,,,,90,110,-122.5,,110,110,1
M,Vitaliy Kulikov,Виталий Куликов,J 20 - 23,75,Raw,No,D,1990-01-03,74.45,,,,,,,,,,,-150,-155,-155,,,,DQ
M,Aleksandr Sidorenko,Александр Сидоренко,O,75,Raw,No,D,1984-08-25,71.1,,,,,,,,,,,-140,142.5,147.5,,147.5,147.5,3
M,Aleksey Koshuba,Алексей Кошуба,O,82.5,Raw,No,D,1980-10-09,82.5,,,,,,,,,,,250,-260,260,,260,260,2
M,Nikolay Kotlyarov,Николай Котляров,J 20 - 23,90,Raw,No,D,1990-02-28,89.1,,,,,,,,,,,215,235,250,,250,250,2
M,Oleg Khromov,Олег Хромов,O,90,Raw,No,D,1978-08-25,87.8,,,,,,,,,,,180,-200,-200,,180,180,3
M,Evgeniy Khudoleev,Евгений Худолеев,M 65 - 69,90,Raw,No,D,1946-09-10,89.1,,,,,,,,,,,200,215,225,,225,225,1
M,Mikhail Bochkov,Михаил Бочков,O,100,Raw,No,D,1987-09-18,99,,,,,,,,,,,-250,277.5,-300,,277.5,277.5,2
M,Roman Terekhov,Роман Терехов,O,100,Raw,No,D,1981-08-07,98.8,,,,,,,,,,,195,215,-225,,215,215,3
M,Dmitriy Loginov,Дмитрий Логинов,J 20 - 23,110,Raw,No,D,1989-05-12,109.1,,,,,,,,,,,330,-350,-350,,330,330,1
M,Egor Konovalov,Егор Коновалов,J 20 - 23,110,Raw,No,D,1991-09-24,101.4,,,,,,,,,,,270,-285,285,,285,285,2
M,Ivan Zevyakin,Иван Зевякин,O,110,Raw,No,D,1988-06-28,105,,,,,,,,,,,310,320,330,,330,330,1
M,Anton Bardin,Антон Бардин,O,125,Raw,No,D,1990-11-17,122.3,,,,,,,,,,,300,310,320,,320,320,1
M,Aleksey Bareyshin,Алексей Барейшин,O,125,Raw,No,D,1981-10-27,113,,,,,,,,,,,290,307.5,312.5,,312.5,312.5,2
M,Konstantin Sapunkov,Константин Сапунков,O,82.5,Single-ply,No,D,1981-09-02,82.5,,,,,,,,,,,220,235,-250,,235,235,2
M,Maksim Tomchin,Максим Томчин,O,90,Single-ply,No,D,1980-11-13,82.6,,,,,,,,,,,160,185,200,,200,200,1
M,Yuriy Ustinov,Юрий Устинов,O,100,Single-ply,No,D,1975-05-10,98.7,,,,,,,,,,,275,305,-320,,305,305,2
M,Ruslan Pustovoy,Руслан Пустовой,O,110,Single-ply,No,D,1979-08-28,110,,,,,,,,,,,280,300,-310,,300,300,1
M,Igor Potapov,Игорь Потапов,O,110,Single-ply,No,D,1987-06-26,108.6,,,,,,,,,,,220,250,-270,,250,250,2
M,Aleksandr Evsyutkin,Александр Евсюткин,O,110,Single-ply,No,D,1988-03-07,101.1,,,,,,,,,,,210,230,-240,,230,230,3
M,Vyacheslav Sidyakin,Вячеслав Сидякин,O,140,Single-ply,No,D,1978-06-08,135.7,,,,,,,,,,,275,300,330,,330,330,1
